#iter	time	topo	loglik	length	alpha	Nmode	statent	statalpha
1	125.844	92	-2.98507e+06	14.9696	0.684729	1	2.83934	20
2	126.562	93	-2.84545e+06	18.4247	0.62293	1	2.8838	20
3	130.692	93	-2.76546e+06	21.1372	0.594245	1	2.88555	20
4	131.616	93	-2.7165e+06	22.9829	0.577618	1	2.8828	20
5	141.539	93	-2.63893e+06	23.2068	0.56835	1	2.88174	20
6	138.377	93	-2.57471e+06	23.1267	0.565421	1	2.88193	20
7	145.274	93	-2.53591e+06	22.6784	0.564113	1	2.88185	20
8	132.481	93	-2.5042e+06	23.1077	0.562266	1	2.88075	20
9	131.196	93	-2.46892e+06	23.0153	0.565228	1	2.87976	20
10	131.034	93	-2.44132e+06	22.4504	0.567113	1	2.88024	20
11	133.198	93	-2.42048e+06	21.8476	0.567201	1	2.87993	20
12	125.985	93	-2.40734e+06	21.3775	0.571491	1	2.87984	20
13	146.985	94	-2.4044e+06	20.7664	0.573792	1	2.88056	20
14	140.747	93	-2.38346e+06	20.5642	0.577224	1	2.88138	20
15	144.856	93	-2.37329e+06	20.4219	0.579083	1	2.88	20
16	133.292	93	-2.37025e+06	20.0011	0.581563	1	2.88083	20
17	133.356	93	-2.36772e+06	19.8753	0.582174	1	2.88107	20
18	137.11	93	-2.35703e+06	19.4794	0.580729	1	2.88125	20
19	136.939	93	-2.35638e+06	19.3924	0.580729	1	2.88148	20
20	130.528	93	-2.35328e+06	19.1843	0.579452	1	2.88116	20
21	146.488	84	-2.35181e+06	18.8995	0.579917	1	2.88132	20
22	131.28	93	-2.35048e+06	18.694	0.581963	1	2.88152	20
23	133.797	93	-2.35034e+06	18.6042	0.582326	1	2.88134	20
24	131.598	93	-2.34937e+06	18.5493	0.582252	1	2.88129	20
25	136.017	93	-2.34589e+06	18.4562	0.582666	1	2.8814	20
26	133.183	93	-2.34335e+06	18.4292	0.582666	1	2.88147	20
27	136.476	93	-2.34028e+06	18.235	0.582047	1	2.88176	20
28	134.17	93	-2.33848e+06	18.2069	0.583763	1	2.88252	20
29	130.332	93	-2.33579e+06	18.1891	0.584625	1	2.88236	20
30	133.538	93	-2.33502e+06	18.0659	0.584035	1	2.88256	20
31	135.712	93	-2.33468e+06	18.0111	0.58477	1	2.88216	20
32	129.541	93	-2.33415e+06	18.061	0.584414	1	2.88107	20
33	133.819	93	-2.33329e+06	18.0364	0.581889	1	2.88196	20
34	129.839	93	-2.33305e+06	17.676	0.580853	1	2.8829	20
35	134.572	93	-2.33298e+06	17.5827	0.582614	1	2.88284	20
36	132.923	93	-2.33023e+06	17.5618	0.585842	1	2.88306	20
37	133.736	93	-2.32978e+06	17.6771	0.584296	1	2.88306	20
38	135.485	93	-2.32544e+06	17.6224	0.584987	1	2.88297	20
39	143.267	93	-2.32496e+06	17.6092	0.584522	1	2.88285	20
40	152.306	92	-2.32486e+06	17.4921	0.584522	1	2.88322	20
41	221.906	92	-2.32486e+06	17.5618	0.583823	1	2.88282	20
42	275.345	93	-2.32408e+06	17.6933	0.58522	1	2.88261	20
43	291.298	94	-2.32325e+06	17.5349	0.586124	1	2.88208	20
44	280.16	93	-2.32308e+06	17.1358	0.587487	1	2.88279	20
45	311.864	94	-2.32287e+06	17.0248	0.586309	1	2.88341	20
46	285.302	94	-2.32172e+06	16.9921	0.585927	1	2.88301	20
47	262.584	93	-2.32146e+06	16.9966	0.58637	1	2.88246	20
48	276.507	94	-2.32134e+06	16.9541	0.586878	1	2.88301	20
49	279.905	94	-2.32132e+06	16.8824	0.585304	1	2.88308	20
50	275.812	93	-2.32131e+06	16.8318	0.584711	1	2.88296	20
51	276.868	94	-2.32131e+06	16.8777	0.587136	1	2.8827	20
52	289.931	90	-2.32129e+06	16.9723	0.589123	1	2.88236	20
53	285.597	94	-2.32127e+06	16.9132	0.589123	1	2.88234	20
54	283.944	94	-2.32121e+06	16.9452	0.587666	1	2.88265	20
55	273.034	93	-2.32119e+06	16.8256	0.583697	1	2.88261	20
56	290.814	94	-2.32111e+06	16.8045	0.583936	1	2.88353	20
57	280.936	94	-2.32092e+06	16.8731	0.584624	1	2.88232	20
58	292.661	94	-2.32089e+06	16.7313	0.583887	1	2.88235	20
59	295.047	94	-2.32088e+06	16.7972	0.585431	1	2.88243	20
60	288.021	94	-2.32081e+06	16.7537	0.587144	1	2.88293	20
61	286.075	94	-2.32076e+06	16.737	0.58443	1	2.88348	20
62	287.817	94	-2.32074e+06	16.7044	0.58443	1	2.88298	20
63	283.687	94	-2.32074e+06	16.5774	0.58719	1	2.88304	20
64	277.013	94	-2.32073e+06	16.5759	0.588572	1	2.88326	20
65	274.712	94	-2.32073e+06	16.5848	0.586596	1	2.88358	20
66	276.737	94	-2.32073e+06	16.5353	0.586807	1	2.88294	20
67	265.984	94	-2.3207e+06	16.5344	0.587269	1	2.88259	20
68	262.373	93	-2.32071e+06	16.5917	0.585926	1	2.88226	20
69	269.387	94	-2.32071e+06	16.5795	0.587161	1	2.8829	20
70	271.6	94	-2.32071e+06	16.5881	0.586498	1	2.88302	20
71	269.338	94	-2.32071e+06	16.6452	0.587264	1	2.88317	20
72	273.179	93	-2.3207e+06	16.6422	0.586618	1	2.88283	20
73	273.355	94	-2.32071e+06	16.6486	0.584387	1	2.88338	20
74	275.523	94	-2.32072e+06	16.5849	0.581211	1	2.88295	20
75	289.273	87	-2.32072e+06	16.6358	0.581556	1	2.88323	20
76	270.977	94	-2.32069e+06	16.5801	0.5851	1	2.88308	20
77	276.169	93	-2.32073e+06	16.5705	0.587087	1	2.88307	20
78	274.634	94	-2.32072e+06	16.5949	0.586312	1	2.88308	20
79	272.003	94	-2.32072e+06	16.5308	0.587096	1	2.88328	20
80	265.014	93	-2.32071e+06	16.6357	0.586103	1	2.88277	20
81	276.288	94	-2.32071e+06	16.6315	0.587092	1	2.88318	20
82	265.591	93	-2.32073e+06	16.5461	0.587696	1	2.88376	20
83	278.844	94	-2.32071e+06	16.5673	0.58481	1	2.88302	20
84	256.803	93	-2.32071e+06	16.5951	0.586029	1	2.88262	20
85	271.598	94	-2.32072e+06	16.6517	0.583205	1	2.88207	20
86	272.687	94	-2.32072e+06	16.641	0.584063	1	2.88296	20
87	271.49	94	-2.3207e+06	16.6195	0.585374	1	2.88245	20
88	284.993	94	-2.32072e+06	16.6211	0.584819	1	2.88248	20
89	288.362	94	-2.32072e+06	16.671	0.584034	1	2.88365	20
90	279.128	94	-2.32073e+06	16.7061	0.579876	1	2.88298	20
91	283.581	94	-2.32072e+06	16.7773	0.580837	1	2.88315	20
92	281.487	94	-2.32071e+06	16.6687	0.581563	1	2.88249	20
93	282.221	94	-2.32071e+06	16.5548	0.58248	1	2.88307	20
94	275.673	94	-2.32071e+06	16.5225	0.583648	1	2.88372	20
95	273.674	94	-2.32073e+06	16.5244	0.586683	1	2.88341	20
96	267.245	93	-2.32073e+06	16.5037	0.586683	1	2.88308	20
97	274.692	94	-2.32072e+06	16.5557	0.586805	1	2.88372	20
98	279.615	94	-2.32072e+06	16.5577	0.586917	1	2.88383	20
99	274.504	93	-2.32071e+06	16.6153	0.586271	1	2.88333	20
100	284.891	94	-2.32071e+06	16.6843	0.585148	1	2.88261	20
101	271.275	93	-2.32072e+06	16.6083	0.585499	1	2.88316	20
102	280.712	94	-2.32072e+06	16.7547	0.583558	1	2.88328	20
103	287.445	94	-2.32073e+06	16.6767	0.583996	1	2.88341	20
104	276.984	94	-2.32075e+06	16.7093	0.586525	1	2.88254	20
105	283.582	94	-2.32071e+06	16.6565	0.586074	1	2.88279	20
106	289.462	94	-2.32071e+06	16.6732	0.586074	1	2.88282	20
107	281.015	94	-2.32072e+06	16.666	0.586994	1	2.88189	20
108	287.655	94	-2.32073e+06	16.6863	0.585714	1	2.88271	20
109	284.43	94	-2.32071e+06	16.6552	0.584109	1	2.88322	20
110	273.032	93	-2.32071e+06	16.7068	0.58461	1	2.88294	20
111	275.572	94	-2.32072e+06	16.614	0.589518	1	2.8833	20
112	274.84	94	-2.32072e+06	16.623	0.587956	1	2.88371	20
113	271.4	94	-2.3207e+06	16.5999	0.586233	1	2.88375	20
114	266.18	94	-2.32072e+06	16.6605	0.586209	1	2.88316	20
115	277.423	94	-2.32072e+06	16.6422	0.586831	1	2.88298	20
116	280.594	94	-2.32072e+06	16.5757	0.590279	1	2.88351	20
117	279.189	94	-2.32074e+06	16.5133	0.590876	1	2.88381	20
118	275.701	94	-2.32073e+06	16.5264	0.589034	1	2.88337	20
119	270.356	94	-2.32073e+06	16.5534	0.588588	1	2.88295	20
120	278.07	94	-2.32076e+06	16.5535	0.588781	1	2.88283	20
121	268.97	93	-2.32074e+06	16.5891	0.587541	1	2.88309	20
122	273.661	93	-2.32073e+06	16.608	0.589179	1	2.88293	20
123	276.228	93	-2.32072e+06	16.5892	0.588462	1	2.88317	20
124	274.326	94	-2.32072e+06	16.6131	0.588462	1	2.88321	20
125	277.054	94	-2.32071e+06	16.6439	0.586456	1	2.88246	20
126	275.977	94	-2.32071e+06	16.5685	0.586043	1	2.88298	20
127	274.797	93	-2.32073e+06	16.5807	0.585422	1	2.88307	20
128	286.62	94	-2.32072e+06	16.5959	0.582932	1	2.88352	20
129	279.255	94	-2.32071e+06	16.5543	0.583193	1	2.88305	20
130	273.477	93	-2.32071e+06	16.5863	0.580281	1	2.88302	20
131	278.363	94	-2.32071e+06	16.527	0.582772	1	2.8822	20
132	282.16	94	-2.32071e+06	16.6011	0.586228	1	2.8822	20
133	273.167	93	-2.32073e+06	16.6315	0.583835	1	2.88252	20
134	280.643	94	-2.32071e+06	16.6762	0.585759	1	2.88241	20
135	278.26	94	-2.32072e+06	16.6479	0.585083	1	2.88232	20
136	291.224	94	-2.32072e+06	16.7581	0.584993	1	2.88192	20
137	279.293	94	-2.32072e+06	16.724	0.584241	1	2.88154	20
138	274.85	94	-2.32072e+06	16.7461	0.579853	1	2.88159	20
139	279.59	94	-2.32073e+06	16.6761	0.581951	1	2.88186	20
140	268.226	93	-2.32071e+06	16.6647	0.585301	1	2.88254	20
141	282.626	94	-2.32072e+06	16.759	0.58521	1	2.88159	20
142	270.844	93	-2.32071e+06	16.7827	0.585422	1	2.88205	20
143	283.742	94	-2.32072e+06	16.772	0.586327	1	2.88176	20
144	275.768	93	-2.32073e+06	16.6581	0.587579	1	2.88203	20
145	270.174	93	-2.32073e+06	16.6397	0.583804	1	2.8818	20
146	264.901	93	-2.32071e+06	16.6056	0.582397	1	2.88216	20
147	270.354	93	-2.3207e+06	16.6511	0.584648	1	2.88219	20
148	274.774	93	-2.32071e+06	16.6101	0.584648	1	2.88178	20
149	276.306	93	-2.32072e+06	16.561	0.582235	1	2.883	20
150	276.524	93	-2.32072e+06	16.6392	0.582997	1	2.88204	20
151	271.624	93	-2.32071e+06	16.6244	0.584286	1	2.88188	20
152	283.086	94	-2.32071e+06	16.5852	0.584286	1	2.88235	20
153	271.859	93	-2.32071e+06	16.5948	0.583666	1	2.88293	20
154	286.84	94	-2.32071e+06	16.5839	0.583666	1	2.88316	20
155	287.266	94	-2.32072e+06	16.642	0.583666	1	2.8835	20
156	282.347	94	-2.32072e+06	16.6894	0.583549	1	2.88208	20
157	299.001	94	-2.32072e+06	16.6918	0.581528	1	2.88193	20
158	296.141	94	-2.32072e+06	16.7253	0.579936	1	2.88158	20
159	296.827	94	-2.32071e+06	16.6281	0.582897	1	2.88164	20
160	299.593	94	-2.32073e+06	16.6043	0.587331	1	2.88172	20
161	287.976	94	-2.32072e+06	16.6633	0.586269	1	2.88127	20
162	287.406	94	-2.32074e+06	16.5894	0.586269	1	2.88154	20
163	280.606	94	-2.3207e+06	16.6676	0.586269	1	2.88182	20
164	289.847	94	-2.32071e+06	16.6173	0.586146	1	2.88184	20
165	289.439	94	-2.32071e+06	16.6504	0.58383	1	2.88173	20
166	283.477	93	-2.32072e+06	16.5809	0.584984	1	2.88157	20
167	286.402	93	-2.32072e+06	16.5918	0.584642	1	2.88153	20
168	290.114	94	-2.32072e+06	16.685	0.582194	1	2.88228	20
169	291.325	94	-2.32073e+06	16.6624	0.581616	1	2.88172	20
170	290.97	94	-2.32071e+06	16.7054	0.582588	1	2.88265	20
171	293.846	94	-2.32072e+06	16.6912	0.583904	1	2.88311	20
172	299.722	94	-2.3207e+06	16.6473	0.584383	1	2.88336	20
173	309.013	94	-2.32072e+06	16.6804	0.584383	1	2.88471	20
174	303.472	94	-2.32072e+06	16.7218	0.588288	1	2.88293	20
175	300.266	94	-2.32072e+06	16.6874	0.589081	1	2.8839	20
176	303.009	94	-2.32071e+06	16.6928	0.590868	1	2.88356	20
177	303.242	94	-2.32072e+06	16.6595	0.588885	1	2.88365	20
178	309.374	94	-2.32071e+06	16.5975	0.588593	1	2.88323	20
179	302.187	94	-2.32071e+06	16.5608	0.588281	1	2.88261	20
180	300.458	94	-2.32072e+06	16.5862	0.586518	1	2.88224	20
181	300.103	94	-2.32071e+06	16.6028	0.58767	1	2.88175	20
182	301.874	94	-2.32072e+06	16.6025	0.587458	1	2.88246	20
183	298.994	94	-2.32072e+06	16.6198	0.5902	1	2.88235	20
184	300.568	94	-2.32073e+06	16.5644	0.589629	1	2.88328	20
185	303.515	94	-2.32071e+06	16.6254	0.587846	1	2.88292	20
186	296.451	94	-2.32072e+06	16.4791	0.586691	1	2.88353	20
187	295.052	94	-2.32073e+06	16.5963	0.58719	1	2.88239	20
188	280.601	93	-2.32072e+06	16.6042	0.589314	1	2.88342	20
189	291.247	94	-2.32074e+06	16.6452	0.587698	1	2.88223	20
190	284.463	94	-2.32071e+06	16.6185	0.58699	1	2.88284	20
191	287.126	93	-2.32073e+06	16.7143	0.587678	1	2.88321	20
192	290.151	94	-2.32071e+06	16.674	0.587001	1	2.88209	20
193	296.348	94	-2.32071e+06	16.7749	0.586196	1	2.88252	20
194	287.628	94	-2.32071e+06	16.8106	0.586196	1	2.88238	20
195	279.854	93	-2.3207e+06	16.7282	0.585102	1	2.88314	20
196	287.731	94	-2.32072e+06	16.616	0.584907	1	2.88186	20
197	289.99	94	-2.32072e+06	16.6457	0.586043	1	2.88183	20
198	283.885	93	-2.32072e+06	16.6224	0.584856	1	2.88318	20
199	291.775	94	-2.32071e+06	16.6749	0.584539	1	2.88259	20
200	287.378	94	-2.32073e+06	16.5883	0.582222	1	2.88237	20
201	279.762	94	-2.32071e+06	16.5962	0.581772	1	2.88173	20
202	289.272	93	-2.32072e+06	16.6174	0.584951	1	2.88232	20
203	295.06	94	-2.32072e+06	16.7043	0.586808	1	2.8825	20
204	292.11	94	-2.32071e+06	16.6915	0.585611	1	2.88326	20
205	292.515	94	-2.32073e+06	16.6616	0.588283	1	2.88294	20
206	284.309	94	-2.32073e+06	16.7003	0.586049	1	2.88308	20
207	297.21	94	-2.32073e+06	16.6949	0.584783	1	2.88294	20
208	276.874	93	-2.32072e+06	16.6721	0.587274	1	2.88339	20
209	292.402	94	-2.32073e+06	16.5838	0.589629	1	2.88406	20
210	299.327	94	-2.32073e+06	16.6399	0.590943	1	2.88401	20
211	287.708	94	-2.32072e+06	16.6072	0.589489	1	2.8832	20
212	275.75	93	-2.32073e+06	16.5844	0.59151	1	2.88283	20
213	284.856	94	-2.32072e+06	16.588	0.591053	1	2.88288	20
214	282.958	93	-2.32071e+06	16.5792	0.590238	1	2.88254	20
215	298.37	94	-2.32072e+06	16.616	0.587964	1	2.88327	20
216	294.822	94	-2.3207e+06	16.6684	0.587313	1	2.88297	20
217	289.988	94	-2.32072e+06	16.7254	0.587313	1	2.8827	20
218	287.666	94	-2.32071e+06	16.7062	0.58505	1	2.88319	20
219	293.78	94	-2.32071e+06	16.7529	0.584981	1	2.88323	20
220	292.126	94	-2.32072e+06	16.7421	0.587638	1	2.88176	20
221	291.123	94	-2.32073e+06	16.7177	0.588502	1	2.88316	20
222	300.611	94	-2.32073e+06	16.661	0.587769	1	2.88307	20
223	295.277	94	-2.32072e+06	16.6514	0.586103	1	2.883	20
224	296.43	94	-2.32072e+06	16.6392	0.584497	1	2.88257	20
225	283.794	93	-2.3207e+06	16.5851	0.582986	1	2.88251	20
226	291.108	94	-2.32072e+06	16.6469	0.584643	1	2.88195	20
227	282.971	93	-2.32072e+06	16.7062	0.587589	1	2.88191	20
228	297.286	94	-2.32073e+06	16.6865	0.587719	1	2.88203	20
229	296.256	94	-2.32071e+06	16.6676	0.58714	1	2.88274	20
230	282.709	93	-2.32073e+06	16.6291	0.586337	1	2.88197	20
231	289.774	94	-2.32071e+06	16.6208	0.587049	1	2.88244	20
232	292.88	94	-2.3207e+06	16.6603	0.587948	1	2.8823	20
233	293.809	94	-2.32072e+06	16.6114	0.591074	1	2.88269	20
234	297.009	94	-2.32072e+06	16.643	0.592445	1	2.88236	20
235	291.718	94	-2.32072e+06	16.6033	0.589834	1	2.882	20
236	292.893	94	-2.32072e+06	16.6463	0.590146	1	2.88186	20
237	278.435	93	-2.32073e+06	16.7088	0.585061	1	2.88183	20
238	277.792	93	-2.32074e+06	16.7436	0.587171	1	2.8823	20
239	323.043	94	-2.32071e+06	16.7699	0.588057	1	2.88219	20
240	287.886	94	-2.32072e+06	16.7093	0.586865	1	2.88166	20
241	272.459	93	-2.32072e+06	16.6627	0.586576	1	2.88265	20
242	282.214	94	-2.32073e+06	16.6819	0.586118	1	2.88249	20
243	279.248	94	-2.32072e+06	16.6997	0.58656	1	2.88259	20
244	267.478	93	-2.32071e+06	16.7237	0.58599	1	2.88234	20
245	286.024	93	-2.32072e+06	16.6863	0.588955	1	2.88268	20
246	277.638	93	-2.32072e+06	16.746	0.587058	1	2.88311	20
247	286.898	94	-2.32071e+06	16.71	0.588288	1	2.88278	20
248	289.051	92	-2.32071e+06	16.6282	0.586078	1	2.88313	20
249	288.592	94	-2.32072e+06	16.5892	0.587016	1	2.88336	20
250	284.427	94	-2.32072e+06	16.6664	0.584496	1	2.88324	20
251	281.966	94	-2.32072e+06	16.7211	0.585838	1	2.88324	20
252	281.611	94	-2.32071e+06	16.5738	0.586011	1	2.88244	20
253	282.116	94	-2.32071e+06	16.594	0.588902	1	2.88308	20
254	274.577	93	-2.32071e+06	16.6245	0.591185	1	2.88332	20
255	272.738	93	-2.32072e+06	16.6871	0.590966	1	2.88245	20
256	284.081	94	-2.32072e+06	16.6564	0.590226	1	2.88244	20
257	281.216	94	-2.32072e+06	16.5751	0.58838	1	2.88242	20
258	282.478	94	-2.32072e+06	16.6055	0.58838	1	2.88217	20
259	280.114	94	-2.3207e+06	16.6556	0.58838	1	2.88214	20
260	279.201	94	-2.3207e+06	16.6373	0.587086	1	2.88245	20
261	279.095	94	-2.32072e+06	16.6481	0.58863	1	2.88295	20
262	293.046	94	-2.32071e+06	16.6097	0.585332	1	2.88338	20
263	274.762	94	-2.32071e+06	16.6311	0.585502	1	2.88306	20
264	284.926	94	-2.32072e+06	16.6081	0.586198	1	2.88276	20
265	286.834	94	-2.32072e+06	16.6184	0.584857	1	2.88214	20
266	289.345	94	-2.32071e+06	16.608	0.584474	1	2.88133	20
267	325.771	88	-2.32071e+06	16.5496	0.585141	1	2.8816	20
268	303.556	94	-2.32072e+06	16.6391	0.582249	1	2.8815	20
269	270.34	93	-2.32071e+06	16.5993	0.585091	1	2.88231	20
270	284.283	94	-2.32072e+06	16.6077	0.582291	1	2.88288	20
271	277.153	94	-2.32072e+06	16.7221	0.582987	1	2.88148	20
272	276.115	94	-2.32074e+06	16.6696	0.5843	1	2.88237	20
273	273.637	94	-2.32072e+06	16.7361	0.584004	1	2.88372	20
274	278.087	94	-2.32071e+06	16.6063	0.582713	1	2.88322	20
275	293.2	89	-2.32073e+06	16.6248	0.583831	1	2.88306	20
276	279.641	94	-2.3207e+06	16.6889	0.586902	1	2.88311	20
277	292.424	94	-2.32071e+06	16.6792	0.584411	1	2.88291	20
278	286.424	94	-2.32072e+06	16.6919	0.586304	1	2.88308	20
279	287.563	94	-2.32072e+06	16.6728	0.587224	1	2.88265	20
280	286.926	94	-2.32071e+06	16.714	0.585959	1	2.88238	20
281	283.328	94	-2.32071e+06	16.7565	0.584891	1	2.8827	20
282	284.319	94	-2.32071e+06	16.7628	0.58742	1	2.88259	20
283	286.497	94	-2.32072e+06	16.7098	0.587803	1	2.88219	20
284	294.762	94	-2.32071e+06	16.7259	0.587262	1	2.88244	20
285	282.22	94	-2.32072e+06	16.7325	0.588132	1	2.8824	20
286	280.297	94	-2.32073e+06	16.7017	0.587165	1	2.88262	20
287	279.521	94	-2.32071e+06	16.6905	0.583485	1	2.88308	20
288	279.898	94	-2.32072e+06	16.564	0.581953	1	2.88295	20
289	286.274	94	-2.32073e+06	16.6543	0.582912	1	2.88223	20
290	284.825	94	-2.32073e+06	16.6473	0.581761	1	2.88351	20
291	285.644	94	-2.32073e+06	16.6385	0.582786	1	2.88339	20
292	281.623	94	-2.32073e+06	16.6683	0.583735	1	2.88365	20
293	277.196	94	-2.32072e+06	16.6985	0.585109	1	2.88289	20
294	281.555	94	-2.32071e+06	16.7875	0.585331	1	2.8831	20
295	276.556	93	-2.32073e+06	16.7107	0.58565	1	2.88212	20
296	279.333	94	-2.32072e+06	16.6815	0.584955	1	2.88313	20
297	287.242	94	-2.32071e+06	16.7681	0.587258	1	2.8825	20
298	277.737	94	-2.32073e+06	16.7394	0.588427	1	2.88254	20
299	281.111	94	-2.32073e+06	16.6573	0.588702	1	2.8812	20
300	280.691	94	-2.32072e+06	16.6543	0.588702	1	2.88147	20
301	270.5	93	-2.32072e+06	16.6827	0.586224	1	2.88184	20
302	283.575	94	-2.32071e+06	16.6909	0.584685	1	2.8824	20
303	280.369	94	-2.3207e+06	16.6365	0.584685	1	2.88231	20
304	278.045	94	-2.32073e+06	16.567	0.586042	1	2.88198	20
305	280.957	94	-2.32072e+06	16.6224	0.584137	1	2.88184	20
306	282.498	94	-2.32072e+06	16.5575	0.582244	1	2.88197	20
307	286.461	94	-2.32072e+06	16.5587	0.582083	1	2.88282	20
308	280.66	94	-2.32071e+06	16.6588	0.581919	1	2.88281	20
309	263.541	93	-2.32071e+06	16.6545	0.582383	1	2.88269	20
310	276.646	94	-2.32071e+06	16.6915	0.581621	1	2.88395	20
311	270.927	93	-2.32072e+06	16.6178	0.582271	1	2.88325	20
312	269.715	94	-2.32072e+06	16.6417	0.582497	1	2.88297	20
313	273.969	94	-2.32071e+06	16.6924	0.582135	1	2.88297	20
314	266.976	94	-2.32072e+06	16.7044	0.583842	1	2.88248	20
315	271.509	94	-2.32072e+06	16.7417	0.584116	1	2.88317	20
316	286.789	94	-2.32073e+06	16.7986	0.582323	1	2.88277	20
317	273.847	94	-2.32072e+06	16.6549	0.584931	1	2.88268	20
318	284.572	94	-2.32072e+06	16.6648	0.583892	1	2.88209	20
319	283.314	94	-2.32071e+06	16.6651	0.58829	1	2.88242	20
320	271.351	93	-2.32072e+06	16.5755	0.589536	1	2.88341	20
321	259.407	93	-2.32072e+06	16.6102	0.588069	1	2.88257	20
322	272.358	94	-2.32072e+06	16.6851	0.589291	1	2.88281	20
323	274.561	93	-2.32071e+06	16.6857	0.586898	1	2.88323	20
324	273.481	93	-2.32072e+06	16.5566	0.588675	1	2.88281	20
325	269.453	94	-2.32072e+06	16.6991	0.587734	1	2.88264	20
326	271.358	93	-2.32072e+06	16.7179	0.587516	1	2.8823	20
327	279.902	94	-2.32072e+06	16.7115	0.585082	1	2.88252	20
328	276.676	94	-2.32072e+06	16.6162	0.584736	1	2.88217	20
329	278.215	94	-2.32071e+06	16.5774	0.584774	1	2.88236	20
330	275.045	94	-2.32071e+06	16.6438	0.582839	1	2.88249	20
331	278.899	94	-2.32072e+06	16.6631	0.583017	1	2.88291	20
332	280.864	94	-2.32072e+06	16.5977	0.58427	1	2.88369	20
333	285.284	94	-2.32074e+06	16.6156	0.588199	1	2.88336	20
334	282.69	94	-2.32073e+06	16.5872	0.587381	1	2.88324	20
335	281.49	93	-2.32073e+06	16.6469	0.583729	1	2.88265	20
336	280.438	93	-2.32074e+06	16.6234	0.584156	1	2.88282	20
337	291.434	94	-2.32073e+06	16.6481	0.584159	1	2.88312	20
338	287.672	94	-2.32072e+06	16.5947	0.583433	1	2.88273	20
339	291.411	94	-2.32072e+06	16.6153	0.583542	1	2.88271	20
340	279.231	94	-2.32073e+06	16.6425	0.584638	1	2.88296	20
341	286.874	94	-2.32071e+06	16.6096	0.58412	1	2.88249	20
342	281.927	94	-2.32071e+06	16.5973	0.58412	1	2.881	20
343	282.336	94	-2.32071e+06	16.67	0.583976	1	2.8815	20
344	276.929	94	-2.32071e+06	16.6041	0.582125	1	2.88235	20
345	277.657	94	-2.32073e+06	16.6365	0.582243	1	2.88264	20
346	274.076	93	-2.32072e+06	16.6735	0.581928	1	2.88214	20
347	278.704	94	-2.32072e+06	16.6932	0.581988	1	2.88097	20
348	275.859	94	-2.32073e+06	16.545	0.579853	1	2.88315	20
349	278.204	93	-2.32071e+06	16.6093	0.583191	1	2.88217	20
350	279.063	94	-2.32073e+06	16.6771	0.583621	1	2.88186	20
351	284.006	94	-2.32073e+06	16.6929	0.583808	1	2.88311	20
352	282.164	93	-2.32071e+06	16.728	0.58519	1	2.88269	20
353	279.481	93	-2.32071e+06	16.7389	0.584286	1	2.88269	20
354	283.927	94	-2.32071e+06	16.7031	0.585308	1	2.88171	20
355	289.482	94	-2.3207e+06	16.6866	0.586238	1	2.88177	20
356	294.396	94	-2.32072e+06	16.7762	0.584567	1	2.88225	20
357	292.308	94	-2.32073e+06	16.7006	0.586905	1	2.88262	20
358	278.951	93	-2.32072e+06	16.687	0.586905	1	2.88163	20
359	282.362	93	-2.32072e+06	16.7335	0.586541	1	2.8809	20
360	290.781	93	-2.32073e+06	16.6869	0.584661	1	2.88134	20
361	288.382	94	-2.32072e+06	16.5954	0.587204	1	2.88345	20
362	286.633	93	-2.32073e+06	16.6627	0.586177	1	2.88092	20
363	285.379	93	-2.32072e+06	16.6313	0.587905	1	2.88131	20
364	289.042	94	-2.32072e+06	16.521	0.583924	1	2.88132	20
365	288.417	93	-2.32072e+06	16.6026	0.583211	1	2.88069	20
366	275.493	93	-2.32073e+06	16.6348	0.584169	1	2.88146	20
367	281.078	94	-2.32071e+06	16.6669	0.583946	1	2.88157	20
368	285.325	93	-2.3207e+06	16.6163	0.585494	1	2.88208	20
369	273.909	93	-2.32071e+06	16.6639	0.585263	1	2.8825	20
370	279.008	94	-2.32072e+06	16.6673	0.583528	1	2.88238	20
371	282.116	93	-2.32072e+06	16.6365	0.585227	1	2.88228	20
372	283.447	93	-2.32072e+06	16.6028	0.585045	1	2.88202	20
373	289.377	94	-2.32071e+06	16.6437	0.58421	1	2.88239	20
374	281.254	94	-2.32071e+06	16.6545	0.582861	1	2.88184	20
375	293.379	94	-2.32071e+06	16.6756	0.583655	1	2.88291	20
376	292.894	94	-2.32071e+06	16.7321	0.579936	1	2.88241	20
377	294.451	94	-2.32072e+06	16.7733	0.584657	1	2.88223	20
378	284.934	94	-2.32072e+06	16.711	0.58393	1	2.88209	20
379	276.495	94	-2.32072e+06	16.8129	0.580834	1	2.88152	20
380	262.898	93	-2.32072e+06	16.7428	0.580997	1	2.88093	20
381	275.162	93	-2.32072e+06	16.762	0.579664	1	2.88092	20
382	272.145	94	-2.32072e+06	16.793	0.584465	1	2.88113	20
383	265.304	93	-2.32071e+06	16.7382	0.584364	1	2.88232	20
384	270	93	-2.32071e+06	16.738	0.583758	1	2.88191	20
385	267.937	93	-2.32072e+06	16.6905	0.586123	1	2.88234	20
386	264.388	93	-2.32071e+06	16.6347	0.584215	1	2.88281	20
387	275.258	94	-2.3207e+06	16.6276	0.586885	1	2.88284	20
388	277.817	93	-2.32072e+06	16.5973	0.583783	1	2.88291	20
389	281.571	94	-2.32071e+06	16.6296	0.585576	1	2.88356	20
390	281.038	94	-2.32073e+06	16.675	0.587961	1	2.88174	20
391	286.441	94	-2.32073e+06	16.6338	0.586279	1	2.8814	20
392	284.972	94	-2.32072e+06	16.7283	0.587277	1	2.88238	20
393	277.064	94	-2.32074e+06	16.7046	0.587988	1	2.88272	20
394	277.116	94	-2.32073e+06	16.7247	0.588805	1	2.88239	20
395	268.789	93	-2.32073e+06	16.6319	0.586945	1	2.88208	20
396	280.886	94	-2.32071e+06	16.6061	0.585839	1	2.88273	20
397	268.469	93	-2.32073e+06	16.7077	0.586274	1	2.88218	20
398	273.897	94	-2.32072e+06	16.76	0.584972	1	2.88248	20
399	266.567	93	-2.32071e+06	16.7676	0.58431	1	2.8835	20
400	267.928	93	-2.32071e+06	16.6931	0.586961	1	2.88454	20
401	276.978	93	-2.3207e+06	16.707	0.587962	1	2.88339	20
402	279.264	93	-2.3207e+06	16.722	0.586448	1	2.88403	20
403	279.429	94	-2.32072e+06	16.7294	0.584025	1	2.88339	20
404	279.602	94	-2.32071e+06	16.7154	0.587534	1	2.88311	20
405	283.025	94	-2.32072e+06	16.7449	0.586772	1	2.88254	20
406	280.523	94	-2.32073e+06	16.7459	0.585358	1	2.8831	20
407	269.329	93	-2.32072e+06	16.7367	0.587124	1	2.88177	20
408	281.161	94	-2.32071e+06	16.7042	0.584622	1	2.88165	20
409	278.612	94	-2.32072e+06	16.7077	0.588268	1	2.88236	20
410	275.631	93	-2.32072e+06	16.6256	0.588049	1	2.88249	20
411	273.275	94	-2.32072e+06	16.5965	0.588174	1	2.88229	20
412	276.687	94	-2.32072e+06	16.6276	0.58855	1	2.88226	20
413	264.348	93	-2.32073e+06	16.6764	0.58961	1	2.88207	20
414	273.042	93	-2.32073e+06	16.6147	0.587104	1	2.88241	20
415	275.447	94	-2.32073e+06	16.6345	0.587668	1	2.88223	20
416	278.459	94	-2.32072e+06	16.6966	0.586431	1	2.88194	20
417	272.379	94	-2.32072e+06	16.614	0.590488	1	2.88244	20
418	281.061	94	-2.32072e+06	16.5023	0.58574	1	2.88196	20
419	282.445	94	-2.32072e+06	16.5971	0.585568	1	2.88068	20
420	289.975	94	-2.32074e+06	16.5777	0.588173	1	2.88119	20
421	292.373	94	-2.32072e+06	16.6312	0.589166	1	2.8818	20
422	299.481	94	-2.32072e+06	16.6462	0.590768	1	2.88235	20
423	298.761	94	-2.32072e+06	16.6934	0.58801	1	2.88128	20
424	284.899	94	-2.32073e+06	16.656	0.585013	1	2.88127	20
425	290.273	94	-2.32073e+06	16.6564	0.587964	1	2.8818	20
426	285.227	94	-2.32072e+06	16.7425	0.586581	1	2.88186	20
427	278.127	94	-2.32073e+06	16.5793	0.586449	1	2.88186	20
428	269.256	93	-2.32071e+06	16.5581	0.586449	1	2.88258	20
429	277.349	94	-2.32072e+06	16.5535	0.589394	1	2.88133	20
430	286.737	94	-2.32072e+06	16.6337	0.589131	1	2.88217	20
431	286.335	94	-2.32074e+06	16.6392	0.585872	1	2.88214	20
432	281.141	94	-2.32075e+06	16.6287	0.584212	1	2.88306	20
433	287.213	94	-2.32072e+06	16.6822	0.587073	1	2.88329	20
434	288.337	94	-2.32073e+06	16.7241	0.58865	1	2.8837	20
435	292.736	94	-2.32073e+06	16.7863	0.587182	1	2.88276	20
436	284.926	94	-2.32072e+06	16.701	0.582929	1	2.88319	20
437	277.574	93	-2.32072e+06	16.7856	0.58399	1	2.88345	20
438	291.952	94	-2.32071e+06	16.7835	0.587108	1	2.88303	20
439	293.772	94	-2.32073e+06	16.7668	0.587534	1	2.88355	20
440	292.461	94	-2.32073e+06	16.6867	0.586782	1	2.88388	20
441	295.806	94	-2.32073e+06	16.6416	0.586782	1	2.88306	20
442	297.756	94	-2.32071e+06	16.7142	0.587185	1	2.88294	20
443	279.587	94	-2.32071e+06	16.6512	0.587449	1	2.88209	20
444	286.634	94	-2.32073e+06	16.648	0.586988	1	2.88196	20
445	282.361	94	-2.32072e+06	16.6018	0.583718	1	2.88303	20
446	265.993	93	-2.32071e+06	16.5419	0.581863	1	2.88283	20
447	273.268	93	-2.32071e+06	16.5098	0.583984	1	2.88273	20
448	285.844	93	-2.32071e+06	16.6015	0.585093	1	2.88272	20
449	284.146	94	-2.32071e+06	16.5709	0.587664	1	2.88217	20
450	277.476	93	-2.3207e+06	16.6505	0.585764	1	2.88185	20
451	285.758	94	-2.32071e+06	16.5777	0.585112	1	2.88202	20
452	284.589	94	-2.32072e+06	16.5966	0.584253	1	2.88192	20
453	275.084	93	-2.32071e+06	16.5803	0.584954	1	2.88213	20
454	268.064	94	-2.32071e+06	16.5828	0.585472	1	2.88278	20
455	286.3	93	-2.32072e+06	16.5381	0.586923	1	2.88337	20
456	285.888	93	-2.32071e+06	16.6474	0.586419	1	2.88337	20
457	293.038	94	-2.32071e+06	16.685	0.585308	1	2.88251	20
458	277.58	94	-2.3207e+06	16.6569	0.586619	1	2.88275	20
459	293.716	94	-2.32072e+06	16.7381	0.584913	1	2.88362	20
460	283.684	94	-2.32073e+06	16.7161	0.585539	1	2.8837	20
461	284.608	94	-2.32072e+06	16.6661	0.586452	1	2.88339	20
462	286.614	94	-2.32072e+06	16.6729	0.586169	1	2.88266	20
463	284.175	93	-2.32071e+06	16.5189	0.586737	1	2.88216	20
464	280.363	93	-2.32071e+06	16.5178	0.58767	1	2.88266	20
465	278.293	93	-2.32074e+06	16.5275	0.588828	1	2.88273	20
466	277.562	93	-2.32073e+06	16.4978	0.588828	1	2.88198	20
467	292.366	94	-2.32071e+06	16.5145	0.585497	1	2.88246	20
468	282.74	93	-2.32072e+06	16.5092	0.586037	1	2.88266	20
469	291.776	94	-2.32071e+06	16.5919	0.588612	1	2.88269	20
470	276.451	94	-2.32072e+06	16.4749	0.585023	1	2.88399	20
471	278.07	94	-2.32072e+06	16.5459	0.586872	1	2.88431	20
472	277.857	94	-2.32072e+06	16.5688	0.586872	1	2.88449	20
473	289.117	93	-2.32074e+06	16.5977	0.584812	1	2.88394	20
474	288.485	94	-2.32073e+06	16.6544	0.584326	1	2.88341	20
475	293.278	94	-2.3207e+06	16.5868	0.583242	1	2.88331	20
476	298.71	94	-2.32072e+06	16.6389	0.583355	1	2.8831	20
477	296.945	94	-2.32072e+06	16.6033	0.584787	1	2.88274	20
478	295.68	94	-2.32072e+06	16.5855	0.587959	1	2.88311	20
479	291.304	94	-2.32073e+06	16.5827	0.583456	1	2.88303	20
480	287.863	94	-2.32072e+06	16.5839	0.581174	1	2.88403	20
481	289.962	94	-2.32071e+06	16.568	0.581447	1	2.88339	20
482	295.848	93	-2.32072e+06	16.5577	0.584511	1	2.88339	20
483	282.367	93	-2.32071e+06	16.6266	0.582917	1	2.88351	20
484	288.024	94	-2.32073e+06	16.6442	0.58197	1	2.88291	20
485	294.598	94	-2.32073e+06	16.7461	0.582173	1	2.88303	20
486	295.909	94	-2.32071e+06	16.7962	0.585771	1	2.8821	20
487	290.045	94	-2.32072e+06	16.8157	0.586268	1	2.88155	20
488	275.735	93	-2.32073e+06	16.7755	0.58995	1	2.88193	20
489	276.599	94	-2.32073e+06	16.679	0.590477	1	2.88162	20
490	289.394	94	-2.32073e+06	16.7461	0.587721	1	2.88226	20
491	283.287	94	-2.32072e+06	16.6825	0.586103	1	2.8818	20
492	292.034	94	-2.32072e+06	16.6286	0.586103	1	2.88236	20
493	290.352	94	-2.32073e+06	16.6248	0.583831	1	2.88237	20
494	291.868	94	-2.32072e+06	16.6431	0.585424	1	2.88152	20
495	289.076	94	-2.32072e+06	16.5905	0.589739	1	2.88214	20
496	279.755	94	-2.32073e+06	16.5797	0.586764	1	2.88235	20
497	274.626	93	-2.32071e+06	16.7123	0.586764	1	2.88232	20
498	275.802	94	-2.32073e+06	16.6734	0.589157	1	2.88298	20
499	292.345	94	-2.3207e+06	16.6278	0.588465	1	2.88291	20
500	272.913	93	-2.32071e+06	16.6224	0.588307	1	2.88193	20
501	260.445	93	-2.32073e+06	16.6604	0.58829	1	2.88229	20
502	276.7	94	-2.32071e+06	16.7401	0.584133	1	2.88398	20
503	274.411	94	-2.32071e+06	16.7146	0.586895	1	2.88353	20
504	282.379	94	-2.32072e+06	16.7248	0.591483	1	2.88365	20
505	296.79	89	-2.32071e+06	16.7056	0.591682	1	2.88269	20
506	279.649	93	-2.32073e+06	16.5923	0.589705	1	2.88202	20
507	287.754	94	-2.32073e+06	16.6943	0.590338	1	2.88191	20
508	292.441	94	-2.32072e+06	16.636	0.588522	1	2.88149	20
509	279.336	94	-2.32072e+06	16.7514	0.589239	1	2.88329	20
510	296.441	94	-2.32073e+06	16.7563	0.586599	1	2.8832	20
511	278.731	94	-2.32071e+06	16.6604	0.585118	1	2.88351	20
512	287.619	94	-2.32072e+06	16.6429	0.588397	1	2.88327	20
513	287.63	94	-2.32072e+06	16.6393	0.588953	1	2.88176	20
514	276.913	93	-2.32073e+06	16.5528	0.586337	1	2.88112	20
515	287.673	94	-2.32072e+06	16.6052	0.582428	1	2.88079	20
516	286.364	94	-2.32072e+06	16.631	0.582411	1	2.88217	20
517	287.199	94	-2.32073e+06	16.5375	0.582309	1	2.88282	20
518	285.854	94	-2.32072e+06	16.6472	0.582629	1	2.8825	20
519	290.038	94	-2.3207e+06	16.6979	0.584421	1	2.88275	20
520	281.926	93	-2.32072e+06	16.719	0.584287	1	2.88199	20
521	287.743	94	-2.32072e+06	16.7159	0.584613	1	2.88225	20
522	276.255	93	-2.32071e+06	16.6858	0.584841	1	2.88181	20
523	282.28	93	-2.32071e+06	16.6943	0.585407	1	2.8821	20
524	283.966	93	-2.32071e+06	16.628	0.583517	1	2.88371	20
525	276.478	93	-2.32072e+06	16.5933	0.587392	1	2.88341	20
526	284.361	94	-2.32072e+06	16.6896	0.588606	1	2.88339	20
527	276.722	93	-2.32071e+06	16.7196	0.587455	1	2.88319	20
528	284.656	94	-2.32071e+06	16.6999	0.586616	1	2.8838	20
529	284.877	94	-2.32072e+06	16.7211	0.587465	1	2.88335	20
530	283.052	94	-2.32071e+06	16.7008	0.584792	1	2.8831	20
531	285.812	94	-2.32072e+06	16.7404	0.584045	1	2.88181	20
532	283.753	94	-2.3207e+06	16.7718	0.584045	1	2.88236	20
533	288.853	94	-2.32072e+06	16.7344	0.585073	1	2.88294	20
534	287.684	94	-2.32071e+06	16.7601	0.58885	1	2.88221	20
535	285.455	94	-2.3207e+06	16.7136	0.588029	1	2.88288	20
536	283.45	94	-2.32071e+06	16.6777	0.583892	1	2.88237	20
537	281.998	94	-2.3207e+06	16.7569	0.583892	1	2.88277	20
538	285.068	94	-2.32073e+06	16.6388	0.586037	1	2.88338	20
539	278.136	94	-2.3207e+06	16.6918	0.586578	1	2.88355	20
540	277.515	94	-2.32071e+06	16.6794	0.588164	1	2.88346	20
541	270.205	94	-2.32072e+06	16.6554	0.58666	1	2.88277	20
542	279.487	94	-2.32072e+06	16.5333	0.587718	1	2.88312	20
543	276.607	94	-2.32075e+06	16.4554	0.588693	1	2.88297	20
544	284.617	94	-2.32071e+06	16.5217	0.589195	1	2.88297	20
545	285.047	94	-2.32071e+06	16.5399	0.588088	1	2.88402	20
546	288.307	94	-2.32072e+06	16.5337	0.587437	1	2.88427	20
547	276.016	94	-2.32074e+06	16.6098	0.588619	1	2.88349	20
548	277.448	94	-2.32071e+06	16.6107	0.588619	1	2.88346	20
549	275.74	93	-2.32072e+06	16.5934	0.588639	1	2.8829	20
550	280.753	94	-2.32072e+06	16.6638	0.588611	1	2.88288	20
551	273.521	93	-2.32073e+06	16.6229	0.587402	1	2.88321	20
552	280.743	94	-2.3207e+06	16.6535	0.586959	1	2.88299	20
553	286.847	94	-2.32071e+06	16.5941	0.58591	1	2.88192	20
554	285.366	94	-2.32071e+06	16.546	0.583775	1	2.8836	20
555	283.013	94	-2.32073e+06	16.6372	0.585877	1	2.88318	20
556	279.959	94	-2.32071e+06	16.6362	0.584067	1	2.88328	20
557	276.188	94	-2.32073e+06	16.534	0.584067	1	2.88332	20
558	280.664	94	-2.32072e+06	16.531	0.588126	1	2.8833	20
559	295.441	94	-2.32072e+06	16.6091	0.588398	1	2.8838	20
560	288.48	94	-2.32072e+06	16.6756	0.584899	1	2.88365	20
561	282.351	93	-2.32072e+06	16.6198	0.584899	1	2.88297	20
562	288.247	94	-2.32072e+06	16.671	0.584899	1	2.88277	20
563	275.157	93	-2.32072e+06	16.6548	0.58611	1	2.8816	20
564	287.769	94	-2.32073e+06	16.756	0.583541	1	2.88214	20
565	292.658	94	-2.32072e+06	16.67	0.58625	1	2.88211	20
566	290.062	94	-2.32072e+06	16.6782	0.586484	1	2.88253	20
567	275.482	93	-2.32072e+06	16.6494	0.586299	1	2.88289	20
568	290.355	94	-2.32071e+06	16.6705	0.586583	1	2.88289	20
569	296.253	94	-2.32072e+06	16.5791	0.584789	1	2.88274	20
570	291.944	94	-2.32071e+06	16.6063	0.582312	1	2.88266	20
571	303.549	94	-2.32074e+06	16.6446	0.5833	1	2.88249	20
572	297.221	94	-2.32072e+06	16.6504	0.583226	1	2.88211	20
573	298.553	94	-2.32072e+06	16.7273	0.584449	1	2.8822	20
574	293.22	93	-2.32073e+06	16.6577	0.584181	1	2.88294	20
575	301.536	94	-2.32072e+06	16.6711	0.583604	1	2.88067	20
576	292.196	94	-2.32073e+06	16.6115	0.583464	1	2.88189	20
577	294.351	94	-2.32072e+06	16.5844	0.583464	1	2.8817	20
578	285.331	94	-2.32074e+06	16.6236	0.583312	1	2.88131	20
579	294.025	94	-2.32072e+06	16.6024	0.58341	1	2.88148	20
580	293.437	94	-2.32073e+06	16.6546	0.584382	1	2.88135	20
581	297.608	94	-2.32071e+06	16.701	0.583421	1	2.88126	20
582	284.166	94	-2.32073e+06	16.7176	0.581734	1	2.88093	20
583	298.738	94	-2.32073e+06	16.6787	0.584641	1	2.88088	20
584	292.272	94	-2.32072e+06	16.649	0.584895	1	2.88156	20
585	278.767	93	-2.32073e+06	16.5818	0.585485	1	2.88182	20
586	280.729	94	-2.32071e+06	16.4898	0.586836	1	2.88208	20
587	281.722	94	-2.32072e+06	16.6184	0.586974	1	2.88327	20
588	279.017	93	-2.32072e+06	16.7055	0.58826	1	2.88282	20
589	286.2	94	-2.32071e+06	16.6902	0.590056	1	2.88146	20
590	275.608	93	-2.32072e+06	16.6105	0.588625	1	2.88192	20
591	280.733	94	-2.32073e+06	16.5966	0.589878	1	2.88243	20
592	265.572	93	-2.32072e+06	16.6426	0.588351	1	2.88234	20
593	268.248	93	-2.32072e+06	16.643	0.588537	1	2.88201	20
594	278.295	94	-2.32071e+06	16.618	0.588537	1	2.88238	20
595	282.66	94	-2.32073e+06	16.5939	0.588519	1	2.88299	20
596	277.553	93	-2.3207e+06	16.6583	0.582874	1	2.88394	20
597	277.942	94	-2.32072e+06	16.5425	0.582874	1	2.88321	20
598	278.469	94	-2.32072e+06	16.4887	0.580133	1	2.88234	20
599	269.044	93	-2.32071e+06	16.5681	0.581281	1	2.88209	20
600	273.716	94	-2.32073e+06	16.5205	0.584937	1	2.8817	20
601	274.063	93	-2.32072e+06	16.5634	0.582095	1	2.8836	20
602	279.382	94	-2.32072e+06	16.6551	0.580658	1	2.88251	20
603	278.996	94	-2.32071e+06	16.5864	0.584222	1	2.88242	20
604	273.738	93	-2.32071e+06	16.5237	0.585552	1	2.88258	20
605	281.014	94	-2.32073e+06	16.5206	0.584286	1	2.88297	20
606	283.371	94	-2.32071e+06	16.538	0.58105	1	2.88323	20
607	278.373	94	-2.32071e+06	16.5598	0.58303	1	2.88254	20
608	280.401	94	-2.32071e+06	16.6315	0.585229	1	2.88274	20
609	278.633	94	-2.32071e+06	16.5881	0.586711	1	2.88292	20
610	284.87	94	-2.32072e+06	16.6043	0.587247	1	2.8825	20
611	274.103	93	-2.32071e+06	16.6264	0.589288	1	2.88266	20
612	276.183	94	-2.32071e+06	16.6068	0.586405	1	2.88373	20
613	273.406	93	-2.3207e+06	16.6829	0.586889	1	2.88353	20
614	269.525	93	-2.32073e+06	16.6622	0.583331	1	2.88495	20
615	281.105	94	-2.32073e+06	16.6849	0.585367	1	2.88326	20
616	283.881	93	-2.32073e+06	16.7043	0.585364	1	2.88186	20
617	287.909	94	-2.32072e+06	16.6369	0.581913	1	2.88224	20
618	287.907	94	-2.32071e+06	16.6745	0.581151	1	2.88273	20
619	290.395	94	-2.32071e+06	16.6462	0.584917	1	2.8827	20
620	290.928	94	-2.32071e+06	16.672	0.586775	1	2.88225	20
621	287.067	93	-2.32072e+06	16.6765	0.587809	1	2.8824	20
622	280.738	94	-2.32072e+06	16.7174	0.587792	1	2.88118	20
623	279.212	93	-2.32071e+06	16.7354	0.586414	1	2.88199	20
624	283.922	93	-2.32071e+06	16.6802	0.588613	1	2.88241	20
625	287.88	93	-2.3207e+06	16.5838	0.588613	1	2.88317	20
626	299.998	94	-2.32072e+06	16.6243	0.585949	1	2.88187	20
627	287.317	94	-2.32071e+06	16.5514	0.585949	1	2.88232	20
628	292.671	94	-2.32072e+06	16.6289	0.585949	1	2.8822	20
629	295.449	94	-2.32072e+06	16.682	0.586162	1	2.88248	20
630	297.101	94	-2.32072e+06	16.7423	0.586162	1	2.88162	20
631	291.389	94	-2.32072e+06	16.6546	0.585886	1	2.88202	20
632	291.57	94	-2.32071e+06	16.6757	0.584539	1	2.88173	20
633	298.651	94	-2.32073e+06	16.672	0.583585	1	2.88149	20
634	290.926	94	-2.32072e+06	16.6394	0.582806	1	2.88201	20
635	295.486	94	-2.32073e+06	16.6941	0.583654	1	2.88177	20
636	285.249	94	-2.32073e+06	16.6673	0.58514	1	2.88208	20
637	285.073	94	-2.32074e+06	16.6745	0.585843	1	2.88178	20
638	296.105	94	-2.32074e+06	16.6067	0.588609	1	2.88189	20
639	301.892	94	-2.32072e+06	16.7072	0.590229	1	2.88303	20
640	296.255	94	-2.32072e+06	16.6869	0.586445	1	2.88277	20
641	286.397	94	-2.32072e+06	16.7517	0.583952	1	2.88254	20
642	291.277	94	-2.32071e+06	16.8102	0.58686	1	2.88234	20
643	296.943	94	-2.3207e+06	16.6829	0.584806	1	2.88236	20
644	289.718	94	-2.32073e+06	16.6631	0.582225	1	2.88258	20
645	274.616	94	-2.32071e+06	16.6638	0.582075	1	2.88212	20
646	281.076	94	-2.32071e+06	16.6598	0.585528	1	2.88241	20
647	290.095	94	-2.32074e+06	16.6223	0.587322	1	2.88298	20
648	304.066	94	-2.32073e+06	16.6058	0.586139	1	2.88132	20
649	284.445	94	-2.32071e+06	16.5963	0.58768	1	2.88225	20
650	278.288	94	-2.32071e+06	16.6044	0.587455	1	2.88245	20
651	276.944	94	-2.32071e+06	16.6008	0.584986	1	2.88271	20
652	274.91	93	-2.32072e+06	16.6038	0.581778	1	2.88324	20
653	277.529	94	-2.32071e+06	16.6424	0.582417	1	2.88339	20
654	278.566	94	-2.32072e+06	16.6094	0.584485	1	2.88326	20
655	281.187	94	-2.32072e+06	16.627	0.585093	1	2.88313	20
656	298.695	94	-2.32074e+06	16.5671	0.584928	1	2.88322	20
657	289.853	94	-2.32071e+06	16.5873	0.585088	1	2.88324	20
658	294.54	94	-2.32071e+06	16.6309	0.584338	1	2.8811	20
659	293.862	94	-2.32071e+06	16.5951	0.585059	1	2.88212	20
660	290.254	94	-2.32071e+06	16.6669	0.584205	1	2.8827	20
661	285.008	94	-2.32071e+06	16.6291	0.582799	1	2.88167	20
662	278.67	93	-2.32073e+06	16.5681	0.583522	1	2.88204	20
663	264.431	93	-2.32073e+06	16.6144	0.585808	1	2.8827	20
664	281.841	94	-2.32074e+06	16.6434	0.583777	1	2.88342	20
665	280.566	94	-2.32073e+06	16.693	0.583262	1	2.88189	20
666	274.889	94	-2.32073e+06	16.7296	0.583557	1	2.88154	20
667	283.113	94	-2.32074e+06	16.7026	0.586327	1	2.88209	20
668	288.133	94	-2.32072e+06	16.6547	0.584201	1	2.8814	20
669	296.022	93	-2.32073e+06	16.6427	0.584937	1	2.88131	20
670	291.45	94	-2.3207e+06	16.6428	0.585257	1	2.88147	20
671	299.209	94	-2.32072e+06	16.6444	0.583005	1	2.88131	20
672	280.138	93	-2.32072e+06	16.6464	0.585661	1	2.88148	20
673	285.887	94	-2.32071e+06	16.7669	0.587634	1	2.88284	20
674	293.23	94	-2.32072e+06	16.7407	0.586071	1	2.88175	20
675	287.539	94	-2.3207e+06	16.7229	0.584612	1	2.88189	20
676	299.696	94	-2.32071e+06	16.7118	0.583536	1	2.88258	20
677	291.365	93	-2.32069e+06	16.6738	0.585364	1	2.88321	20
678	291.146	94	-2.32072e+06	16.6858	0.581918	1	2.88311	20
679	295.674	94	-2.32071e+06	16.6338	0.582258	1	2.88227	20
680	293.948	94	-2.3207e+06	16.6372	0.581238	1	2.88271	20
681	288.972	94	-2.32073e+06	16.6071	0.582404	1	2.88237	20
682	295.964	94	-2.32072e+06	16.6233	0.583797	1	2.8827	20
683	298.124	94	-2.32072e+06	16.6398	0.584714	1	2.88277	20
684	285.759	94	-2.32071e+06	16.6477	0.584714	1	2.88253	20
685	276.616	94	-2.32071e+06	16.6477	0.584714	1	2.883	20
686	294.143	94	-2.32072e+06	16.6656	0.584857	1	2.88372	20
687	292.492	94	-2.32072e+06	16.6512	0.583164	1	2.88361	20
688	292.803	94	-2.32072e+06	16.621	0.582066	1	2.8835	20
689	280.921	93	-2.32071e+06	16.6689	0.582077	1	2.88316	20
690	295.912	94	-2.32072e+06	16.6732	0.582408	1	2.88303	20
691	300.552	94	-2.32071e+06	16.7364	0.583895	1	2.88366	20
692	289.539	93	-2.32071e+06	16.6685	0.583694	1	2.88342	20
693	299.223	94	-2.3207e+06	16.5688	0.584401	1	2.88271	20
694	296.644	94	-2.32072e+06	16.625	0.586351	1	2.88261	20
695	304.023	94	-2.32071e+06	16.6993	0.586092	1	2.88164	20
696	299.593	94	-2.32072e+06	16.6088	0.585311	1	2.88203	20
697	284.103	93	-2.32072e+06	16.6198	0.585812	1	2.88097	20
698	294.271	94	-2.32072e+06	16.625	0.585872	1	2.88103	20
699	290.071	94	-2.32072e+06	16.7166	0.587678	1	2.88154	20
700	301.324	94	-2.32072e+06	16.776	0.58705	1	2.88207	20
701	297.864	94	-2.32073e+06	16.6722	0.588137	1	2.88194	20
702	294.232	93	-2.32072e+06	16.6512	0.586171	1	2.88244	20
703	295.121	94	-2.32071e+06	16.6273	0.58604	1	2.88211	20
704	304.03	94	-2.32072e+06	16.6415	0.586141	1	2.8824	20
705	295.962	94	-2.32072e+06	16.7313	0.585067	1	2.88154	20
706	292.43	94	-2.32071e+06	16.7399	0.588154	1	2.882	20
707	284.611	94	-2.32071e+06	16.7845	0.585541	1	2.88214	20
708	276.08	94	-2.32072e+06	16.7205	0.583843	1	2.88235	20
709	285.439	94	-2.32071e+06	16.7484	0.585528	1	2.88216	20
710	294.1	94	-2.32071e+06	16.6687	0.585888	1	2.88297	20
711	294.105	94	-2.32071e+06	16.7231	0.587505	1	2.88312	20
712	287.409	94	-2.32072e+06	16.7292	0.586077	1	2.88204	20
713	284.267	94	-2.32072e+06	16.7499	0.584045	1	2.88216	20
714	279.038	93	-2.32071e+06	16.6739	0.58384	1	2.88198	20
715	288.528	94	-2.32071e+06	16.5781	0.583342	1	2.88241	20
716	280.11	94	-2.32071e+06	16.6049	0.584049	1	2.88185	20
717	293.578	94	-2.32072e+06	16.5772	0.583638	1	2.88166	20
718	288.795	94	-2.32071e+06	16.6549	0.583638	1	2.88165	20
719	292.654	94	-2.32073e+06	16.5767	0.585465	1	2.88108	20
720	297.327	94	-2.32071e+06	16.571	0.585345	1	2.88312	20
721	291.931	94	-2.32072e+06	16.6174	0.582097	1	2.88371	20
722	287.441	94	-2.32073e+06	16.6914	0.582695	1	2.88361	20
723	282.333	94	-2.32071e+06	16.6889	0.582659	1	2.88328	20
724	287.313	94	-2.32073e+06	16.6106	0.585178	1	2.88309	20
725	286.681	94	-2.32071e+06	16.6351	0.586075	1	2.88259	20
726	282.029	94	-2.32071e+06	16.5998	0.584798	1	2.88296	20
727	291.879	94	-2.32072e+06	16.6426	0.583145	1	2.88297	20
728	284.794	94	-2.32073e+06	16.6496	0.582752	1	2.88315	20
729	285.555	94	-2.32073e+06	16.5993	0.585593	1	2.88372	20
730	285.18	94	-2.32073e+06	16.5948	0.588485	1	2.88323	20
731	271.933	93	-2.32073e+06	16.6616	0.587079	1	2.88336	20
732	264.35	93	-2.32072e+06	16.6977	0.584625	1	2.88376	20
733	278.04	94	-2.32072e+06	16.6874	0.58384	1	2.8842	20
734	273.63	94	-2.32074e+06	16.7225	0.584339	1	2.88231	20
735	285.007	94	-2.32072e+06	16.7146	0.585695	1	2.88307	20
736	276.133	93	-2.32072e+06	16.7283	0.583797	1	2.88275	20
737	280.774	94	-2.32074e+06	16.6334	0.585032	1	2.88261	20
738	275.724	94	-2.32072e+06	16.581	0.58244	1	2.88346	20
739	273.846	93	-2.32072e+06	16.5945	0.582061	1	2.88318	20
740	295.053	94	-2.32072e+06	16.6387	0.583324	1	2.88222	20
741	284.528	94	-2.32072e+06	16.5858	0.582568	1	2.8831	20
742	281.259	93	-2.32071e+06	16.704	0.582423	1	2.88344	20
743	289.688	94	-2.32071e+06	16.7301	0.582423	1	2.88229	20
744	288.455	94	-2.32073e+06	16.7255	0.582206	1	2.88188	20
745	289.029	94	-2.32072e+06	16.7919	0.584327	1	2.88131	20
746	276.506	93	-2.32072e+06	16.7456	0.583265	1	2.88205	20
747	288.418	93	-2.32071e+06	16.7085	0.583265	1	2.88199	20
748	293.708	94	-2.32072e+06	16.6641	0.586702	1	2.8813	20
749	292.044	94	-2.32072e+06	16.6049	0.584534	1	2.88043	20
750	290.362	94	-2.32072e+06	16.5776	0.584349	1	2.88274	20
751	290.882	94	-2.32071e+06	16.6541	0.584349	1	2.88315	20
752	292.836	94	-2.32071e+06	16.7356	0.583632	1	2.88391	20
753	278.673	93	-2.32071e+06	16.6006	0.583576	1	2.88393	20
754	281.059	93	-2.32071e+06	16.6882	0.581079	1	2.884	20
755	293.4	94	-2.32072e+06	16.715	0.580918	1	2.88369	20
756	288.133	93	-2.32072e+06	16.6705	0.584241	1	2.88466	20
757	280.095	93	-2.32072e+06	16.6265	0.583979	1	2.88365	20
758	290.852	94	-2.32071e+06	16.6805	0.584523	1	2.88304	20
759	285.211	94	-2.3207e+06	16.6657	0.583258	1	2.88302	20
760	280.004	93	-2.32072e+06	16.643	0.584664	1	2.88266	20
761	289.003	94	-2.32071e+06	16.507	0.584664	1	2.8829	20
762	284.061	93	-2.32072e+06	16.5358	0.584605	1	2.88316	20
763	291.443	94	-2.32071e+06	16.5521	0.586238	1	2.88305	20
764	292.338	94	-2.32071e+06	16.5326	0.587752	1	2.88459	20
765	293.467	94	-2.32071e+06	16.4418	0.584782	1	2.88365	20
766	280.515	94	-2.32071e+06	16.4575	0.583952	1	2.88369	20
767	286.479	94	-2.32071e+06	16.4873	0.582569	1	2.88344	20
768	292.533	94	-2.32072e+06	16.5036	0.583454	1	2.88296	20
769	293.181	94	-2.32072e+06	16.4819	0.584646	1	2.88275	20
770	284.808	94	-2.32073e+06	16.568	0.586692	1	2.8832	20
771	278.608	94	-2.32071e+06	16.601	0.588585	1	2.88325	20
772	292.701	94	-2.32072e+06	16.5863	0.586973	1	2.88351	20
773	287.978	94	-2.32073e+06	16.6081	0.587068	1	2.88311	20
774	276.36	94	-2.32073e+06	16.5945	0.585742	1	2.88325	20
775	281.287	94	-2.32072e+06	16.6021	0.586213	1	2.88321	20
776	280.783	94	-2.32072e+06	16.586	0.584	1	2.88315	20
777	275.193	94	-2.32072e+06	16.6112	0.582331	1	2.88295	20
778	288.137	94	-2.32074e+06	16.6497	0.582891	1	2.88291	20
779	284.591	94	-2.32072e+06	16.6702	0.581268	1	2.88341	20
780	295.224	94	-2.32072e+06	16.5765	0.579793	1	2.88223	20
781	290.925	94	-2.32072e+06	16.5611	0.581865	1	2.88277	20
782	285.124	94	-2.32072e+06	16.6303	0.580537	1	2.88185	20
783	287.025	94	-2.32072e+06	16.6819	0.580454	1	2.88245	20
784	281.868	93	-2.32073e+06	16.6071	0.58239	1	2.88271	20
785	286.726	93	-2.32072e+06	16.7534	0.58239	1	2.88288	20
786	280.041	93	-2.32071e+06	16.6994	0.584189	1	2.88271	20
787	287.908	94	-2.32071e+06	16.6317	0.582321	1	2.88245	20
788	287.687	93	-2.32071e+06	16.5766	0.579975	1	2.88209	20
789	285.358	93	-2.32073e+06	16.5979	0.581147	1	2.88298	20
790	294.438	94	-2.32072e+06	16.6773	0.582887	1	2.88301	20
791	296.189	94	-2.32071e+06	16.6188	0.585101	1	2.88294	20
792	295.306	94	-2.32071e+06	16.6785	0.591431	1	2.88332	20
793	297.382	94	-2.32071e+06	16.6925	0.589913	1	2.88329	20
794	289.667	94	-2.32074e+06	16.6485	0.590499	1	2.8827	20
795	287.317	94	-2.32073e+06	16.6301	0.590347	1	2.88398	20
796	285.543	94	-2.32072e+06	16.5796	0.588704	1	2.88359	20
797	276.938	94	-2.32072e+06	16.6391	0.588704	1	2.88404	20
798	283.656	94	-2.32071e+06	16.7153	0.588704	1	2.88376	20
799	275.764	94	-2.3207e+06	16.7904	0.587622	1	2.88292	20
800	287.709	94	-2.32071e+06	16.8465	0.587622	1	2.88255	20
801	294.647	94	-2.32071e+06	16.8064	0.590705	1	2.88226	20
802	297.766	94	-2.32072e+06	16.7973	0.590705	1	2.88236	20
803	284.028	94	-2.32071e+06	16.7745	0.588171	1	2.88297	20
804	279.412	94	-2.32071e+06	16.7126	0.588444	1	2.88354	20
805	275.365	93	-2.32071e+06	16.6866	0.587677	1	2.88409	20
806	299.582	94	-2.32071e+06	16.6865	0.585456	1	2.88432	20
807	291.206	94	-2.32072e+06	16.6584	0.584847	1	2.88423	20
808	281.59	94	-2.32072e+06	16.5871	0.582876	1	2.8844	20
809	291.862	94	-2.3207e+06	16.6403	0.585326	1	2.88391	20
810	292.174	94	-2.32072e+06	16.7835	0.58383	1	2.88417	20
811	299.746	94	-2.32072e+06	16.6971	0.585369	1	2.8841	20
812	301.285	94	-2.32071e+06	16.6359	0.586099	1	2.8839	20
813	290.065	94	-2.3207e+06	16.5406	0.586297	1	2.88345	20
814	299.011	94	-2.32071e+06	16.6119	0.588462	1	2.88306	20
815	295.933	94	-2.3207e+06	16.6087	0.586982	1	2.88369	20
816	304.065	94	-2.32073e+06	16.5946	0.584693	1	2.88329	20
817	297.395	94	-2.32072e+06	16.5802	0.582519	1	2.88282	20
818	303.122	94	-2.32072e+06	16.5283	0.581216	1	2.88287	20
819	287.45	93	-2.32072e+06	16.5442	0.584012	1	2.88224	20
820	301.593	94	-2.32071e+06	16.5791	0.581911	1	2.88269	20
821	299.875	94	-2.32071e+06	16.6226	0.58478	1	2.88229	20
822	292.38	94	-2.3207e+06	16.5919	0.584454	1	2.88229	20
823	278.627	93	-2.32072e+06	16.6499	0.586658	1	2.88272	20
824	291.168	94	-2.32073e+06	16.5965	0.588798	1	2.88328	20
825	304.026	94	-2.32072e+06	16.5787	0.584743	1	2.88353	20
826	305.456	94	-2.32073e+06	16.481	0.587011	1	2.88295	20
827	302.604	94	-2.32072e+06	16.463	0.587341	1	2.88278	20
828	286.523	94	-2.32072e+06	16.5631	0.585299	1	2.88206	20
829	283.363	94	-2.32072e+06	16.6166	0.584532	1	2.88178	20
830	293.762	94	-2.32072e+06	16.6058	0.58731	1	2.88145	20
831	283.134	93	-2.32071e+06	16.6445	0.587457	1	2.88244	20
832	298.385	94	-2.32072e+06	16.6231	0.587211	1	2.88235	20
833	299.711	94	-2.3207e+06	16.6017	0.585662	1	2.88231	20
834	292.593	94	-2.32071e+06	16.6346	0.583717	1	2.88207	20
835	293.632	94	-2.32073e+06	16.6017	0.584985	1	2.88195	20
836	283.021	94	-2.3207e+06	16.5746	0.586495	1	2.88259	20
837	294.718	94	-2.32071e+06	16.5552	0.586416	1	2.88222	20
838	293.891	94	-2.32072e+06	16.6167	0.584143	1	2.88215	20
839	285.065	94	-2.32072e+06	16.6738	0.584274	1	2.88257	20
840	300.64	94	-2.32071e+06	16.6397	0.586124	1	2.8826	20
841	293.679	94	-2.32071e+06	16.7657	0.584176	1	2.88258	20
842	294.871	94	-2.32071e+06	16.7147	0.583138	1	2.88251	20
843	299.278	94	-2.3207e+06	16.7449	0.585201	1	2.88274	20
844	293.43	94	-2.32071e+06	16.6841	0.586721	1	2.88235	20
845	305.443	90	-2.32072e+06	16.6581	0.586424	1	2.8829	20
846	296.255	94	-2.32074e+06	16.6889	0.588588	1	2.88244	20
847	288.907	94	-2.32075e+06	16.687	0.586274	1	2.88218	20
848	278.528	94	-2.32072e+06	16.6018	0.586274	1	2.88322	20
849	270.583	94	-2.32071e+06	16.5536	0.584507	1	2.88317	20
850	307.723	87	-2.32072e+06	16.6312	0.584507	1	2.88294	20
851	289.261	94	-2.32071e+06	16.6425	0.585152	1	2.88273	20
852	265.728	94	-2.32071e+06	16.5798	0.584287	1	2.8827	20
853	281.687	94	-2.3207e+06	16.5781	0.584508	1	2.8826	20
854	283.969	94	-2.32073e+06	16.6474	0.586195	1	2.88246	20
855	286.812	94	-2.32072e+06	16.6642	0.588247	1	2.88279	20
856	285.154	94	-2.3207e+06	16.5519	0.585147	1	2.88373	20
857	277.039	94	-2.3207e+06	16.6196	0.587143	1	2.88346	20
858	285.155	94	-2.32073e+06	16.596	0.588915	1	2.88355	20
859	278.349	94	-2.32072e+06	16.6748	0.590399	1	2.88292	20
860	286.351	94	-2.32073e+06	16.6895	0.592802	1	2.88264	20
861	276.834	94	-2.32071e+06	16.6669	0.5919	1	2.88285	20
862	283.482	94	-2.3207e+06	16.6619	0.587492	1	2.88328	20
863	291.551	94	-2.32071e+06	16.5901	0.589452	1	2.88314	20
864	285.055	94	-2.32073e+06	16.6542	0.591346	1	2.88451	20
865	280.703	94	-2.32072e+06	16.6177	0.587732	1	2.88464	20
866	286.887	94	-2.32072e+06	16.6053	0.588445	1	2.88374	20
867	292.132	94	-2.32073e+06	16.6545	0.588445	1	2.88405	20
868	284.818	94	-2.32073e+06	16.6279	0.588459	1	2.88457	20
869	287.005	94	-2.32071e+06	16.6204	0.587154	1	2.88453	20
870	271.214	94	-2.32071e+06	16.6714	0.586018	1	2.88415	20
871	281.016	94	-2.32073e+06	16.6129	0.585933	1	2.88381	20
872	281.272	94	-2.32072e+06	16.5344	0.585899	1	2.8835	20
873	267.585	93	-2.32073e+06	16.6508	0.585096	1	2.88346	20
874	274.651	93	-2.32072e+06	16.5969	0.584498	1	2.88284	20
875	275.526	93	-2.3207e+06	16.589	0.584907	1	2.88346	20
876	289.089	94	-2.32071e+06	16.5992	0.585078	1	2.88334	20
877	276.886	94	-2.32071e+06	16.6431	0.585819	1	2.88285	20
878	272.701	93	-2.32073e+06	16.633	0.581401	1	2.88256	20
879	279.818	94	-2.32071e+06	16.5868	0.57976	1	2.88258	20
880	282.162	94	-2.32071e+06	16.5745	0.581131	1	2.88239	20
881	288.193	94	-2.32071e+06	16.5554	0.582148	1	2.88217	20
882	290.631	94	-2.32072e+06	16.5163	0.582146	1	2.88242	20
883	277.638	94	-2.3207e+06	16.5296	0.582037	1	2.88261	20
884	281.315	94	-2.32071e+06	16.561	0.581853	1	2.88296	20
885	283.152	94	-2.32072e+06	16.6119	0.585105	1	2.88302	20
886	279.598	94	-2.32072e+06	16.6806	0.58354	1	2.88259	20
887	277.967	94	-2.32071e+06	16.6874	0.585972	1	2.88261	20
888	272.181	94	-2.32072e+06	16.6829	0.584759	1	2.88272	20
889	287.795	94	-2.32071e+06	16.6795	0.586792	1	2.88262	20
890	265.174	93	-2.32072e+06	16.7606	0.587653	1	2.88237	20
891	292.457	94	-2.32071e+06	16.7825	0.586414	1	2.88307	20
892	282.663	94	-2.32073e+06	16.7979	0.586901	1	2.88198	20
893	281.407	94	-2.32072e+06	16.7328	0.588405	1	2.88274	20
894	275.691	94	-2.32071e+06	16.6512	0.589786	1	2.88424	20
895	289.309	94	-2.32072e+06	16.6357	0.587231	1	2.88405	20
896	286.509	94	-2.32072e+06	16.6836	0.58651	1	2.88422	20
897	284.108	94	-2.32073e+06	16.6193	0.585554	1	2.88364	20
898	286.431	94	-2.32071e+06	16.6119	0.582834	1	2.88295	20
899	273.392	93	-2.32072e+06	16.6815	0.583864	1	2.8822	20
900	287.827	94	-2.32071e+06	16.6448	0.584037	1	2.88264	20
901	300.81	92	-2.32071e+06	16.5845	0.584363	1	2.88323	20
902	297.759	94	-2.32071e+06	16.6146	0.584363	1	2.88308	20
903	286.121	93	-2.32071e+06	16.5911	0.583225	1	2.88187	20
904	292.061	94	-2.32072e+06	16.5739	0.5804	1	2.88239	20
905	296.779	94	-2.32072e+06	16.599	0.584113	1	2.88244	20
906	294.634	94	-2.32071e+06	16.6307	0.582666	1	2.88233	20
907	290.117	94	-2.32072e+06	16.6018	0.582167	1	2.88196	20
908	295.628	93	-2.3207e+06	16.5762	0.58435	1	2.88161	20
909	288.462	94	-2.32072e+06	16.6966	0.586468	1	2.88222	20
910	273.445	93	-2.32073e+06	16.6581	0.586468	1	2.88215	20
911	275.164	93	-2.32071e+06	16.6979	0.586009	1	2.88166	20
912	276.248	93	-2.3207e+06	16.6545	0.586694	1	2.88209	20
913	296.084	94	-2.32071e+06	16.6674	0.58565	1	2.88226	20
914	288.748	94	-2.32071e+06	16.6485	0.58565	1	2.8824	20
915	291.795	94	-2.32073e+06	16.5331	0.586738	1	2.88236	20
916	287.991	94	-2.32071e+06	16.5167	0.586738	1	2.88253	20
917	284.752	93	-2.32071e+06	16.4841	0.584601	1	2.88271	20
918	283.518	94	-2.32072e+06	16.4646	0.584053	1	2.88286	20
919	288.583	94	-2.32071e+06	16.5135	0.584053	1	2.88282	20
920	284.987	94	-2.32072e+06	16.4873	0.585745	1	2.88273	20
921	282.201	94	-2.32072e+06	16.5346	0.586292	1	2.88283	20
922	274.216	94	-2.32073e+06	16.6169	0.58952	1	2.88226	20
923	272.209	93	-2.32072e+06	16.6761	0.588233	1	2.88287	20
924	271.978	93	-2.3207e+06	16.5866	0.589535	1	2.88347	20
925	288.488	94	-2.32071e+06	16.5923	0.585724	1	2.88348	20
926	285.284	94	-2.32071e+06	16.642	0.586113	1	2.88322	20
927	274.795	94	-2.32071e+06	16.6761	0.584376	1	2.88299	20
928	277.728	94	-2.3207e+06	16.6825	0.58365	1	2.88292	20
929	273.449	94	-2.32073e+06	16.6627	0.587089	1	2.88247	20
930	283.77	94	-2.32071e+06	16.7096	0.588643	1	2.88275	20
931	288.553	94	-2.32072e+06	16.7053	0.587784	1	2.88234	20
932	288.195	94	-2.32072e+06	16.7467	0.584099	1	2.88206	20
933	285.027	94	-2.32072e+06	16.7872	0.582896	1	2.88304	20
934	294.791	94	-2.32072e+06	16.7601	0.583092	1	2.88284	20
935	295.962	94	-2.32072e+06	16.7961	0.585286	1	2.88137	20
936	285.675	93	-2.32074e+06	16.7818	0.585879	1	2.88235	20
937	294.249	94	-2.32072e+06	16.7702	0.585879	1	2.88203	20
938	296.276	94	-2.32072e+06	16.8087	0.587148	1	2.8826	20
939	289.595	94	-2.32073e+06	16.6528	0.589806	1	2.88258	20
940	293.095	94	-2.32071e+06	16.6587	0.590545	1	2.88303	20
941	302.396	94	-2.32071e+06	16.6325	0.590545	1	2.8827	20
942	294.789	94	-2.32072e+06	16.5365	0.585511	1	2.88249	20
943	304.608	94	-2.32071e+06	16.5873	0.58639	1	2.88186	20
944	312.831	94	-2.32072e+06	16.6305	0.586826	1	2.88217	20
945	295.104	94	-2.32073e+06	16.5962	0.584514	1	2.88303	20
946	290.923	94	-2.32072e+06	16.6232	0.584941	1	2.88206	20
947	292.998	94	-2.32071e+06	16.5936	0.583828	1	2.88236	20
948	284.615	94	-2.32071e+06	16.6882	0.577765	1	2.88232	20
949	292.454	94	-2.32073e+06	16.6645	0.576334	1	2.88139	20
950	286.594	94	-2.32073e+06	16.6811	0.581514	1	2.88201	20
951	284.454	94	-2.32071e+06	16.7095	0.581198	1	2.88158	20
952	284.169	94	-2.32071e+06	16.7994	0.582229	1	2.88183	20
953	284.184	94	-2.32071e+06	16.7133	0.582784	1	2.88284	20
954	280.009	94	-2.32071e+06	16.6521	0.582024	1	2.88415	20
955	304.805	88	-2.32071e+06	16.6417	0.581081	1	2.88271	20
956	286.425	94	-2.32071e+06	16.6328	0.5824	1	2.88424	20
957	289.503	94	-2.32071e+06	16.6624	0.584047	1	2.88425	20
958	294.863	94	-2.32071e+06	16.7427	0.587529	1	2.88355	20
959	290.7	93	-2.32071e+06	16.7083	0.586716	1	2.88256	20
960	291.339	94	-2.32072e+06	16.6845	0.585446	1	2.88222	20
961	295.884	94	-2.32073e+06	16.6988	0.586102	1	2.88264	20
962	297.642	94	-2.32074e+06	16.67	0.586924	1	2.88244	20
963	282.093	94	-2.32073e+06	16.6692	0.587252	1	2.88227	20
964	282.368	94	-2.32072e+06	16.6922	0.585616	1	2.8825	20
965	289.321	94	-2.32071e+06	16.7114	0.585492	1	2.88237	20
966	269.57	93	-2.32071e+06	16.7112	0.583973	1	2.88241	20
967	296.005	94	-2.32072e+06	16.6469	0.582645	1	2.88216	20
968	285.007	94	-2.32071e+06	16.5768	0.581072	1	2.88286	20
969	285.526	94	-2.32071e+06	16.5949	0.583326	1	2.88284	20
970	299.427	94	-2.3207e+06	16.6184	0.584878	1	2.88234	20
971	297.753	94	-2.32071e+06	16.6202	0.584323	1	2.88229	20
972	288.166	94	-2.32072e+06	16.6725	0.58568	1	2.88205	20
973	298.634	94	-2.32071e+06	16.7395	0.586949	1	2.88197	20
974	296.702	94	-2.32071e+06	16.709	0.583795	1	2.88202	20
975	286.954	94	-2.32074e+06	16.6384	0.586147	1	2.88273	20
976	299.481	94	-2.32073e+06	16.6408	0.58628	1	2.88235	20
977	300.375	94	-2.32071e+06	16.6482	0.58598	1	2.88209	20
978	299.142	94	-2.32072e+06	16.5927	0.586525	1	2.88234	20
979	300.731	94	-2.32072e+06	16.6363	0.586112	1	2.88187	20
980	302.319	94	-2.32071e+06	16.6036	0.582293	1	2.88226	20
981	300.968	94	-2.32071e+06	16.659	0.582314	1	2.88194	20
982	290.2	94	-2.32072e+06	16.7436	0.58299	1	2.88238	20
983	300.496	94	-2.32072e+06	16.7117	0.583956	1	2.88252	20
984	288.89	94	-2.32073e+06	16.5351	0.58329	1	2.88253	20
985	282.438	94	-2.32071e+06	16.5024	0.585504	1	2.88236	20
986	283.865	94	-2.32072e+06	16.4678	0.588039	1	2.88267	20
987	283.338	94	-2.32071e+06	16.5158	0.590782	1	2.88336	20
988	284.151	94	-2.32071e+06	16.6087	0.587338	1	2.88347	20
989	279.173	94	-2.32071e+06	16.6285	0.586744	1	2.88329	20
990	283.117	94	-2.3207e+06	16.6985	0.586174	1	2.88333	20
991	290.497	94	-2.3207e+06	16.6236	0.588861	1	2.88344	20
992	290.535	94	-2.32072e+06	16.6182	0.585464	1	2.88353	20
993	278.597	94	-2.32073e+06	16.6291	0.58583	1	2.8836	20
994	292.701	94	-2.32071e+06	16.6814	0.584583	1	2.88256	20
995	306.8	94	-2.32072e+06	16.7065	0.586708	1	2.88256	20
996	292.928	94	-2.32071e+06	16.7255	0.586696	1	2.88324	20
997	300.215	94	-2.32071e+06	16.744	0.586696	1	2.88379	20
998	299.164	94	-2.32071e+06	16.6977	0.586864	1	2.88265	20
999	301.645	94	-2.32072e+06	16.6946	0.586864	1	2.88287	20
1000	294.904	94	-2.32073e+06	16.6223	0.588787	1	2.88329	20
1001	297.402	94	-2.32071e+06	16.6251	0.58818	1	2.88357	20
1002	285.063	94	-2.32071e+06	16.6345	0.587072	1	2.88336	20
1003	296.04	94	-2.32071e+06	16.6199	0.586107	1	2.88383	20
1004	286.1	94	-2.32072e+06	16.5839	0.584256	1	2.88254	20
1005	283.645	94	-2.32073e+06	16.6748	0.581749	1	2.88224	20
1006	287.753	94	-2.32072e+06	16.6661	0.581414	1	2.88151	20
1007	299.503	94	-2.32071e+06	16.563	0.582215	1	2.88262	20
1008	297.794	94	-2.32072e+06	16.4886	0.584438	1	2.88242	20
1009	303.22	94	-2.32071e+06	16.6224	0.58531	1	2.88198	20
1010	292.978	94	-2.32071e+06	16.6142	0.582898	1	2.88233	20
1011	290.867	94	-2.32074e+06	16.6278	0.585344	1	2.88207	20
1012	294.719	94	-2.32071e+06	16.6063	0.585957	1	2.88254	20
1013	295.594	94	-2.3207e+06	16.632	0.58405	1	2.88243	20
1014	288.724	94	-2.32071e+06	16.6715	0.583986	1	2.88133	20
1015	294.53	94	-2.32073e+06	16.7082	0.583167	1	2.88202	20
1016	295.949	94	-2.32072e+06	16.7263	0.583832	1	2.88201	20
1017	290.617	94	-2.32072e+06	16.6679	0.584046	1	2.88218	20
1018	303.36	94	-2.32071e+06	16.6846	0.583377	1	2.88217	20
1019	303.822	94	-2.32071e+06	16.7124	0.583858	1	2.88202	20
1020	299.514	94	-2.32072e+06	16.6666	0.585283	1	2.88272	20
1021	290.8	94	-2.32071e+06	16.6637	0.585283	1	2.88254	20
1022	296.469	94	-2.32071e+06	16.5985	0.583225	1	2.88296	20
1023	305.118	94	-2.32071e+06	16.585	0.582763	1	2.88196	20
1024	306.368	94	-2.32073e+06	16.6819	0.581907	1	2.88316	20
1025	301.263	94	-2.32072e+06	16.6427	0.582991	1	2.88319	20
1026	308.118	94	-2.32072e+06	16.6301	0.58113	1	2.8835	20
1027	298.15	94	-2.32074e+06	16.6336	0.584468	1	2.88353	20
1028	300.74	94	-2.32073e+06	16.6823	0.583983	1	2.88292	20
1029	303.023	93	-2.32072e+06	16.8028	0.582647	1	2.88228	20
1030	311.102	94	-2.32072e+06	16.8159	0.582993	1	2.88327	20
1031	315.14	94	-2.32071e+06	16.6716	0.579992	1	2.88314	20
1032	307.535	94	-2.32071e+06	16.6083	0.581552	1	2.88318	20
1033	301.614	94	-2.32071e+06	16.5871	0.579868	1	2.88316	20
1034	309.492	94	-2.32072e+06	16.5783	0.581052	1	2.88336	20
1035	307.929	94	-2.32073e+06	16.523	0.583361	1	2.88313	20
1036	296.711	94	-2.32072e+06	16.5341	0.585135	1	2.88361	20
1037	309.556	94	-2.32072e+06	16.6052	0.587811	1	2.88341	20
1038	319.53	94	-2.32072e+06	16.6097	0.586952	1	2.88328	20
1039	313.712	94	-2.32073e+06	16.6419	0.586769	1	2.88372	20
1040	313.49	94	-2.32071e+06	16.6497	0.582275	1	2.88218	20
1041	307.143	94	-2.32072e+06	16.729	0.582042	1	2.88179	20
1042	306.195	94	-2.32072e+06	16.6495	0.583138	1	2.88247	20
1043	308.449	94	-2.32074e+06	16.6628	0.585012	1	2.88101	20
1044	319.224	94	-2.32073e+06	16.7703	0.588242	1	2.88165	20
1045	307.844	94	-2.32071e+06	16.703	0.586581	1	2.88182	20
1046	312.722	94	-2.32072e+06	16.6794	0.584262	1	2.88193	20
1047	298.875	94	-2.32071e+06	16.7248	0.586285	1	2.88193	20
1048	306.9	94	-2.32072e+06	16.7355	0.584105	1	2.88255	20
1049	305.542	94	-2.32069e+06	16.779	0.585873	1	2.88255	20
1050	304.674	94	-2.32071e+06	16.7024	0.583591	1	2.88151	20
1051	309.281	94	-2.32072e+06	16.6602	0.583341	1	2.88139	20
1052	308.805	94	-2.32071e+06	16.7417	0.582258	1	2.88148	20
1053	305.648	94	-2.32071e+06	16.6631	0.582555	1	2.88157	20
1054	301.684	94	-2.32071e+06	16.6722	0.58145	1	2.883	20
1055	297.445	94	-2.32072e+06	16.6509	0.580269	1	2.88262	20
1056	297.996	94	-2.3207e+06	16.6457	0.582355	1	2.88283	20
1057	295.118	94	-2.32071e+06	16.7095	0.582355	1	2.88282	20
1058	287.36	94	-2.32073e+06	16.7127	0.580404	1	2.88342	20
1059	290.249	94	-2.32072e+06	16.7164	0.582052	1	2.88343	20
1060	282.765	94	-2.32071e+06	16.7014	0.583894	1	2.88335	20
1061	283.795	94	-2.32072e+06	16.8027	0.584192	1	2.88293	20
1062	276.437	93	-2.32072e+06	16.7342	0.584349	1	2.88292	20
1063	278.098	94	-2.32071e+06	16.6686	0.585305	1	2.88233	20
1064	285.174	94	-2.32072e+06	16.6752	0.587906	1	2.88283	20
1065	288.475	94	-2.32071e+06	16.6276	0.586597	1	2.88228	20
1066	275.614	93	-2.3207e+06	16.6256	0.586118	1	2.88328	20
1067	285.045	94	-2.3207e+06	16.6112	0.587582	1	2.88267	20
1068	292.001	94	-2.32068e+06	16.5845	0.587159	1	2.88242	20
1069	293.302	94	-2.32072e+06	16.6089	0.585275	1	2.88249	20
1070	293.571	94	-2.32071e+06	16.6611	0.583133	1	2.88194	20
1071	287.279	94	-2.32073e+06	16.6288	0.58449	1	2.88247	20
1072	291.994	94	-2.32071e+06	16.6037	0.585486	1	2.88272	20
1073	282.952	94	-2.32072e+06	16.5877	0.586909	1	2.88183	20
1074	284.289	94	-2.32072e+06	16.617	0.585662	1	2.88248	20
1075	285.865	94	-2.3207e+06	16.617	0.58677	1	2.88325	20
1076	291.939	94	-2.32072e+06	16.5949	0.58677	1	2.88343	20
1077	286.788	94	-2.32073e+06	16.6404	0.586527	1	2.88327	20
1078	292.155	94	-2.32073e+06	16.6285	0.588964	1	2.88262	20
1079	289.265	94	-2.32072e+06	16.589	0.58709	1	2.88255	20
1080	290.015	94	-2.32072e+06	16.6711	0.590356	1	2.88215	20
1081	289.769	94	-2.32073e+06	16.7396	0.584501	1	2.88189	20
1082	292.021	94	-2.32073e+06	16.7193	0.586329	1	2.88241	20
1083	284.833	94	-2.32073e+06	16.6962	0.586329	1	2.88203	20
1084	287.013	94	-2.32071e+06	16.7298	0.585313	1	2.88238	20
1085	287.818	94	-2.32072e+06	16.7618	0.586391	1	2.88205	20
1086	288.448	94	-2.32071e+06	16.6784	0.587954	1	2.88046	20
1087	281.109	94	-2.32071e+06	16.6876	0.58675	1	2.88107	20
1088	287.442	94	-2.32073e+06	16.6035	0.590231	1	2.88214	20
1089	289.606	94	-2.32074e+06	16.5471	0.589934	1	2.88255	20
1090	288.392	94	-2.32072e+06	16.6244	0.589621	1	2.88208	20
1091	278.806	94	-2.32072e+06	16.5589	0.591502	1	2.88253	20
1092	285.607	94	-2.32071e+06	16.5574	0.593096	1	2.88306	20
1093	288.281	94	-2.32071e+06	16.5676	0.590736	1	2.88265	20
1094	282.537	94	-2.32073e+06	16.656	0.589863	1	2.88283	20
1095	284.861	94	-2.32072e+06	16.6636	0.586203	1	2.88282	20
1096	294.609	94	-2.32072e+06	16.5575	0.587905	1	2.88296	20
1097	293.16	94	-2.32073e+06	16.521	0.586591	1	2.88274	20
1098	288.069	94	-2.32072e+06	16.627	0.585097	1	2.8829	20
1099	287.228	94	-2.32072e+06	16.6148	0.584688	1	2.88268	20
1100	291.557	94	-2.32071e+06	16.5724	0.584945	1	2.88238	20
1101	289.914	94	-2.32072e+06	16.6231	0.582299	1	2.88253	20
1102	296.334	94	-2.32072e+06	16.5844	0.584794	1	2.88309	20
1103	288.221	94	-2.32071e+06	16.6321	0.584844	1	2.88326	20
1104	291.206	94	-2.32072e+06	16.6769	0.587005	1	2.88358	20
1105	303.382	94	-2.32072e+06	16.6651	0.587005	1	2.88365	20
1106	303.361	94	-2.32073e+06	16.6744	0.584691	1	2.88347	20
1107	298.595	94	-2.32071e+06	16.7537	0.584691	1	2.88316	20
1108	309.03	94	-2.3207e+06	16.7526	0.584506	1	2.88292	20
1109	300.226	94	-2.32072e+06	16.6705	0.584331	1	2.88287	20
1110	302.089	94	-2.32073e+06	16.6812	0.584554	1	2.88266	20
1111	294.564	94	-2.32072e+06	16.6758	0.585302	1	2.88286	20
1112	294.76	94	-2.32072e+06	16.6876	0.582414	1	2.88251	20
1113	296.604	94	-2.32072e+06	16.7106	0.581606	1	2.88168	20
1114	291.637	94	-2.32072e+06	16.6357	0.583582	1	2.8821	20
1115	291.584	94	-2.32071e+06	16.6495	0.585012	1	2.88212	20
1116	293.663	94	-2.32072e+06	16.6598	0.585012	1	2.88175	20
1117	295.826	94	-2.32072e+06	16.6748	0.586458	1	2.88207	20
1118	305.777	94	-2.32075e+06	16.646	0.587896	1	2.88197	20
1119	294.013	94	-2.32072e+06	16.6375	0.587896	1	2.88244	20
1120	299.905	94	-2.32072e+06	16.6099	0.586199	1	2.88245	20
1121	298.016	94	-2.32073e+06	16.6583	0.585884	1	2.88249	20
1122	282.896	93	-2.32072e+06	16.6138	0.589574	1	2.88232	20
1123	285.533	93	-2.32073e+06	16.5979	0.588699	1	2.88266	20
1124	292.472	94	-2.32073e+06	16.607	0.587137	1	2.88374	20
1125	283.91	94	-2.32073e+06	16.6235	0.586694	1	2.88339	20
1126	289.01	94	-2.32071e+06	16.6449	0.586151	1	2.88191	20
1127	279.595	94	-2.32074e+06	16.6122	0.585663	1	2.88161	20
1128	280.489	94	-2.32072e+06	16.6647	0.582887	1	2.8815	20
1129	274.402	93	-2.32073e+06	16.6444	0.582261	1	2.88214	20
1130	297.244	94	-2.32072e+06	16.6438	0.582261	1	2.88179	20
1131	296.94	94	-2.32073e+06	16.5219	0.58117	1	2.88258	20
1132	295.848	94	-2.32073e+06	16.5434	0.583781	1	2.88224	20
1133	292.269	94	-2.32073e+06	16.5467	0.585102	1	2.88322	20
1134	305.5	94	-2.32073e+06	16.6957	0.584416	1	2.88271	20
1135	302.812	94	-2.32071e+06	16.6288	0.583438	1	2.88244	20
1136	303.712	94	-2.32074e+06	16.628	0.580571	1	2.88308	20
1137	307.015	94	-2.32072e+06	16.6521	0.57913	1	2.88356	20
1138	297.133	94	-2.32073e+06	16.6621	0.581797	1	2.88287	20
1139	292.567	94	-2.32072e+06	16.6239	0.58221	1	2.88246	20
1140	279.165	94	-2.32072e+06	16.583	0.582953	1	2.88168	20
1141	280.641	94	-2.32071e+06	16.6529	0.585498	1	2.88132	20
1142	294.387	94	-2.32072e+06	16.58	0.586083	1	2.88138	20
1143	288.647	94	-2.32073e+06	16.7215	0.587041	1	2.88168	20
1144	275.24	94	-2.32072e+06	16.7033	0.587418	1	2.88147	20
1145	281.977	93	-2.32071e+06	16.796	0.586443	1	2.88097	20
1146	281.59	93	-2.32072e+06	16.7928	0.586911	1	2.88179	20
1147	294.643	94	-2.32072e+06	16.73	0.586887	1	2.8813	20
1148	289.868	94	-2.32072e+06	16.752	0.586089	1	2.88128	20
1149	299.805	94	-2.32072e+06	16.7358	0.581962	1	2.88126	20
1150	291.091	94	-2.32072e+06	16.7139	0.583575	1	2.88106	20
1151	298.671	94	-2.32074e+06	16.6958	0.585559	1	2.88234	20
1152	285.333	93	-2.32072e+06	16.7295	0.585998	1	2.88195	20
1153	298.581	94	-2.32073e+06	16.7936	0.584221	1	2.88182	20
1154	300.068	94	-2.32074e+06	16.737	0.584221	1	2.88165	20
1155	294.596	94	-2.32072e+06	16.7451	0.585915	1	2.88162	20
1156	295.136	94	-2.32073e+06	16.7409	0.587577	1	2.88181	20
1157	289.297	94	-2.32072e+06	16.7628	0.587577	1	2.88139	20
1158	270.421	93	-2.32071e+06	16.6979	0.58529	1	2.88185	20
1159	285.471	94	-2.32071e+06	16.6995	0.58745	1	2.88134	20
1160	278.349	94	-2.32071e+06	16.7673	0.586921	1	2.88123	20
1161	288.161	94	-2.32072e+06	16.7681	0.588871	1	2.88146	20
1162	289.611	94	-2.32071e+06	16.7094	0.587802	1	2.88136	20
1163	279.247	94	-2.32072e+06	16.8144	0.585057	1	2.88106	20
1164	268.857	93	-2.32071e+06	16.7303	0.5862	1	2.88195	20
1165	295.164	94	-2.32072e+06	16.7573	0.584882	1	2.88222	20
1166	297.626	94	-2.32072e+06	16.7883	0.583153	1	2.88257	20
1167	300.191	94	-2.32072e+06	16.7576	0.586368	1	2.88292	20
1168	290.565	94	-2.32071e+06	16.6549	0.58699	1	2.88348	20
1169	293.582	94	-2.32071e+06	16.7246	0.584706	1	2.88307	20
1170	304.724	94	-2.32072e+06	16.8432	0.583488	1	2.88208	20
1171	292.921	94	-2.32072e+06	16.7982	0.586525	1	2.88316	20
1172	286.281	94	-2.32071e+06	16.7308	0.584834	1	2.88329	20
1173	288.317	94	-2.32071e+06	16.8337	0.582751	1	2.88219	20
1174	285.247	94	-2.32072e+06	16.7544	0.583103	1	2.88226	20
1175	296.868	93	-2.32071e+06	16.737	0.582896	1	2.88272	20
1176	300.043	94	-2.32073e+06	16.7222	0.583739	1	2.88288	20
1177	307.646	93	-2.32074e+06	16.7725	0.58484	1	2.88286	20
1178	282.392	94	-2.32073e+06	16.7307	0.585847	1	2.88308	20
1179	275.775	94	-2.32072e+06	16.6539	0.584056	1	2.88226	20
1180	282.78	94	-2.32072e+06	16.7338	0.587462	1	2.88342	20
1181	280.716	94	-2.32074e+06	16.6872	0.584704	1	2.8831	20
1182	285.212	94	-2.32074e+06	16.6765	0.584804	1	2.8829	20
1183	295.883	94	-2.32073e+06	16.7429	0.583768	1	2.88309	20
1184	292.055	94	-2.32075e+06	16.7086	0.583768	1	2.88312	20
1185	289.264	94	-2.32073e+06	16.6777	0.582322	1	2.88288	20
1186	293.804	94	-2.32072e+06	16.6544	0.581225	1	2.8832	20
1187	294.568	94	-2.32074e+06	16.6186	0.580314	1	2.88259	20
1188	289.687	94	-2.32072e+06	16.5646	0.5852	1	2.88294	20
1189	294.01	94	-2.32072e+06	16.6478	0.584777	1	2.88189	20
1190	300.004	94	-2.32071e+06	16.586	0.587762	1	2.8825	20
1191	286.828	93	-2.32071e+06	16.5544	0.587176	1	2.88243	20
1192	300.914	94	-2.32072e+06	16.6077	0.589124	1	2.88261	20
1193	298.448	94	-2.32071e+06	16.4923	0.588815	1	2.88211	20
1194	296.931	94	-2.32073e+06	16.5245	0.58646	1	2.88122	20
1195	285.084	93	-2.32073e+06	16.6195	0.585622	1	2.88063	20
1196	292.146	94	-2.32071e+06	16.6189	0.584476	1	2.8802	20
1197	286.281	94	-2.32072e+06	16.6755	0.584151	1	2.88099	20
1198	285.293	93	-2.32073e+06	16.6586	0.586537	1	2.88321	20
1199	289.111	94	-2.32072e+06	16.6934	0.58782	1	2.88274	20
1200	287.552	94	-2.32072e+06	16.6049	0.585645	1	2.88307	20
1201	285.686	94	-2.32071e+06	16.664	0.585602	1	2.88282	20
1202	280.744	94	-2.32072e+06	16.6612	0.587074	1	2.88272	20
1203	282.398	94	-2.32072e+06	16.6548	0.587338	1	2.88241	20
1204	284.431	94	-2.32072e+06	16.7137	0.586539	1	2.88169	20
1205	291.225	94	-2.32073e+06	16.6126	0.586271	1	2.88217	20
1206	279.781	94	-2.32071e+06	16.6502	0.590716	1	2.88298	20
1207	269.704	93	-2.32073e+06	16.6876	0.588275	1	2.88261	20
1208	272.41	93	-2.32072e+06	16.6531	0.589658	1	2.88238	20
1209	290.667	94	-2.32071e+06	16.6963	0.584759	1	2.88143	20
1210	286.62	94	-2.32073e+06	16.6351	0.583532	1	2.88195	20
1211	289.242	94	-2.32072e+06	16.6322	0.58376	1	2.88161	20
1212	291.754	94	-2.32071e+06	16.5939	0.582632	1	2.88269	20
1213	283.75	94	-2.32073e+06	16.5224	0.581974	1	2.88331	20
1214	292.439	94	-2.32071e+06	16.5537	0.583167	1	2.8824	20
1215	290.913	94	-2.32073e+06	16.5841	0.584538	1	2.88197	20
1216	288.22	94	-2.32071e+06	16.5458	0.586382	1	2.882	20
1217	289.83	94	-2.32073e+06	16.4513	0.586172	1	2.88225	20
1218	286.428	94	-2.32073e+06	16.5549	0.584345	1	2.88318	20
1219	282.867	93	-2.32072e+06	16.6064	0.586056	1	2.88343	20
1220	303.907	94	-2.32071e+06	16.6053	0.5869	1	2.88286	20
1221	296.965	94	-2.32072e+06	16.5911	0.586165	1	2.88324	20
1222	294.582	94	-2.32074e+06	16.6574	0.584747	1	2.88317	20
1223	271.728	94	-2.32072e+06	16.6058	0.58448	1	2.88343	20
1224	288.014	94	-2.32071e+06	16.5742	0.583905	1	2.88232	20
1225	295.483	94	-2.32072e+06	16.5207	0.585423	1	2.88217	20
1226	290.314	94	-2.32071e+06	16.5256	0.586466	1	2.88289	20
1227	291.001	94	-2.32071e+06	16.5887	0.586843	1	2.88278	20
1228	284.435	94	-2.3207e+06	16.5726	0.583394	1	2.88289	20
1229	287.695	94	-2.32073e+06	16.6273	0.583713	1	2.88332	20
1230	282.674	94	-2.32071e+06	16.5625	0.583574	1	2.88294	20
1231	280.665	94	-2.32071e+06	16.5881	0.585116	1	2.88305	20
1232	277.401	94	-2.32072e+06	16.6173	0.585205	1	2.8829	20
1233	284.566	94	-2.32071e+06	16.6337	0.583109	1	2.88249	20
1234	281.071	94	-2.32072e+06	16.6626	0.586878	1	2.88227	20
1235	282.687	94	-2.32071e+06	16.5932	0.585425	1	2.88187	20
1236	286.752	94	-2.32072e+06	16.6605	0.584209	1	2.88139	20
1237	273.448	93	-2.32072e+06	16.7025	0.58559	1	2.88172	20
1238	288.948	94	-2.32072e+06	16.7133	0.585629	1	2.88232	20
1239	283.733	94	-2.32072e+06	16.7041	0.587326	1	2.88292	20
1240	282.787	94	-2.32071e+06	16.6898	0.588559	1	2.88216	20
1241	281.985	94	-2.32074e+06	16.5947	0.585818	1	2.88211	20
1242	275.81	94	-2.32072e+06	16.5749	0.583872	1	2.8824	20
1243	285.067	94	-2.32073e+06	16.7009	0.585438	1	2.88196	20
1244	281.423	94	-2.32073e+06	16.705	0.585438	1	2.88249	20
1245	272.684	94	-2.32071e+06	16.7015	0.585438	1	2.8823	20
1246	296.226	94	-2.32072e+06	16.7481	0.585289	1	2.88294	20
1247	285.258	94	-2.32072e+06	16.7575	0.586431	1	2.88276	20
1248	291.25	94	-2.3207e+06	16.7382	0.584791	1	2.88244	20
1249	300.208	94	-2.32072e+06	16.6832	0.584062	1	2.88337	20
1250	304.284	94	-2.32071e+06	16.6406	0.584783	1	2.88381	20
1251	310.725	94	-2.32071e+06	16.5726	0.585293	1	2.8834	20
1252	290.52	94	-2.32071e+06	16.6404	0.585402	1	2.8839	20
1253	292.229	94	-2.32071e+06	16.6361	0.584063	1	2.88281	20
1254	303.687	94	-2.32071e+06	16.5909	0.58677	1	2.88294	20
1255	300.891	94	-2.32072e+06	16.6893	0.584687	1	2.88337	20
1256	288.233	94	-2.32074e+06	16.6902	0.58644	1	2.8832	20
1257	291.661	94	-2.32072e+06	16.5972	0.584987	1	2.88247	20
1258	300.541	94	-2.32072e+06	16.584	0.585682	1	2.88323	20
1259	299.401	94	-2.32071e+06	16.6651	0.581042	1	2.88209	20
1260	289.361	94	-2.32071e+06	16.6075	0.582071	1	2.88246	20
1261	296.105	94	-2.3207e+06	16.5953	0.583625	1	2.88274	20
1262	296.176	94	-2.32071e+06	16.5517	0.583625	1	2.883	20
1263	300.098	94	-2.32072e+06	16.5959	0.585497	1	2.88272	20
1264	303.756	94	-2.32072e+06	16.6025	0.583962	1	2.88265	20
1265	301.309	94	-2.32071e+06	16.6032	0.585961	1	2.88232	20
1266	295.13	94	-2.32073e+06	16.6383	0.588338	1	2.88154	20
1267	294.523	94	-2.32071e+06	16.631	0.586509	1	2.88152	20
1268	278.963	94	-2.3207e+06	16.6365	0.584761	1	2.88155	20
1269	282.503	94	-2.32071e+06	16.6092	0.583226	1	2.88158	20
1270	288.951	94	-2.32071e+06	16.6073	0.581774	1	2.88325	20
1271	286.912	94	-2.32071e+06	16.605	0.584477	1	2.88273	20
1272	289.861	94	-2.32072e+06	16.55	0.584907	1	2.88358	20
1273	286.646	93	-2.32073e+06	16.5466	0.588152	1	2.88345	20
1274	301.057	94	-2.32073e+06	16.6299	0.588639	1	2.8835	20
1275	293.998	94	-2.32071e+06	16.6174	0.589601	1	2.88353	20
1276	300.805	94	-2.32072e+06	16.6129	0.590885	1	2.88297	20
