#iter	time	topo	loglik	length	alpha	Nmode	statent	statalpha
1	209.848	94	-2.96432e+06	17.4343	0.752338	1	2.85995	20
2	179.876	93	-2.80625e+06	18.7078	0.696123	1	2.87887	20
3	185.646	94	-2.69952e+06	20.0008	0.645518	1	2.88167	20
4	176.893	93	-2.64948e+06	20.7723	0.6233	1	2.88363	20
5	189.712	94	-2.61537e+06	20.839	0.606451	1	2.88249	20
6	192.381	94	-2.59471e+06	20.9343	0.596465	1	2.88347	20
7	191.566	94	-2.55798e+06	21.1781	0.590619	1	2.88302	20
8	182.816	93	-2.54173e+06	21.0082	0.588947	1	2.88368	20
9	183.539	93	-2.52941e+06	21.1591	0.586021	1	2.88364	20
10	184.735	94	-2.51183e+06	20.7703	0.584874	1	2.88301	20
11	173.469	93	-2.48451e+06	20.5126	0.586795	1	2.88281	20
12	180.952	93	-2.45645e+06	20.4383	0.586886	1	2.88313	20
13	177.289	93	-2.44355e+06	20.221	0.589329	1	2.88328	20
14	172.944	93	-2.42565e+06	19.7387	0.593929	1	2.88277	20
15	172.029	93	-2.42225e+06	19.0753	0.597671	1	2.88315	20
16	164.804	93	-2.41613e+06	18.6379	0.601566	1	2.88331	20
17	171.088	93	-2.40881e+06	18.3653	0.602067	1	2.88307	20
18	176.261	93	-2.40223e+06	18.0829	0.601933	1	2.8827	20
19	169.876	93	-2.39869e+06	17.8591	0.59912	1	2.88296	20
20	177.329	93	-2.39372e+06	17.5069	0.601823	1	2.88425	20
21	169.004	93	-2.38919e+06	17.2352	0.603374	1	2.88366	20
22	171.298	93	-2.38719e+06	16.9177	0.604104	1	2.88413	20
23	173.373	93	-2.38631e+06	16.6862	0.605146	1	2.88448	20
24	167.065	93	-2.37517e+06	16.4129	0.606157	1	2.88462	20
25	173.658	93	-2.37222e+06	16.1591	0.607921	1	2.88457	20
26	174.968	93	-2.36147e+06	15.8536	0.60803	1	2.8846	20
27	169.039	93	-2.3603e+06	15.6082	0.607796	1	2.8849	20
28	172.487	93	-2.35632e+06	15.3763	0.606131	1	2.88482	20
29	167.409	93	-2.35365e+06	15.4346	0.608774	1	2.88437	20
30	171.358	93	-2.35181e+06	15.3406	0.609039	1	2.88439	20
31	172.457	93	-2.35137e+06	15.2597	0.610419	1	2.88455	20
32	171.916	93	-2.35114e+06	15.1329	0.611919	1	2.88406	20
33	166.425	93	-2.34986e+06	15.0279	0.61692	1	2.88386	20
34	167.227	93	-2.34879e+06	14.8806	0.616493	1	2.88391	20
35	172.905	93	-2.34528e+06	14.9104	0.615815	1	2.88558	20
36	173.521	93	-2.3433e+06	14.4735	0.616494	1	2.88533	20
37	172.917	93	-2.34238e+06	14.4559	0.616494	1	2.88486	20
38	172.445	93	-2.34204e+06	14.4595	0.614537	1	2.8847	20
39	173.04	93	-2.34133e+06	14.5489	0.614591	1	2.88438	20
40	180.514	93	-2.34121e+06	14.5135	0.61439	1	2.88458	20
41	172.009	93	-2.34119e+06	14.4328	0.614082	1	2.88553	20
42	171.519	93	-2.34117e+06	14.3835	0.61382	1	2.88577	20
43	175.87	93	-2.34118e+06	14.3994	0.615785	1	2.88533	20
44	169.252	93	-2.34116e+06	14.3254	0.608508	1	2.88518	20
45	175.467	93	-2.34115e+06	14.3425	0.608215	1	2.88553	20
46	175.221	93	-2.34116e+06	14.4143	0.608831	1	2.88553	20
47	173.434	93	-2.34115e+06	14.4645	0.609593	1	2.88566	20
48	168.202	93	-2.34116e+06	14.4798	0.610793	1	2.88549	20
49	171.445	93	-2.34114e+06	14.4547	0.610793	1	2.88439	20
50	176.258	93	-2.34114e+06	14.4744	0.613815	1	2.88419	20
51	180.916	93	-2.34115e+06	14.4615	0.612972	1	2.88453	20
52	178.009	93	-2.34115e+06	14.4503	0.614287	1	2.88467	20
53	179.085	93	-2.34116e+06	14.4309	0.617435	1	2.88409	20
54	176.121	93	-2.34115e+06	14.3801	0.613542	1	2.88397	20
55	177.442	93	-2.34115e+06	14.3559	0.614076	1	2.88462	20
56	182.706	93	-2.34113e+06	14.3834	0.612959	1	2.88476	20
57	172.132	93	-2.34114e+06	14.3763	0.612269	1	2.88524	20
58	186.949	94	-2.34114e+06	14.3719	0.612172	1	2.88531	20
59	175.895	93	-2.34051e+06	14.3731	0.615409	1	2.88582	20
60	178.956	93	-2.34042e+06	14.5031	0.616602	1	2.88543	20
61	172.81	93	-2.34041e+06	14.421	0.615513	1	2.88442	20
62	181.729	93	-2.34042e+06	14.3895	0.615513	1	2.88444	20
63	174.532	93	-2.34043e+06	14.4349	0.614599	1	2.8848	20
64	176.459	93	-2.34042e+06	14.3737	0.615414	1	2.88461	20
65	172.451	93	-2.34041e+06	14.4149	0.613232	1	2.885	20
66	174.425	93	-2.34042e+06	14.3537	0.614416	1	2.88522	20
67	178.041	93	-2.34043e+06	14.3733	0.617412	1	2.88508	20
68	178.464	93	-2.34042e+06	14.4163	0.616993	1	2.88518	20
69	180.638	93	-2.34043e+06	14.4358	0.616922	1	2.88463	20
70	174.682	93	-2.34042e+06	14.4534	0.614604	1	2.88483	20
71	178.04	93	-2.34041e+06	14.4497	0.613507	1	2.88463	20
72	177.448	93	-2.34041e+06	14.3498	0.615477	1	2.88478	20
73	169.486	93	-2.34041e+06	14.4646	0.615504	1	2.88446	20
74	184.974	94	-2.34041e+06	14.4504	0.614229	1	2.8855	20
75	175.35	93	-2.34041e+06	14.4243	0.615681	1	2.88446	20
76	173.556	93	-2.34043e+06	14.5161	0.615969	1	2.88379	20
77	175.444	93	-2.34042e+06	14.4836	0.61352	1	2.88391	20
78	180.847	93	-2.34043e+06	14.4317	0.613484	1	2.88367	20
79	179.88	93	-2.34043e+06	14.354	0.614741	1	2.88368	20
80	175.044	93	-2.34042e+06	14.2847	0.615014	1	2.88431	20
81	177.294	93	-2.34042e+06	14.3534	0.615014	1	2.88495	20
82	170.991	93	-2.34042e+06	14.3937	0.61491	1	2.88465	20
83	173.247	93	-2.34044e+06	14.3961	0.618192	1	2.88427	20
84	176.992	93	-2.34043e+06	14.3651	0.616764	1	2.88504	20
85	173.641	93	-2.34043e+06	14.3575	0.617125	1	2.88462	20
86	162.961	93	-2.34044e+06	14.4093	0.616458	1	2.88478	20
87	172.235	93	-2.34042e+06	14.4291	0.615106	1	2.88379	20
88	172.836	93	-2.34041e+06	14.5175	0.614815	1	2.88387	20
89	165.767	93	-2.34043e+06	14.4506	0.615316	1	2.88413	20
90	173.087	93	-2.34044e+06	14.4927	0.617874	1	2.88388	20
91	172.17	93	-2.34043e+06	14.486	0.6182	1	2.88521	20
92	168.421	93	-2.34043e+06	14.4996	0.615778	1	2.88414	20
93	171.997	93	-2.34043e+06	14.5228	0.618483	1	2.88439	20
94	170.137	93	-2.34044e+06	14.5434	0.61723	1	2.88467	20
95	183.329	93	-2.34043e+06	14.4858	0.615589	1	2.88492	20
96	178.215	93	-2.34042e+06	14.4272	0.616721	1	2.88494	20
97	176.079	93	-2.34041e+06	14.4438	0.616737	1	2.88481	20
98	177.208	93	-2.34042e+06	14.4467	0.618676	1	2.88514	20
99	175.904	93	-2.34041e+06	14.4649	0.613152	1	2.88509	20
100	174.994	93	-2.34042e+06	14.4569	0.609952	1	2.88422	20
101	179.176	93	-2.34042e+06	14.4049	0.608433	1	2.88499	20
102	179.441	93	-2.34043e+06	14.3615	0.611838	1	2.8844	20
103	177.909	93	-2.34042e+06	14.3867	0.610962	1	2.8846	20
104	175.632	93	-2.34043e+06	14.3515	0.614311	1	2.8846	20
105	178.223	93	-2.34042e+06	14.3446	0.61267	1	2.88435	20
106	179.783	93	-2.34042e+06	14.4221	0.611186	1	2.88502	20
107	175.691	93	-2.34043e+06	14.4771	0.610144	1	2.88478	20
108	175.28	93	-2.34043e+06	14.3269	0.612158	1	2.88502	20
109	176.428	93	-2.34043e+06	14.2835	0.607409	1	2.88497	20
110	185.487	94	-2.34042e+06	14.2879	0.608499	1	2.88449	20
111	180.044	93	-2.34042e+06	14.2907	0.611143	1	2.8853	20
112	177.897	93	-2.34042e+06	14.3984	0.611681	1	2.88602	20
113	175.234	93	-2.34042e+06	14.4525	0.612727	1	2.8851	20
114	171.344	93	-2.34042e+06	14.42	0.610733	1	2.88586	20
115	177.321	93	-2.34042e+06	14.4284	0.609768	1	2.88542	20
116	181.658	93	-2.34043e+06	14.402	0.612044	1	2.88524	20
117	186.166	94	-2.34041e+06	14.4061	0.615216	1	2.88514	20
118	175.206	93	-2.34043e+06	14.3502	0.617144	1	2.88487	20
119	179.367	93	-2.34042e+06	14.4371	0.617666	1	2.8849	20
120	177.405	93	-2.34042e+06	14.3982	0.614311	1	2.88515	20
121	181.796	93	-2.34041e+06	14.4712	0.615547	1	2.88477	20
122	174.6	93	-2.34044e+06	14.4459	0.61704	1	2.88515	20
123	178.422	93	-2.34042e+06	14.4607	0.615723	1	2.88482	20
124	178.541	93	-2.34042e+06	14.4761	0.615712	1	2.88431	20
125	177.677	93	-2.34041e+06	14.4303	0.61521	1	2.88483	20
126	178.835	93	-2.34042e+06	14.4234	0.614163	1	2.88519	20
127	177.594	93	-2.34044e+06	14.3678	0.612854	1	2.88544	20
128	179.447	93	-2.34044e+06	14.4595	0.610842	1	2.88568	20
129	178.771	93	-2.34042e+06	14.4258	0.611406	1	2.88529	20
130	178.722	93	-2.34043e+06	14.4233	0.614647	1	2.88528	20
131	177.393	93	-2.34041e+06	14.472	0.614755	1	2.88549	20
132	180.234	93	-2.34042e+06	14.473	0.616807	1	2.88553	20
133	180.212	93	-2.34042e+06	14.4605	0.615154	1	2.88505	20
134	173.46	93	-2.34044e+06	14.4615	0.619587	1	2.88531	20
135	179.71	93	-2.34043e+06	14.3644	0.619587	1	2.88498	20
136	177.708	93	-2.34042e+06	14.3937	0.617055	1	2.885	20
137	179.679	94	-2.34044e+06	14.4589	0.615297	1	2.88532	20
138	179.41	93	-2.34043e+06	14.4339	0.621613	1	2.88428	20
139	180.167	93	-2.34043e+06	14.463	0.622641	1	2.88479	20
140	179.143	93	-2.34043e+06	14.4456	0.623112	1	2.88406	20
141	175.393	93	-2.34041e+06	14.4683	0.617431	1	2.88435	20
142	176.071	93	-2.34042e+06	14.3795	0.614945	1	2.88428	20
143	181.538	94	-2.34042e+06	14.4001	0.613609	1	2.88536	20
144	179.221	93	-2.34041e+06	14.4376	0.614197	1	2.88532	20
145	174.345	93	-2.34042e+06	14.4488	0.615358	1	2.88462	20
146	167.508	93	-2.34041e+06	14.468	0.616603	1	2.88473	20
147	171.386	93	-2.34043e+06	14.5197	0.619718	1	2.88555	20
148	168.282	93	-2.34043e+06	14.5286	0.618874	1	2.88642	20
149	171.649	93	-2.34043e+06	14.4407	0.617392	1	2.88462	20
150	174.401	93	-2.34045e+06	14.4254	0.614336	1	2.88448	20
151	173.447	93	-2.34044e+06	14.5027	0.614793	1	2.8849	20
152	172.802	93	-2.34043e+06	14.4763	0.612833	1	2.8844	20
153	174.865	93	-2.34041e+06	14.4539	0.613519	1	2.88392	20
154	176.661	93	-2.34043e+06	14.4453	0.613519	1	2.88317	20
155	171.395	93	-2.34043e+06	14.4278	0.610597	1	2.88329	20
156	169.548	93	-2.34042e+06	14.4909	0.611127	1	2.88366	20
157	171.935	93	-2.34042e+06	14.5027	0.612316	1	2.88362	20
158	174.055	93	-2.34044e+06	14.4405	0.608498	1	2.88394	20
159	174.604	93	-2.34043e+06	14.4493	0.611362	1	2.88347	20
160	175.399	93	-2.34042e+06	14.3655	0.610331	1	2.88464	20
161	171.222	93	-2.34044e+06	14.3876	0.611063	1	2.88538	20
162	175.08	93	-2.34041e+06	14.3683	0.611063	1	2.88518	20
163	175.729	93	-2.34041e+06	14.3359	0.610415	1	2.88477	20
164	173.687	93	-2.34043e+06	14.4105	0.610265	1	2.88466	20
165	173.688	93	-2.34043e+06	14.3692	0.613751	1	2.88397	20
166	172.807	93	-2.34043e+06	14.3628	0.614926	1	2.88393	20
167	166.788	93	-2.34042e+06	14.3478	0.616944	1	2.88412	20
168	173.013	93	-2.34042e+06	14.4559	0.615342	1	2.88336	20
169	167.789	93	-2.34041e+06	14.4645	0.616823	1	2.8844	20
170	172.23	93	-2.34041e+06	14.4006	0.613222	1	2.88485	20
171	171.484	93	-2.34042e+06	14.4017	0.616416	1	2.88408	20
172	183.066	94	-2.34042e+06	14.3861	0.614495	1	2.88585	20
173	177.847	93	-2.34044e+06	14.364	0.612414	1	2.88598	20
174	178.75	93	-2.34043e+06	14.4546	0.610519	1	2.88625	20
175	174.94	93	-2.34043e+06	14.4846	0.613676	1	2.88578	20
176	179.201	93	-2.34042e+06	14.5425	0.614979	1	2.88477	20
177	174.743	93	-2.34042e+06	14.5321	0.61487	1	2.88364	20
178	169.911	93	-2.34043e+06	14.5856	0.611727	1	2.88448	20
179	176.365	93	-2.34043e+06	14.5415	0.614828	1	2.88378	20
180	184.435	94	-2.34042e+06	14.4725	0.616244	1	2.88408	20
181	179.98	93	-2.34043e+06	14.4387	0.618474	1	2.88437	20
182	178.878	93	-2.34043e+06	14.422	0.614319	1	2.88514	20
183	178.907	93	-2.34043e+06	14.3385	0.613153	1	2.88447	20
184	177.427	93	-2.34043e+06	14.4407	0.612748	1	2.88483	20
185	177.015	93	-2.34043e+06	14.4951	0.61183	1	2.88501	20
186	180.262	93	-2.34042e+06	14.4962	0.610247	1	2.88463	20
187	181.633	93	-2.34043e+06	14.4769	0.613636	1	2.88436	20
188	180.274	93	-2.34042e+06	14.3261	0.618457	1	2.88474	20
189	176.192	93	-2.34044e+06	14.3278	0.617292	1	2.8848	20
190	179.554	93	-2.34044e+06	14.3007	0.615446	1	2.88466	20
191	176.243	93	-2.34043e+06	14.3354	0.613207	1	2.88504	20
192	172.274	93	-2.34043e+06	14.3625	0.613935	1	2.8851	20
193	175.262	93	-2.34044e+06	14.4304	0.616064	1	2.88482	20
194	166.9	93	-2.34043e+06	14.4188	0.616278	1	2.88481	20
195	177.471	93	-2.3404e+06	14.4292	0.615112	1	2.88504	20
196	175.641	93	-2.34043e+06	14.4735	0.617577	1	2.88342	20
197	175.633	93	-2.34043e+06	14.5117	0.618442	1	2.88398	20
198	172.384	93	-2.34043e+06	14.5056	0.616817	1	2.88479	20
199	173.13	93	-2.34041e+06	14.4808	0.616817	1	2.88406	20
200	175.721	93	-2.34041e+06	14.4826	0.615318	1	2.88415	20
201	175.83	93	-2.34043e+06	14.433	0.61342	1	2.88468	20
202	174.55	93	-2.34043e+06	14.4331	0.6146	1	2.88454	20
203	176.86	93	-2.34043e+06	14.4224	0.614182	1	2.88491	20
204	175.657	93	-2.34043e+06	14.3777	0.61212	1	2.88486	20
205	175.63	93	-2.34041e+06	14.3249	0.613025	1	2.88503	20
206	179.937	93	-2.34043e+06	14.386	0.616251	1	2.88502	20
207	170.726	93	-2.34042e+06	14.4608	0.612658	1	2.88509	20
208	176.844	93	-2.34043e+06	14.4731	0.615091	1	2.88451	20
209	176.811	93	-2.34042e+06	14.4424	0.615648	1	2.88576	20
210	174.823	93	-2.34042e+06	14.4576	0.615989	1	2.88603	20
211	170.1	93	-2.34043e+06	14.412	0.613977	1	2.88561	20
212	173.895	93	-2.34041e+06	14.4563	0.616176	1	2.88581	20
213	174.278	93	-2.34043e+06	14.4801	0.614306	1	2.8862	20
214	175.264	93	-2.34042e+06	14.4969	0.611679	1	2.88502	20
215	179.627	93	-2.34043e+06	14.4513	0.616228	1	2.88513	20
216	177.145	93	-2.34042e+06	14.527	0.617512	1	2.88591	20
217	177.483	93	-2.34043e+06	14.5878	0.61547	1	2.88596	20
218	173.422	93	-2.34042e+06	14.5044	0.61514	1	2.88593	20
219	175.126	93	-2.34042e+06	14.4701	0.615923	1	2.88597	20
220	176.401	93	-2.34042e+06	14.5665	0.615946	1	2.88544	20
221	176.824	93	-2.34043e+06	14.5838	0.611872	1	2.88553	20
222	173.937	93	-2.34043e+06	14.5635	0.613464	1	2.88529	20
223	176.735	93	-2.34043e+06	14.5233	0.615981	1	2.88466	20
224	177.714	93	-2.34043e+06	14.4781	0.615677	1	2.88415	20
225	170.56	93	-2.34041e+06	14.4706	0.614341	1	2.88384	20
226	176.611	93	-2.34043e+06	14.4956	0.610569	1	2.88343	20
227	185.069	93	-2.34044e+06	14.5028	0.613106	1	2.8831	20
228	178.362	93	-2.34044e+06	14.4538	0.614771	1	2.88426	20
229	173.398	93	-2.34043e+06	14.4767	0.616746	1	2.88453	20
230	172.807	93	-2.34044e+06	14.4163	0.615503	1	2.88442	20
231	172.126	93	-2.34043e+06	14.4379	0.616837	1	2.88456	20
232	177.933	93	-2.34043e+06	14.4291	0.616115	1	2.88407	20
233	182.453	94	-2.34043e+06	14.4085	0.614699	1	2.88393	20
234	171.743	93	-2.34044e+06	14.3507	0.613399	1	2.88483	20
235	172.373	93	-2.34043e+06	14.4269	0.61501	1	2.88507	20
236	171.586	93	-2.34042e+06	14.4333	0.61506	1	2.88497	20
237	176.559	93	-2.34042e+06	14.444	0.61733	1	2.88567	20
238	171.033	93	-2.34044e+06	14.4881	0.615218	1	2.88512	20
239	176.161	93	-2.34044e+06	14.4884	0.614253	1	2.88532	20
240	183.143	93	-2.34043e+06	14.5018	0.611604	1	2.8852	20
241	176.787	93	-2.34044e+06	14.4461	0.612048	1	2.88546	20
242	174.881	93	-2.34043e+06	14.4244	0.61466	1	2.88528	20
243	173.772	93	-2.34042e+06	14.4187	0.61378	1	2.88559	20
244	173.82	93	-2.34041e+06	14.4522	0.61506	1	2.88459	20
245	177.626	93	-2.34044e+06	14.5301	0.616222	1	2.88499	20
246	173.945	93	-2.34042e+06	14.5053	0.615288	1	2.88522	20
247	175.879	93	-2.34042e+06	14.4878	0.613187	1	2.88514	20
248	179.073	93	-2.34043e+06	14.5439	0.615978	1	2.8843	20
249	177.459	93	-2.34042e+06	14.4601	0.617005	1	2.88557	20
250	175.278	93	-2.34042e+06	14.4874	0.618142	1	2.88461	20
251	175.273	93	-2.34042e+06	14.4112	0.618545	1	2.88484	20
252	170.831	93	-2.34043e+06	14.492	0.619266	1	2.88456	20
253	174.038	93	-2.34043e+06	14.5339	0.618663	1	2.88392	20
254	176.511	93	-2.34043e+06	14.5257	0.615414	1	2.88393	20
255	170.397	93	-2.34043e+06	14.5482	0.617593	1	2.88386	20
256	170.929	93	-2.34041e+06	14.5434	0.613855	1	2.88399	20
257	176.394	93	-2.34041e+06	14.5363	0.611658	1	2.88337	20
258	179.854	93	-2.34041e+06	14.4742	0.613729	1	2.88491	20
259	174.594	93	-2.34042e+06	14.3908	0.616948	1	2.88511	20
260	183.752	94	-2.34042e+06	14.4926	0.614334	1	2.88471	20
261	183.053	90	-2.34042e+06	14.4144	0.612451	1	2.88403	20
262	179.363	93	-2.34042e+06	14.4541	0.608778	1	2.88376	20
263	177.285	93	-2.34041e+06	14.4296	0.608669	1	2.88359	20
264	173.676	93	-2.34042e+06	14.491	0.612297	1	2.88355	20
265	176.81	93	-2.34043e+06	14.4988	0.614937	1	2.88338	20
266	169.184	93	-2.34041e+06	14.5691	0.616247	1	2.88346	20
267	177.195	93	-2.34043e+06	14.5019	0.61456	1	2.8844	20
268	178.168	93	-2.34043e+06	14.4387	0.617317	1	2.88508	20
269	179.607	93	-2.34044e+06	14.3736	0.614468	1	2.88525	20
270	176.133	93	-2.34042e+06	14.3275	0.616365	1	2.88547	20
271	175.233	93	-2.34043e+06	14.3028	0.614572	1	2.88494	20
272	177.788	93	-2.34041e+06	14.3852	0.615038	1	2.8843	20
273	171.353	93	-2.34041e+06	14.4389	0.613579	1	2.88482	20
274	173.402	93	-2.34042e+06	14.4647	0.615562	1	2.88472	20
275	173.651	93	-2.34044e+06	14.4199	0.617659	1	2.88476	20
276	173.1	93	-2.34042e+06	14.5091	0.61487	1	2.88447	20
277	173.414	93	-2.34041e+06	14.4856	0.612406	1	2.8848	20
278	172.296	93	-2.34043e+06	14.4264	0.613829	1	2.88445	20
279	174.108	93	-2.34042e+06	14.4289	0.613792	1	2.88473	20
280	171.314	93	-2.34042e+06	14.4041	0.613193	1	2.88587	20
281	174.812	93	-2.34042e+06	14.4215	0.613193	1	2.88579	20
282	171.747	93	-2.34043e+06	14.4357	0.616527	1	2.88544	20
283	169.41	93	-2.34044e+06	14.4013	0.614709	1	2.88445	20
284	173.377	93	-2.34044e+06	14.4046	0.616009	1	2.88456	20
285	178.236	93	-2.34043e+06	14.4562	0.617295	1	2.88414	20
286	176.133	93	-2.34042e+06	14.4991	0.614553	1	2.88467	20
287	173.359	93	-2.34042e+06	14.3843	0.614856	1	2.88437	20
288	175.476	93	-2.34044e+06	14.3664	0.61389	1	2.88421	20
289	174.534	93	-2.34041e+06	14.3029	0.615719	1	2.88489	20
290	174.296	93	-2.34042e+06	14.3484	0.615719	1	2.88502	20
291	168.42	93	-2.34041e+06	14.343	0.614644	1	2.88412	20
292	171.328	93	-2.34044e+06	14.364	0.617534	1	2.88424	20
293	174.47	93	-2.34044e+06	14.2726	0.617614	1	2.88379	20
294	173.6	93	-2.34043e+06	14.3295	0.613613	1	2.88495	20
295	170.411	93	-2.34041e+06	14.3492	0.612252	1	2.88491	20
296	175.338	93	-2.34044e+06	14.2856	0.615813	1	2.88457	20
297	173.569	93	-2.34043e+06	14.3243	0.614855	1	2.88441	20
298	184.932	94	-2.34042e+06	14.3501	0.613642	1	2.88497	20
299	186.634	94	-2.34042e+06	14.3728	0.615106	1	2.8859	20
300	173.435	93	-2.34042e+06	14.3823	0.615286	1	2.8855	20
301	174.237	93	-2.34042e+06	14.4105	0.611608	1	2.88559	20
302	173.184	93	-2.34041e+06	14.3793	0.611608	1	2.88498	20
303	177.111	93	-2.34042e+06	14.3464	0.611022	1	2.88472	20
304	174.078	93	-2.34041e+06	14.3636	0.611523	1	2.88472	20
305	174.424	93	-2.34041e+06	14.3699	0.616303	1	2.88492	20
306	169.497	93	-2.34045e+06	14.361	0.620048	1	2.88569	20
307	174.285	93	-2.34043e+06	14.414	0.62031	1	2.88546	20
308	172.523	93	-2.34043e+06	14.4759	0.617306	1	2.88451	20
309	171.365	93	-2.34041e+06	14.4806	0.615958	1	2.8846	20
310	170.568	93	-2.34041e+06	14.4723	0.61548	1	2.88452	20
311	172.756	93	-2.34042e+06	14.4848	0.615782	1	2.88482	20
312	175.725	93	-2.34042e+06	14.4804	0.619105	1	2.88481	20
313	173.094	93	-2.34042e+06	14.4351	0.618407	1	2.88346	20
314	173.089	93	-2.34041e+06	14.444	0.615777	1	2.88392	20
315	169.857	93	-2.34042e+06	14.4648	0.611723	1	2.88383	20
316	165.987	93	-2.34042e+06	14.4452	0.609123	1	2.88463	20
317	170.505	93	-2.34042e+06	14.4232	0.613456	1	2.88431	20
318	170.508	93	-2.34042e+06	14.4697	0.615506	1	2.8843	20
319	172.11	93	-2.34041e+06	14.452	0.613661	1	2.88507	20
320	173.809	93	-2.34043e+06	14.4101	0.614161	1	2.88554	20
321	170.552	93	-2.34041e+06	14.4188	0.614161	1	2.88541	20
322	170.287	93	-2.34042e+06	14.3418	0.612754	1	2.88455	20
323	175.766	93	-2.34042e+06	14.3025	0.614721	1	2.88397	20
324	176.063	93	-2.34042e+06	14.3027	0.615263	1	2.88518	20
325	173.941	93	-2.34042e+06	14.3544	0.609562	1	2.88502	20
326	173.776	93	-2.34041e+06	14.3212	0.610611	1	2.88511	20
327	174.376	93	-2.34042e+06	14.344	0.609111	1	2.88493	20
328	160.341	93	-2.34041e+06	14.3333	0.61156	1	2.8855	20
329	167.483	93	-2.34043e+06	14.3479	0.615252	1	2.88379	20
330	176.037	93	-2.34042e+06	14.36	0.615194	1	2.88414	20
331	179.959	93	-2.34042e+06	14.4104	0.612425	1	2.8842	20
332	176.062	93	-2.34041e+06	14.3952	0.61156	1	2.88427	20
333	168.955	93	-2.34041e+06	14.4114	0.61388	1	2.88378	20
334	174.113	93	-2.34041e+06	14.386	0.61388	1	2.88483	20
335	179.179	93	-2.34042e+06	14.4166	0.61388	1	2.88418	20
336	180.319	93	-2.34041e+06	14.3716	0.61649	1	2.88362	20
337	174.962	93	-2.34043e+06	14.4053	0.618377	1	2.88363	20
338	172.857	93	-2.34044e+06	14.4419	0.620481	1	2.88397	20
339	171.651	93	-2.34044e+06	14.4398	0.620102	1	2.88408	20
340	175.853	93	-2.34043e+06	14.4694	0.618437	1	2.88468	20
341	179.147	93	-2.34044e+06	14.4316	0.614186	1	2.88485	20
342	170.596	93	-2.34043e+06	14.4268	0.613021	1	2.88427	20
343	173.396	93	-2.34043e+06	14.3986	0.613769	1	2.88432	20
344	173.721	93	-2.34041e+06	14.4652	0.615157	1	2.88481	20
345	166.415	93	-2.34041e+06	14.3991	0.614698	1	2.88485	20
346	175.654	93	-2.34041e+06	14.4038	0.613851	1	2.88482	20
347	172.251	93	-2.34042e+06	14.4424	0.611789	1	2.88501	20
348	179.107	93	-2.34042e+06	14.4287	0.615744	1	2.88518	20
349	174.5	93	-2.34043e+06	14.4034	0.615854	1	2.88484	20
350	178.175	93	-2.34042e+06	14.4583	0.612262	1	2.88566	20
351	175.221	93	-2.34042e+06	14.4724	0.61358	1	2.8851	20
352	176.211	93	-2.34041e+06	14.4602	0.615123	1	2.88565	20
353	172.059	93	-2.34041e+06	14.484	0.612108	1	2.88516	20
354	174.856	93	-2.34042e+06	14.4112	0.613874	1	2.88523	20
355	165.402	93	-2.34043e+06	14.415	0.614991	1	2.88547	20
356	174.937	93	-2.34041e+06	14.4081	0.612494	1	2.88416	20
357	174.174	93	-2.34042e+06	14.4837	0.616179	1	2.88469	20
358	177.231	93	-2.34043e+06	14.5067	0.615897	1	2.88512	20
359	172.122	93	-2.34044e+06	14.4611	0.616871	1	2.88516	20
360	172.271	93	-2.34043e+06	14.4425	0.613329	1	2.88528	20
361	172.544	93	-2.34042e+06	14.4359	0.613105	1	2.88521	20
362	169.906	93	-2.34042e+06	14.4401	0.614232	1	2.88455	20
363	180.455	94	-2.34041e+06	14.368	0.612693	1	2.88468	20
364	173.067	93	-2.34041e+06	14.3576	0.612119	1	2.88446	20
365	180.387	94	-2.34042e+06	14.3858	0.614132	1	2.88434	20
366	173.979	93	-2.34042e+06	14.4015	0.612682	1	2.88318	20
367	175.709	93	-2.34043e+06	14.3634	0.612682	1	2.88348	20
368	170.869	93	-2.34043e+06	14.4609	0.614347	1	2.884	20
369	174.274	93	-2.34043e+06	14.4564	0.614347	1	2.88448	20
370	175.211	93	-2.34042e+06	14.4044	0.61341	1	2.88474	20
371	176.256	93	-2.34042e+06	14.2997	0.613109	1	2.88464	20
372	178.495	93	-2.34043e+06	14.3438	0.612904	1	2.88421	20
373	176.573	93	-2.34042e+06	14.4016	0.612571	1	2.88449	20
374	175.072	93	-2.34042e+06	14.4407	0.613785	1	2.88474	20
375	179.651	93	-2.34041e+06	14.4765	0.612211	1	2.88494	20
376	178.488	93	-2.34042e+06	14.4619	0.613952	1	2.88465	20
377	173.073	93	-2.34043e+06	14.3962	0.613461	1	2.88545	20
378	173.24	93	-2.34041e+06	14.3784	0.612033	1	2.88516	20
379	171.134	93	-2.34042e+06	14.3176	0.610559	1	2.88521	20
380	174.319	93	-2.34043e+06	14.3367	0.615159	1	2.88529	20
381	173.251	93	-2.34042e+06	14.2929	0.613453	1	2.88468	20
382	177.724	93	-2.34042e+06	14.4922	0.610167	1	2.88464	20
383	173.632	93	-2.34042e+06	14.4757	0.611512	1	2.88457	20
384	176.321	93	-2.34041e+06	14.425	0.616737	1	2.88477	20
385	178.313	93	-2.34043e+06	14.503	0.613539	1	2.88433	20
386	177.424	93	-2.34044e+06	14.4463	0.614456	1	2.88383	20
387	174.767	93	-2.34043e+06	14.4333	0.614456	1	2.88445	20
388	175.774	93	-2.34043e+06	14.4766	0.616252	1	2.8843	20
389	175.362	93	-2.34043e+06	14.526	0.619226	1	2.88454	20
390	174.59	93	-2.34044e+06	14.4053	0.618379	1	2.88472	20
391	180.311	93	-2.34043e+06	14.429	0.619767	1	2.88528	20
392	177.336	93	-2.34041e+06	14.4277	0.619767	1	2.88517	20
393	173.084	93	-2.34044e+06	14.3932	0.616663	1	2.88429	20
394	178.194	93	-2.34044e+06	14.4271	0.615652	1	2.88403	20
395	173.607	93	-2.34043e+06	14.4034	0.615083	1	2.88507	20
396	177.642	93	-2.34043e+06	14.4934	0.615586	1	2.88307	20
397	177.87	93	-2.34042e+06	14.4682	0.618983	1	2.88396	20
398	175.305	93	-2.34042e+06	14.4062	0.61689	1	2.88482	20
399	182.466	93	-2.34043e+06	14.464	0.614805	1	2.88394	20
400	164.343	93	-2.34043e+06	14.4654	0.616601	1	2.88368	20
401	176.029	93	-2.34041e+06	14.4371	0.616828	1	2.88427	20
402	176.977	93	-2.3404e+06	14.4041	0.616714	1	2.88526	20
403	174.939	93	-2.34043e+06	14.46	0.610051	1	2.88493	20
404	173.795	93	-2.34041e+06	14.4452	0.613146	1	2.88402	20
405	169.267	93	-2.34042e+06	14.4296	0.612581	1	2.88481	20
406	167.858	93	-2.34042e+06	14.4059	0.613869	1	2.88444	20
407	173.188	93	-2.34043e+06	14.4428	0.611518	1	2.88456	20
408	175.235	93	-2.34044e+06	14.4665	0.614802	1	2.88504	20
409	175.865	93	-2.34041e+06	14.4504	0.614802	1	2.88497	20
410	176.952	93	-2.34042e+06	14.4099	0.611804	1	2.88379	20
411	177.457	93	-2.34042e+06	14.4395	0.614723	1	2.88406	20
412	167.43	93	-2.34042e+06	14.4015	0.613567	1	2.88427	20
413	178.278	93	-2.34043e+06	14.4083	0.612678	1	2.88501	20
414	173.292	93	-2.34044e+06	14.3727	0.613517	1	2.8854	20
415	183.316	94	-2.34044e+06	14.3955	0.616053	1	2.88541	20
416	176.783	93	-2.34043e+06	14.3842	0.616053	1	2.88561	20
417	178.489	93	-2.34042e+06	14.427	0.618943	1	2.88572	20
418	183.351	94	-2.34042e+06	14.3536	0.617873	1	2.88535	20
419	183.604	94	-2.34041e+06	14.5062	0.617635	1	2.88437	20
420	178.217	93	-2.34042e+06	14.4704	0.611614	1	2.88526	20
421	178.515	93	-2.34042e+06	14.4466	0.611877	1	2.8842	20
422	169.283	93	-2.34043e+06	14.5	0.613017	1	2.88436	20
423	177.901	93	-2.34043e+06	14.4555	0.615246	1	2.8851	20
424	175.515	93	-2.34042e+06	14.503	0.613249	1	2.88518	20
425	178.95	94	-2.34041e+06	14.3898	0.615695	1	2.88537	20
426	169.589	93	-2.34043e+06	14.3754	0.615454	1	2.88602	20
427	172.468	93	-2.34041e+06	14.35	0.614629	1	2.88548	20
428	173.73	93	-2.34042e+06	14.3982	0.614453	1	2.88481	20
429	166.463	93	-2.34041e+06	14.3599	0.614709	1	2.88481	20
430	179.169	93	-2.34042e+06	14.3656	0.61456	1	2.88534	20
431	174.201	93	-2.34044e+06	14.396	0.615442	1	2.88463	20
432	177.65	93	-2.34043e+06	14.4607	0.611959	1	2.88556	20
433	175.268	93	-2.34042e+06	14.4615	0.612856	1	2.88495	20
434	174.006	93	-2.34042e+06	14.3883	0.612625	1	2.88476	20
435	172.875	93	-2.34043e+06	14.4222	0.610745	1	2.88419	20
436	172.066	93	-2.34044e+06	14.4312	0.611512	1	2.88459	20
437	166.902	93	-2.34042e+06	14.4009	0.612535	1	2.8844	20
438	177.338	93	-2.34043e+06	14.4089	0.608932	1	2.88455	20
439	175.108	93	-2.34043e+06	14.3958	0.607803	1	2.88438	20
440	174.642	93	-2.34044e+06	14.3637	0.608226	1	2.88402	20
441	177.572	93	-2.34044e+06	14.3603	0.609547	1	2.88398	20
442	179.646	93	-2.34042e+06	14.3658	0.610506	1	2.88446	20
443	178.899	93	-2.34043e+06	14.4143	0.610497	1	2.88493	20
444	174.068	93	-2.34042e+06	14.3908	0.61159	1	2.88467	20
445	197.076	83	-2.34042e+06	14.4384	0.616454	1	2.88457	20
446	174.57	93	-2.34043e+06	14.4473	0.618945	1	2.88494	20
447	170.968	93	-2.34043e+06	14.4881	0.620315	1	2.88502	20
448	175.924	93	-2.34043e+06	14.4113	0.619215	1	2.88526	20
449	176.243	93	-2.34042e+06	14.4601	0.615445	1	2.88532	20
450	176.84	93	-2.34043e+06	14.5242	0.61317	1	2.88494	20
451	169.7	93	-2.34042e+06	14.506	0.612262	1	2.88489	20
452	182.273	94	-2.34042e+06	14.4516	0.612864	1	2.88518	20
453	178.63	93	-2.34043e+06	14.448	0.613456	1	2.88488	20
454	171.323	93	-2.34042e+06	14.4669	0.612993	1	2.88545	20
455	171.376	93	-2.34043e+06	14.5375	0.612075	1	2.884	20
456	169.749	93	-2.34043e+06	14.5809	0.616492	1	2.88454	20
457	167.839	93	-2.34043e+06	14.5519	0.616492	1	2.88491	20
458	172.125	93	-2.34041e+06	14.5072	0.616403	1	2.88505	20
459	171.927	93	-2.34042e+06	14.4917	0.617188	1	2.88437	20
460	173.051	93	-2.34041e+06	14.4601	0.612916	1	2.88441	20
461	173.77	93	-2.34043e+06	14.4538	0.613138	1	2.88426	20
462	171.332	93	-2.34044e+06	14.4547	0.615843	1	2.88492	20
463	171.874	93	-2.34044e+06	14.3952	0.614258	1	2.88539	20
464	171.663	93	-2.34042e+06	14.4537	0.613885	1	2.8846	20
465	179.922	93	-2.34043e+06	14.4071	0.611101	1	2.88466	20
466	173.233	93	-2.34042e+06	14.5159	0.614051	1	2.88461	20
467	172.539	93	-2.34043e+06	14.459	0.615169	1	2.88552	20
468	176.918	93	-2.34045e+06	14.437	0.615169	1	2.88572	20
469	171.06	93	-2.34042e+06	14.4237	0.617278	1	2.88471	20
470	166.711	93	-2.34042e+06	14.4906	0.617821	1	2.88527	20
471	169.934	93	-2.34042e+06	14.4479	0.615663	1	2.88545	20
472	173.453	93	-2.34042e+06	14.464	0.614101	1	2.88555	20
473	170.576	93	-2.34042e+06	14.4329	0.615412	1	2.88581	20
474	174.96	93	-2.34042e+06	14.4411	0.613867	1	2.8857	20
475	172.124	93	-2.34042e+06	14.429	0.615199	1	2.88594	20
476	171.509	93	-2.34042e+06	14.4205	0.613886	1	2.88551	20
477	173.513	93	-2.34042e+06	14.4319	0.612432	1	2.88547	20
478	172.563	93	-2.34042e+06	14.4301	0.612457	1	2.88551	20
479	173.687	93	-2.34042e+06	14.396	0.614651	1	2.88472	20
480	168.59	93	-2.34042e+06	14.4126	0.614971	1	2.88421	20
481	177.885	93	-2.34042e+06	14.4353	0.617552	1	2.88477	20
482	178.65	93	-2.34042e+06	14.4463	0.617394	1	2.88405	20
483	173.503	93	-2.34044e+06	14.3887	0.615276	1	2.88421	20
484	176.238	93	-2.34043e+06	14.3469	0.616175	1	2.88418	20
485	179.118	93	-2.34042e+06	14.3721	0.617016	1	2.88483	20
486	192.082	94	-2.34042e+06	14.4019	0.616983	1	2.88474	20
487	193.238	94	-2.34044e+06	14.4769	0.615819	1	2.88494	20
488	190.822	94	-2.34041e+06	14.4392	0.617733	1	2.88491	20
489	192.679	94	-2.34042e+06	14.4242	0.617637	1	2.8846	20
490	190.45	94	-2.34042e+06	14.4383	0.615222	1	2.88382	20
491	192.942	94	-2.34042e+06	14.4608	0.611292	1	2.8837	20
492	186.485	94	-2.34042e+06	14.4247	0.61493	1	2.88544	20
493	192.099	94	-2.34043e+06	14.4007	0.616977	1	2.887	20
494	193.805	94	-2.34042e+06	14.369	0.615761	1	2.88694	20
495	192.783	94	-2.34042e+06	14.3324	0.614269	1	2.88666	20
496	183.419	94	-2.34042e+06	14.3195	0.613978	1	2.88679	20
497	186.838	94	-2.34043e+06	14.4067	0.613978	1	2.88544	20
498	193.06	94	-2.34042e+06	14.4151	0.615004	1	2.88546	20
499	190.137	94	-2.34043e+06	14.3894	0.616764	1	2.88628	20
500	186.064	94	-2.34044e+06	14.4483	0.615464	1	2.88615	20
501	192.905	94	-2.34041e+06	14.466	0.61371	1	2.88509	20
502	190.834	94	-2.34041e+06	14.4226	0.613455	1	2.88489	20
503	189.913	94	-2.34043e+06	14.3771	0.611343	1	2.88424	20
504	185.534	94	-2.34043e+06	14.3293	0.613518	1	2.88466	20
505	186.38	94	-2.34042e+06	14.3925	0.612287	1	2.88422	20
506	185.358	94	-2.34041e+06	14.4056	0.61415	1	2.88403	20
507	188.464	94	-2.34041e+06	14.4842	0.613856	1	2.88353	20
508	185.677	94	-2.34043e+06	14.4759	0.613587	1	2.88366	20
509	185.346	94	-2.34041e+06	14.5197	0.612471	1	2.88386	20
510	184.952	94	-2.34042e+06	14.5257	0.61384	1	2.88372	20
511	185.047	94	-2.34041e+06	14.5594	0.61413	1	2.88358	20
512	186.563	94	-2.34041e+06	14.4986	0.614707	1	2.88359	20
513	182.933	94	-2.34042e+06	14.447	0.613954	1	2.88376	20
514	190.973	94	-2.34042e+06	14.4582	0.613304	1	2.88399	20
515	188.37	94	-2.34042e+06	14.4644	0.618527	1	2.88391	20
516	184.015	94	-2.34042e+06	14.4363	0.614145	1	2.88439	20
517	171.048	93	-2.34042e+06	14.3975	0.612603	1	2.8836	20
518	169.135	93	-2.34042e+06	14.3776	0.613181	1	2.88337	20
519	167.951	93	-2.3404e+06	14.4515	0.616659	1	2.88392	20
520	169.366	93	-2.34043e+06	14.5506	0.617344	1	2.88422	20
521	167.333	93	-2.34045e+06	14.5812	0.614551	1	2.88377	20
522	167.91	93	-2.34043e+06	14.5007	0.615446	1	2.88455	20
523	171.028	93	-2.34042e+06	14.4337	0.614037	1	2.88384	20
524	187.414	94	-2.34043e+06	14.4101	0.612826	1	2.8841	20
525	183.714	94	-2.34043e+06	14.5399	0.614858	1	2.88396	20
526	184.056	94	-2.34042e+06	14.5163	0.617451	1	2.88377	20
527	186.454	94	-2.34043e+06	14.4986	0.617158	1	2.88389	20
528	177.525	93	-2.34045e+06	14.5298	0.615529	1	2.88403	20
529	177.014	93	-2.34042e+06	14.5545	0.61712	1	2.88362	20
530	176.534	93	-2.34041e+06	14.5331	0.616714	1	2.88513	20
531	174.159	93	-2.34041e+06	14.4169	0.616711	1	2.88553	20
532	173.278	93	-2.34041e+06	14.4276	0.617026	1	2.88448	20
533	173.582	93	-2.34041e+06	14.493	0.615165	1	2.88437	20
534	168.606	93	-2.34042e+06	14.5072	0.615471	1	2.88449	20
535	168.868	93	-2.34043e+06	14.4777	0.614317	1	2.88467	20
536	175.21	93	-2.34043e+06	14.4963	0.613525	1	2.8854	20
537	168.376	93	-2.34044e+06	14.4767	0.613109	1	2.88504	20
538	173.568	93	-2.34043e+06	14.514	0.615562	1	2.88597	20
539	174.311	93	-2.34042e+06	14.4511	0.614348	1	2.8854	20
540	182.193	94	-2.34043e+06	14.4262	0.615718	1	2.88501	20
541	181.372	94	-2.34042e+06	14.4293	0.617813	1	2.88455	20
542	183.451	94	-2.34042e+06	14.5283	0.616288	1	2.88492	20
543	180.268	94	-2.34042e+06	14.4634	0.61919	1	2.88438	20
544	178.116	93	-2.34042e+06	14.4471	0.618257	1	2.88462	20
545	177.336	93	-2.34041e+06	14.4495	0.614304	1	2.88479	20
546	179.841	94	-2.34041e+06	14.4975	0.616396	1	2.88452	20
547	182.329	94	-2.34042e+06	14.5102	0.614681	1	2.88469	20
548	182.982	94	-2.34042e+06	14.5239	0.616972	1	2.88419	20
549	185.057	94	-2.34045e+06	14.372	0.614896	1	2.88449	20
550	167.569	93	-2.34043e+06	14.3813	0.614798	1	2.88441	20
551	165.854	93	-2.34042e+06	14.3417	0.614159	1	2.88478	20
552	178.587	94	-2.34043e+06	14.3396	0.610582	1	2.88444	20
553	171.88	93	-2.34043e+06	14.3904	0.612491	1	2.8843	20
554	168.965	93	-2.34042e+06	14.384	0.610087	1	2.88474	20
555	172.261	93	-2.34041e+06	14.3548	0.612029	1	2.88449	20
556	170.883	93	-2.34041e+06	14.4239	0.61221	1	2.88523	20
557	171.527	93	-2.34043e+06	14.4303	0.614132	1	2.88468	20
558	172.312	93	-2.34042e+06	14.4073	0.612633	1	2.8846	20
559	172.682	93	-2.34043e+06	14.4006	0.612494	1	2.88471	20
560	172.656	93	-2.34043e+06	14.4352	0.617171	1	2.88482	20
561	184.7	93	-2.34042e+06	14.4475	0.61395	1	2.88461	20
562	176.402	93	-2.34042e+06	14.435	0.61649	1	2.885	20
563	175.935	93	-2.34042e+06	14.4385	0.617144	1	2.88499	20
564	175.649	93	-2.34043e+06	14.4177	0.616265	1	2.88476	20
565	165.131	93	-2.34043e+06	14.4294	0.616265	1	2.88469	20
566	174.092	93	-2.34042e+06	14.4037	0.615449	1	2.88414	20
567	174.37	93	-2.34043e+06	14.3875	0.611914	1	2.88421	20
568	175.508	93	-2.34042e+06	14.4355	0.611619	1	2.88473	20
569	174.819	93	-2.34041e+06	14.4414	0.612486	1	2.88472	20
570	173.188	93	-2.34042e+06	14.4662	0.611248	1	2.8853	20
571	175.63	93	-2.34042e+06	14.3526	0.613886	1	2.88482	20
572	170.916	93	-2.34042e+06	14.3568	0.613932	1	2.88475	20
573	176.921	93	-2.34043e+06	14.3623	0.61831	1	2.88397	20
574	176.838	93	-2.34042e+06	14.3605	0.614757	1	2.88454	20
575	176.348	93	-2.34042e+06	14.4314	0.617513	1	2.88517	20
576	164.789	93	-2.34042e+06	14.4403	0.611955	1	2.88503	20
577	178.366	93	-2.34042e+06	14.4055	0.614718	1	2.88512	20
578	178.487	93	-2.34043e+06	14.3761	0.613464	1	2.88551	20
579	174.454	93	-2.34041e+06	14.4583	0.611373	1	2.88494	20
580	178.115	93	-2.34041e+06	14.3782	0.614299	1	2.88499	20
581	167.303	93	-2.3404e+06	14.3894	0.615838	1	2.8844	20
582	167.779	93	-2.34041e+06	14.3539	0.614959	1	2.88435	20
583	176.465	93	-2.34042e+06	14.3629	0.615964	1	2.88432	20
584	173.215	93	-2.34042e+06	14.3767	0.615118	1	2.88532	20
585	173.285	93	-2.34043e+06	14.4157	0.615832	1	2.88421	20
586	173.597	93	-2.34042e+06	14.4784	0.616476	1	2.88371	20
587	173.22	93	-2.34043e+06	14.5317	0.615862	1	2.88352	20
588	172.08	93	-2.34043e+06	14.541	0.614122	1	2.88438	20
589	181.468	94	-2.34045e+06	14.4579	0.612818	1	2.88456	20
590	175.682	93	-2.34043e+06	14.4914	0.615186	1	2.88447	20
591	177.589	93	-2.34041e+06	14.4959	0.617306	1	2.88548	20
592	176.381	93	-2.34042e+06	14.4502	0.617741	1	2.88548	20
593	178.043	93	-2.34041e+06	14.4671	0.616811	1	2.88537	20
594	180.824	94	-2.34043e+06	14.5315	0.61732	1	2.88583	20
595	173.941	93	-2.34043e+06	14.5894	0.618237	1	2.88553	20
596	174.637	93	-2.34041e+06	14.5206	0.616683	1	2.88527	20
597	181.667	93	-2.34043e+06	14.4922	0.614227	1	2.88558	20
598	183.139	90	-2.34042e+06	14.5095	0.613571	1	2.88604	20
599	174.909	93	-2.34042e+06	14.4547	0.614994	1	2.88554	20
600	177.733	93	-2.34042e+06	14.4174	0.615477	1	2.88573	20
601	177.859	93	-2.34043e+06	14.4864	0.616349	1	2.88542	20
602	176.295	93	-2.34042e+06	14.4896	0.619586	1	2.88551	20
603	180.689	93	-2.34044e+06	14.5361	0.619753	1	2.88555	20
604	177.811	93	-2.34044e+06	14.5648	0.616359	1	2.88524	20
605	175.888	93	-2.34043e+06	14.5059	0.614384	1	2.88436	20
606	170.669	93	-2.34041e+06	14.4441	0.615179	1	2.88434	20
607	181	93	-2.34043e+06	14.4515	0.614497	1	2.88413	20
608	176.31	93	-2.34043e+06	14.4411	0.612856	1	2.88336	20
609	177.497	93	-2.34042e+06	14.5157	0.609453	1	2.88352	20
610	178.403	93	-2.34043e+06	14.5226	0.613232	1	2.88389	20
611	165.743	93	-2.34043e+06	14.5003	0.61184	1	2.88455	20
612	177.709	93	-2.34045e+06	14.4473	0.613667	1	2.88345	20
613	174.265	93	-2.34041e+06	14.3801	0.61263	1	2.88629	20
614	180.293	93	-2.34041e+06	14.4062	0.61263	1	2.88578	20
615	177.777	93	-2.34043e+06	14.4045	0.614362	1	2.88505	20
616	178.573	93	-2.34043e+06	14.3418	0.614592	1	2.88459	20
617	176.303	93	-2.34043e+06	14.3299	0.613873	1	2.88382	20
618	179.971	93	-2.34042e+06	14.3957	0.613873	1	2.88372	20
619	178.113	93	-2.34044e+06	14.4198	0.614916	1	2.88273	20
620	172.192	93	-2.34044e+06	14.3789	0.615533	1	2.88393	20
621	184.198	94	-2.34044e+06	14.4186	0.618073	1	2.88388	20
622	177.728	93	-2.34043e+06	14.3801	0.618399	1	2.88412	20
623	177.198	93	-2.34043e+06	14.3407	0.61792	1	2.88405	20
624	168.47	93	-2.34042e+06	14.3639	0.615103	1	2.88405	20
625	175.958	93	-2.34042e+06	14.435	0.610783	1	2.88416	20
626	176.805	93	-2.34042e+06	14.3634	0.610917	1	2.88505	20
627	174.145	93	-2.34041e+06	14.3161	0.613827	1	2.88454	20
628	178.072	93	-2.34043e+06	14.3794	0.614506	1	2.88505	20
629	179.871	93	-2.3404e+06	14.3423	0.612853	1	2.88573	20
630	177.621	93	-2.34043e+06	14.4122	0.614213	1	2.88472	20
631	172.104	93	-2.34041e+06	14.3459	0.615348	1	2.88449	20
632	176.552	93	-2.34044e+06	14.4299	0.618601	1	2.88404	20
633	174.56	93	-2.34044e+06	14.4271	0.616669	1	2.88357	20
634	177.818	93	-2.34044e+06	14.379	0.612917	1	2.8839	20
635	176.538	93	-2.34043e+06	14.419	0.614313	1	2.88475	20
636	176.203	93	-2.34042e+06	14.3957	0.611649	1	2.88444	20
637	177.506	93	-2.34045e+06	14.3835	0.61535	1	2.88519	20
638	174.671	93	-2.34044e+06	14.4041	0.6137	1	2.88564	20
639	177.937	93	-2.34043e+06	14.4026	0.613638	1	2.88488	20
640	176.019	93	-2.34041e+06	14.3494	0.614073	1	2.88529	20
641	170.644	93	-2.34041e+06	14.396	0.613526	1	2.88519	20
642	173.341	93	-2.34043e+06	14.3755	0.614578	1	2.88561	20
643	178.889	93	-2.34043e+06	14.3843	0.616247	1	2.88501	20
644	181.143	93	-2.34044e+06	14.4388	0.611724	1	2.88486	20
645	195.836	85	-2.34043e+06	14.4269	0.613024	1	2.88417	20
646	179.647	93	-2.34042e+06	14.4901	0.615527	1	2.88458	20
647	177.415	93	-2.34041e+06	14.478	0.612953	1	2.88461	20
648	177.983	93	-2.34044e+06	14.4778	0.618654	1	2.88458	20
649	178.941	93	-2.34044e+06	14.4291	0.618265	1	2.8848	20
650	178.375	93	-2.34044e+06	14.4733	0.613912	1	2.88573	20
651	173.963	93	-2.34042e+06	14.4723	0.613387	1	2.88559	20
652	178.759	93	-2.34043e+06	14.4793	0.613387	1	2.88382	20
653	174.384	93	-2.34042e+06	14.4959	0.616652	1	2.88436	20
654	181.78	93	-2.34043e+06	14.4145	0.615483	1	2.88397	20
655	179.973	93	-2.34042e+06	14.4176	0.614209	1	2.88338	20
656	180.014	93	-2.34044e+06	14.4006	0.613981	1	2.88333	20
657	177.544	93	-2.34043e+06	14.4457	0.61882	1	2.88333	20
658	182.015	93	-2.34044e+06	14.4593	0.617479	1	2.88387	20
659	173	93	-2.34044e+06	14.4314	0.617479	1	2.88328	20
660	179.179	93	-2.34042e+06	14.3812	0.61522	1	2.88422	20
661	183.725	93	-2.34042e+06	14.4361	0.617197	1	2.88364	20
662	179.2	93	-2.34042e+06	14.4975	0.617495	1	2.88401	20
663	182.192	94	-2.34044e+06	14.4265	0.618112	1	2.88344	20
664	177.314	93	-2.34043e+06	14.4307	0.618112	1	2.88395	20
665	177.222	93	-2.34043e+06	14.415	0.615677	1	2.88437	20
666	179.239	93	-2.34043e+06	14.4279	0.619602	1	2.88418	20
667	176.592	93	-2.34043e+06	14.4797	0.617432	1	2.88427	20
668	172.895	93	-2.34043e+06	14.5043	0.61881	1	2.88435	20
669	171.973	93	-2.34043e+06	14.5662	0.617561	1	2.88441	20
670	171.592	93	-2.34043e+06	14.5369	0.616609	1	2.88462	20
671	174.104	93	-2.34042e+06	14.4975	0.616633	1	2.88464	20
672	172.369	93	-2.34044e+06	14.5201	0.617709	1	2.88516	20
673	172.638	93	-2.34043e+06	14.498	0.615725	1	2.88429	20
674	171.057	93	-2.34043e+06	14.4922	0.615725	1	2.88425	20
675	178.036	94	-2.34042e+06	14.4926	0.616685	1	2.88456	20
676	171.003	93	-2.34043e+06	14.5413	0.615627	1	2.88439	20
677	180.779	93	-2.34042e+06	14.4653	0.617421	1	2.88417	20
678	172.117	93	-2.34041e+06	14.4877	0.615166	1	2.88492	20
679	167.245	93	-2.34042e+06	14.4347	0.615116	1	2.88496	20
680	170.554	93	-2.34043e+06	14.4948	0.614291	1	2.88396	20
681	181.934	94	-2.34044e+06	14.4656	0.614213	1	2.8853	20
682	173.25	93	-2.34043e+06	14.4961	0.61221	1	2.88565	20
683	178.8	93	-2.34043e+06	14.4162	0.613462	1	2.88527	20
684	179.968	93	-2.34042e+06	14.4715	0.613908	1	2.8849	20
685	174.68	93	-2.34042e+06	14.5438	0.613893	1	2.88476	20
686	177.673	93	-2.34042e+06	14.5744	0.615177	1	2.88473	20
687	174.173	93	-2.34042e+06	14.5694	0.615254	1	2.88443	20
688	172.784	93	-2.34042e+06	14.5227	0.616698	1	2.88437	20
689	181.814	93	-2.34043e+06	14.4979	0.615389	1	2.88424	20
690	178.149	93	-2.34042e+06	14.4554	0.614121	1	2.88408	20
691	180.393	93	-2.34042e+06	14.5065	0.614121	1	2.88372	20
692	181.162	93	-2.34043e+06	14.5119	0.615982	1	2.88438	20
693	183.819	94	-2.34043e+06	14.5389	0.615982	1	2.88474	20
694	176.575	93	-2.34043e+06	14.5052	0.617018	1	2.88492	20
695	180.119	93	-2.34042e+06	14.5063	0.615567	1	2.88471	20
696	179.618	93	-2.34043e+06	14.5579	0.618812	1	2.88447	20
697	179.077	93	-2.34043e+06	14.4913	0.619753	1	2.88437	20
698	183.413	94	-2.34042e+06	14.5197	0.618181	1	2.885	20
699	178.071	93	-2.34045e+06	14.498	0.615598	1	2.88426	20
700	183.709	93	-2.34041e+06	14.5393	0.615984	1	2.88494	20
701	183.722	94	-2.34043e+06	14.5427	0.61487	1	2.88497	20
702	174.257	93	-2.34044e+06	14.5026	0.614053	1	2.88514	20
703	177.796	93	-2.34043e+06	14.5392	0.614219	1	2.88483	20
704	175.68	93	-2.34042e+06	14.5777	0.614219	1	2.88379	20
705	179.908	93	-2.34042e+06	14.5321	0.613434	1	2.88376	20
706	174.313	93	-2.34042e+06	14.5192	0.61171	1	2.88399	20
707	172.417	93	-2.34042e+06	14.5614	0.61065	1	2.88365	20
708	180.102	93	-2.34042e+06	14.4322	0.612349	1	2.88388	20
709	167.664	93	-2.34042e+06	14.3863	0.612349	1	2.88475	20
710	174.678	93	-2.34042e+06	14.3898	0.613687	1	2.88492	20
711	174.938	93	-2.34043e+06	14.4677	0.614312	1	2.88478	20
712	175.949	93	-2.34043e+06	14.4922	0.615964	1	2.88431	20
713	178.6	93	-2.34043e+06	14.5174	0.614155	1	2.88389	20
714	178.329	93	-2.34044e+06	14.459	0.611121	1	2.8856	20
715	171.902	93	-2.34041e+06	14.5391	0.615234	1	2.885	20
716	183.76	93	-2.34042e+06	14.4871	0.613239	1	2.88494	20
717	175.918	93	-2.34042e+06	14.4624	0.615925	1	2.88481	20
718	168.705	93	-2.34043e+06	14.4065	0.617929	1	2.88475	20
719	176.568	93	-2.34042e+06	14.3796	0.617738	1	2.8847	20
720	179.565	93	-2.34042e+06	14.4064	0.617496	1	2.88441	20
721	172.068	93	-2.34041e+06	14.4201	0.61581	1	2.88527	20
722	169.495	93	-2.34042e+06	14.4225	0.618394	1	2.88535	20
723	178.679	93	-2.34043e+06	14.3126	0.618616	1	2.88581	20
724	176.998	93	-2.34042e+06	14.312	0.616715	1	2.88609	20
725	170.107	93	-2.34043e+06	14.3334	0.615642	1	2.88608	20
726	166.341	93	-2.34042e+06	14.4026	0.615497	1	2.88461	20
727	177.877	93	-2.34044e+06	14.4134	0.616126	1	2.88409	20
728	175.241	93	-2.34042e+06	14.3622	0.616148	1	2.88514	20
729	174.646	93	-2.34042e+06	14.3833	0.614404	1	2.88561	20
730	182.532	93	-2.34041e+06	14.3953	0.615953	1	2.88507	20
731	173.815	93	-2.34041e+06	14.4248	0.614552	1	2.88533	20
732	179.315	93	-2.34041e+06	14.4915	0.615173	1	2.88471	20
733	177.389	93	-2.34041e+06	14.4645	0.617265	1	2.88509	20
734	175.378	93	-2.34042e+06	14.462	0.61369	1	2.88403	20
735	173.519	93	-2.34043e+06	14.5106	0.612016	1	2.88393	20
736	171.258	93	-2.34042e+06	14.5321	0.617194	1	2.8845	20
737	164.92	93	-2.34044e+06	14.4969	0.620257	1	2.8838	20
738	165.718	93	-2.34042e+06	14.5191	0.619274	1	2.88365	20
739	174.886	93	-2.34042e+06	14.4463	0.621192	1	2.88436	20
740	172.641	93	-2.34041e+06	14.4523	0.619187	1	2.88403	20
741	168.665	93	-2.34042e+06	14.4666	0.615675	1	2.88463	20
742	173.53	93	-2.34042e+06	14.4419	0.61397	1	2.88461	20
743	174.67	93	-2.34042e+06	14.4304	0.616034	1	2.88415	20
744	169.768	93	-2.34041e+06	14.4313	0.618552	1	2.88437	20
745	173.055	93	-2.34041e+06	14.3635	0.616609	1	2.88501	20
746	176.499	93	-2.34043e+06	14.368	0.613802	1	2.88522	20
747	174.028	93	-2.34043e+06	14.3777	0.615127	1	2.88528	20
748	177.24	93	-2.34043e+06	14.4051	0.614584	1	2.88503	20
749	172.332	93	-2.34042e+06	14.4541	0.615185	1	2.88543	20
750	174.201	93	-2.34041e+06	14.387	0.615841	1	2.88522	20
751	175.093	93	-2.34042e+06	14.3811	0.614665	1	2.8847	20
752	173.897	93	-2.34042e+06	14.3985	0.615506	1	2.88514	20
753	173.785	93	-2.34043e+06	14.3763	0.618006	1	2.88509	20
754	181.065	93	-2.34042e+06	14.3986	0.620542	1	2.88497	20
755	177.631	93	-2.34043e+06	14.4223	0.620052	1	2.88454	20
756	174.212	93	-2.34043e+06	14.4054	0.617218	1	2.8854	20
757	174.866	93	-2.34044e+06	14.4196	0.617044	1	2.88474	20
758	174.599	93	-2.34043e+06	14.4437	0.616197	1	2.88459	20
759	171.858	93	-2.34043e+06	14.4356	0.615188	1	2.88486	20
760	176.846	93	-2.34043e+06	14.4507	0.61337	1	2.88439	20
761	170.448	93	-2.34044e+06	14.3637	0.613561	1	2.8847	20
762	171.208	93	-2.34044e+06	14.4067	0.612705	1	2.88353	20
763	174.033	93	-2.34044e+06	14.4048	0.613123	1	2.88343	20
764	177.839	93	-2.34044e+06	14.4585	0.615421	1	2.88419	20
765	174.83	93	-2.34043e+06	14.4073	0.615618	1	2.88403	20
766	175.244	93	-2.34043e+06	14.4003	0.619758	1	2.88498	20
767	174.598	93	-2.34043e+06	14.5131	0.616937	1	2.88457	20
768	172.979	93	-2.34042e+06	14.4738	0.614826	1	2.88459	20
769	178.651	93	-2.34043e+06	14.4543	0.613514	1	2.88398	20
770	169.36	93	-2.34042e+06	14.5095	0.610527	1	2.88444	20
771	181.263	93	-2.34042e+06	14.5405	0.611791	1	2.88462	20
772	181.821	93	-2.34042e+06	14.4467	0.611713	1	2.8848	20
773	174.816	93	-2.34042e+06	14.5333	0.614191	1	2.88453	20
774	177.265	93	-2.34043e+06	14.5513	0.613354	1	2.88481	20
775	172.701	93	-2.34043e+06	14.5291	0.612616	1	2.88389	20
776	176.064	93	-2.34043e+06	14.5628	0.613136	1	2.8847	20
777	190.891	88	-2.34042e+06	14.6459	0.610004	1	2.88384	20
778	176.957	93	-2.34042e+06	14.55	0.610834	1	2.88367	20
779	171.763	93	-2.34042e+06	14.5778	0.614461	1	2.88434	20
780	175.855	93	-2.34042e+06	14.576	0.612998	1	2.88364	20
781	178.485	93	-2.34042e+06	14.5136	0.617856	1	2.8839	20
782	180.53	93	-2.34043e+06	14.5315	0.616435	1	2.88474	20
783	174.521	93	-2.34043e+06	14.5077	0.614063	1	2.88409	20
784	172.855	93	-2.34043e+06	14.4734	0.614269	1	2.88467	20
785	172.385	93	-2.34042e+06	14.543	0.612054	1	2.88459	20
786	174.141	93	-2.34043e+06	14.3847	0.611273	1	2.88516	20
787	175.269	93	-2.34042e+06	14.4502	0.60856	1	2.88552	20
788	173.174	93	-2.34044e+06	14.3977	0.611739	1	2.88544	20
789	175.553	93	-2.34042e+06	14.4096	0.609386	1	2.88551	20
790	175.383	93	-2.34043e+06	14.334	0.611935	1	2.88503	20
791	176.15	93	-2.34043e+06	14.3854	0.615574	1	2.88506	20
792	170.053	93	-2.34041e+06	14.3929	0.617524	1	2.88572	20
793	182.398	94	-2.34042e+06	14.4486	0.616252	1	2.88495	20
794	177.844	93	-2.34042e+06	14.4288	0.614927	1	2.88512	20
795	172.103	93	-2.34042e+06	14.4075	0.615225	1	2.88609	20
796	171.527	93	-2.34042e+06	14.4239	0.6175	1	2.88584	20
797	171.259	93	-2.34042e+06	14.4169	0.617953	1	2.88478	20
798	172.966	93	-2.34041e+06	14.3769	0.615702	1	2.88463	20
799	173.095	93	-2.34042e+06	14.3723	0.614957	1	2.8857	20
800	176.664	93	-2.34045e+06	14.4209	0.613219	1	2.88664	20
801	173.671	93	-2.34042e+06	14.4006	0.612907	1	2.88593	20
802	171.659	93	-2.34042e+06	14.3822	0.613233	1	2.88386	20
803	184.503	94	-2.34044e+06	14.3948	0.614028	1	2.88436	20
804	174.498	93	-2.34043e+06	14.4249	0.616112	1	2.88454	20
805	173.603	93	-2.34043e+06	14.5026	0.614992	1	2.88435	20
806	175.722	93	-2.34041e+06	14.4811	0.619161	1	2.88458	20
807	175.999	93	-2.34043e+06	14.4455	0.616395	1	2.88497	20
808	174.243	93	-2.34042e+06	14.3671	0.617158	1	2.88385	20
809	175.492	93	-2.34044e+06	14.4234	0.619042	1	2.88382	20
810	176.306	93	-2.34043e+06	14.4605	0.61727	1	2.884	20
811	173.699	93	-2.34043e+06	14.4173	0.616154	1	2.88399	20
812	174.87	93	-2.34043e+06	14.4067	0.6142	1	2.88406	20
813	168.807	93	-2.34042e+06	14.4047	0.615382	1	2.88388	20
814	183.059	94	-2.34043e+06	14.3845	0.613854	1	2.88437	20
815	177.198	93	-2.34042e+06	14.4311	0.614636	1	2.88403	20
816	172.907	93	-2.34042e+06	14.419	0.612923	1	2.8849	20
817	171.333	93	-2.34044e+06	14.4115	0.613285	1	2.88484	20
818	174.235	93	-2.34041e+06	14.3994	0.613285	1	2.88385	20
819	173.564	93	-2.34041e+06	14.4226	0.613678	1	2.88385	20
820	173.091	93	-2.34043e+06	14.3812	0.618282	1	2.88467	20
821	173.219	93	-2.34041e+06	14.3612	0.617399	1	2.88425	20
822	175.545	93	-2.34041e+06	14.4276	0.615932	1	2.88452	20
823	174.721	93	-2.34044e+06	14.5105	0.615134	1	2.88391	20
824	174.782	93	-2.34044e+06	14.5418	0.614166	1	2.88476	20
825	172.299	93	-2.34043e+06	14.56	0.616166	1	2.88374	20
826	167.578	93	-2.34044e+06	14.5692	0.61298	1	2.88316	20
827	178.479	93	-2.34043e+06	14.5352	0.613115	1	2.88282	20
828	178.118	93	-2.34042e+06	14.4674	0.612833	1	2.88359	20
829	176.96	93	-2.34042e+06	14.447	0.612424	1	2.88405	20
830	171.497	93	-2.34041e+06	14.3875	0.6136	1	2.88446	20
831	176.873	93	-2.34041e+06	14.3613	0.615881	1	2.88525	20
832	178.164	93	-2.34043e+06	14.3631	0.614771	1	2.88525	20
833	177.009	93	-2.34043e+06	14.3442	0.615871	1	2.88436	20
834	176.973	93	-2.34043e+06	14.4206	0.615938	1	2.88384	20
835	182.833	91	-2.34042e+06	14.3877	0.610812	1	2.88332	20
836	176.181	93	-2.34041e+06	14.3603	0.611188	1	2.88428	20
837	173.838	93	-2.34043e+06	14.4034	0.614337	1	2.88443	20
838	177.506	93	-2.34042e+06	14.4358	0.613073	1	2.88472	20
839	175.635	93	-2.34042e+06	14.4721	0.614053	1	2.88401	20
840	183.407	94	-2.34042e+06	14.4868	0.614991	1	2.88437	20
841	173.787	93	-2.34043e+06	14.4668	0.615134	1	2.88445	20
842	178.71	93	-2.34042e+06	14.4485	0.616878	1	2.88519	20
843	182.819	93	-2.34042e+06	14.4483	0.615406	1	2.88504	20
844	173.982	93	-2.34042e+06	14.4585	0.614595	1	2.88463	20
845	175.995	93	-2.34041e+06	14.4862	0.612238	1	2.88472	20
846	173.009	93	-2.34041e+06	14.4341	0.612806	1	2.88502	20
847	175.828	93	-2.34042e+06	14.402	0.613105	1	2.88531	20
848	181.948	93	-2.3404e+06	14.4184	0.613824	1	2.88376	20
849	178.715	93	-2.34042e+06	14.3518	0.614749	1	2.88378	20
850	181.383	93	-2.34041e+06	14.4249	0.611965	1	2.88381	20
851	177.403	93	-2.34043e+06	14.3886	0.61468	1	2.88397	20
852	178.386	93	-2.34043e+06	14.3791	0.616742	1	2.88434	20
853	180.306	93	-2.34041e+06	14.4658	0.615233	1	2.88368	20
854	175.961	93	-2.34042e+06	14.4313	0.616531	1	2.8845	20
855	175.872	93	-2.34043e+06	14.4928	0.617004	1	2.88472	20
856	179.249	93	-2.34044e+06	14.5341	0.615995	1	2.88585	20
857	183.359	93	-2.34043e+06	14.5068	0.613915	1	2.88508	20
858	174.636	93	-2.34043e+06	14.5061	0.614586	1	2.88473	20
859	175.903	93	-2.34043e+06	14.4847	0.616839	1	2.88546	20
860	171.779	93	-2.34042e+06	14.4643	0.617254	1	2.88466	20
861	173.514	92	-2.34042e+06	14.5298	0.615767	1	2.88487	20
862	171.204	93	-2.34043e+06	14.5339	0.610398	1	2.88435	20
863	187.946	85	-2.34042e+06	14.5368	0.61364	1	2.88474	20
864	173.371	93	-2.34042e+06	14.5465	0.61364	1	2.88475	20
865	175.815	93	-2.34041e+06	14.5258	0.613348	1	2.88462	20
866	174.101	93	-2.34043e+06	14.5242	0.6132	1	2.88536	20
867	174.727	93	-2.34043e+06	14.4422	0.613509	1	2.8853	20
868	175.914	93	-2.34043e+06	14.4409	0.611155	1	2.88415	20
869	170.343	93	-2.34043e+06	14.477	0.613538	1	2.88451	20
870	173.818	93	-2.34042e+06	14.4403	0.613229	1	2.88486	20
871	174.247	93	-2.34042e+06	14.4815	0.609982	1	2.88501	20
872	174.615	93	-2.34044e+06	14.4835	0.61425	1	2.885	20
873	163.96	93	-2.34044e+06	14.4699	0.614993	1	2.88491	20
874	167.807	93	-2.34044e+06	14.5121	0.616387	1	2.88452	20
875	171.156	93	-2.34041e+06	14.5129	0.6162	1	2.8843	20
876	178.426	93	-2.34043e+06	14.5014	0.617259	1	2.88523	20
877	180.527	93	-2.34042e+06	14.5	0.617557	1	2.88493	20
878	172.653	93	-2.34042e+06	14.5213	0.617557	1	2.88451	20
879	180.336	93	-2.34042e+06	14.4977	0.616248	1	2.88399	20
880	174.868	93	-2.34041e+06	14.4859	0.613756	1	2.88418	20
881	174.522	93	-2.34041e+06	14.4227	0.613855	1	2.88441	20
882	179.874	93	-2.34042e+06	14.4572	0.615762	1	2.88407	20
883	175.78	93	-2.34043e+06	14.4779	0.614996	1	2.88424	20
884	172.848	93	-2.34043e+06	14.5064	0.614318	1	2.88383	20
885	174.304	93	-2.34041e+06	14.5205	0.615888	1	2.88371	20
886	175.303	93	-2.34042e+06	14.5336	0.617627	1	2.88399	20
887	177.82	93	-2.34042e+06	14.5618	0.612938	1	2.8841	20
888	171.865	93	-2.34042e+06	14.5811	0.61283	1	2.88482	20
889	173.285	93	-2.34042e+06	14.5221	0.61609	1	2.88397	20
890	173.462	93	-2.34043e+06	14.5949	0.617212	1	2.88575	20
891	174.338	93	-2.34042e+06	14.5218	0.614521	1	2.88573	20
892	184.136	93	-2.34044e+06	14.5153	0.612996	1	2.88442	20
893	173.642	93	-2.34042e+06	14.5293	0.610796	1	2.88438	20
894	174.911	93	-2.3404e+06	14.4414	0.608217	1	2.88411	20
895	174.605	93	-2.34042e+06	14.3863	0.61208	1	2.88403	20
896	177.774	93	-2.34042e+06	14.404	0.614727	1	2.8845	20
897	169.11	93	-2.34042e+06	14.4717	0.612762	1	2.88471	20
898	174.441	93	-2.34041e+06	14.5282	0.612673	1	2.8851	20
899	175.573	93	-2.34042e+06	14.4384	0.613075	1	2.88532	20
900	175.765	93	-2.3404e+06	14.4238	0.614086	1	2.88519	20
901	177.254	93	-2.34044e+06	14.3819	0.614106	1	2.88449	20
902	174.183	93	-2.34043e+06	14.3673	0.614054	1	2.88415	20
903	171.49	93	-2.34042e+06	14.4273	0.61169	1	2.88366	20
904	175.872	93	-2.34041e+06	14.4534	0.613158	1	2.88447	20
905	177.216	93	-2.34041e+06	14.4695	0.612518	1	2.88362	20
906	171.428	93	-2.34043e+06	14.4853	0.612518	1	2.88357	20
907	177.472	93	-2.34045e+06	14.5011	0.613636	1	2.88339	20
908	174.282	93	-2.34042e+06	14.4915	0.612014	1	2.88491	20
909	174.297	93	-2.34042e+06	14.474	0.610902	1	2.88487	20
910	169.917	93	-2.34042e+06	14.4777	0.612188	1	2.88512	20
911	171.232	93	-2.34045e+06	14.4673	0.616157	1	2.88487	20
912	177.909	93	-2.34043e+06	14.4354	0.615121	1	2.88455	20
913	174.446	93	-2.34042e+06	14.4446	0.611611	1	2.88452	20
914	177.985	93	-2.34042e+06	14.4748	0.613444	1	2.88486	20
915	176.975	93	-2.34043e+06	14.4472	0.617059	1	2.88439	20
916	171.373	93	-2.34044e+06	14.3859	0.616	1	2.88604	20
917	173.542	93	-2.34045e+06	14.4736	0.615939	1	2.88539	20
918	176.155	93	-2.34043e+06	14.4618	0.616112	1	2.88579	20
919	173.03	93	-2.34042e+06	14.4934	0.61633	1	2.88541	20
920	177.883	93	-2.34045e+06	14.4755	0.618894	1	2.88567	20
921	175.983	93	-2.34043e+06	14.4869	0.617317	1	2.88578	20
922	183.124	93	-2.34042e+06	14.4278	0.611925	1	2.88558	20
923	178.16	93	-2.34042e+06	14.4273	0.614361	1	2.88483	20
924	180.808	93	-2.34041e+06	14.384	0.614364	1	2.88515	20
925	175.161	93	-2.34043e+06	14.3722	0.612852	1	2.88529	20
926	180.436	93	-2.34041e+06	14.3726	0.612852	1	2.88581	20
927	175.337	93	-2.34044e+06	14.3829	0.610508	1	2.88469	20
928	177.161	93	-2.34042e+06	14.3456	0.610315	1	2.88482	20
929	172.988	93	-2.34042e+06	14.3783	0.610475	1	2.88391	20
930	178.243	93	-2.34042e+06	14.4099	0.610405	1	2.88406	20
931	178.335	93	-2.34041e+06	14.4189	0.609932	1	2.88424	20
932	178.914	93	-2.34042e+06	14.4457	0.607598	1	2.88401	20
933	176.998	93	-2.34043e+06	14.3926	0.609893	1	2.88403	20
934	176.503	93	-2.34043e+06	14.4001	0.609893	1	2.88435	20
935	177.843	93	-2.34042e+06	14.4278	0.610384	1	2.88428	20
936	186.973	94	-2.34043e+06	14.4529	0.609996	1	2.88479	20
937	178.433	93	-2.34042e+06	14.4094	0.61146	1	2.88536	20
938	176.933	93	-2.34043e+06	14.3531	0.610976	1	2.88526	20
939	177.557	93	-2.34044e+06	14.3868	0.60859	1	2.88513	20
940	173.353	93	-2.34044e+06	14.4661	0.610733	1	2.88481	20
941	173.078	93	-2.34043e+06	14.4271	0.613507	1	2.88382	20
942	173.538	93	-2.34043e+06	14.3359	0.613205	1	2.88396	20
943	172.391	93	-2.34043e+06	14.5055	0.610641	1	2.88331	20
944	186.055	94	-2.34043e+06	14.5108	0.610111	1	2.88443	20
945	181.5	94	-2.34043e+06	14.5682	0.610789	1	2.88479	20
946	183.564	94	-2.34043e+06	14.5294	0.612478	1	2.88482	20
947	181.908	93	-2.34041e+06	14.4719	0.612567	1	2.88476	20
948	185.529	94	-2.34042e+06	14.4419	0.612695	1	2.88463	20
949	183.376	94	-2.34042e+06	14.4849	0.616176	1	2.8851	20
950	186.47	93	-2.34042e+06	14.4157	0.613082	1	2.88466	20
951	178.652	93	-2.34042e+06	14.4938	0.610395	1	2.88556	20
952	183.451	93	-2.34041e+06	14.4584	0.613557	1	2.88538	20
953	183.491	93	-2.34043e+06	14.3839	0.611864	1	2.88585	20
954	185.254	93	-2.34042e+06	14.4268	0.611815	1	2.88563	20
955	184.176	94	-2.34043e+06	14.419	0.614765	1	2.88539	20
956	182.897	93	-2.34043e+06	14.3706	0.614765	1	2.88492	20
957	185.336	94	-2.34043e+06	14.4098	0.614785	1	2.88512	20
958	174.99	93	-2.34042e+06	14.4238	0.611983	1	2.885	20
959	172.761	93	-2.34042e+06	14.4101	0.612338	1	2.88552	20
960	175.326	93	-2.34044e+06	14.3671	0.610667	1	2.88567	20
961	176.053	93	-2.34042e+06	14.3659	0.612549	1	2.88533	20
962	170.639	93	-2.34041e+06	14.3967	0.612029	1	2.88498	20
963	182.055	93	-2.34042e+06	14.3715	0.610304	1	2.88511	20
964	183.801	93	-2.34042e+06	14.421	0.610975	1	2.88602	20
965	179.249	93	-2.34042e+06	14.3784	0.61057	1	2.88473	20
966	174.261	93	-2.34043e+06	14.3242	0.610887	1	2.8847	20
967	177.332	93	-2.34043e+06	14.3793	0.611542	1	2.8849	20
968	180.166	93	-2.34041e+06	14.41	0.611542	1	2.88488	20
969	175.529	93	-2.34041e+06	14.4649	0.613747	1	2.88469	20
970	175.967	93	-2.34043e+06	14.4401	0.613949	1	2.88463	20
971	174.633	93	-2.34043e+06	14.4731	0.612409	1	2.88407	20
972	176.597	93	-2.34043e+06	14.482	0.61459	1	2.8839	20
973	175.639	93	-2.34042e+06	14.5139	0.613652	1	2.88444	20
974	177.705	93	-2.34042e+06	14.4498	0.613289	1	2.8837	20
975	166.004	93	-2.34042e+06	14.4633	0.615724	1	2.88372	20
976	178.934	93	-2.34043e+06	14.4386	0.612744	1	2.88417	20
977	173.738	93	-2.34041e+06	14.4445	0.611734	1	2.88421	20
978	173.528	93	-2.3404e+06	14.4632	0.611734	1	2.88426	20
979	173.374	93	-2.34042e+06	14.3972	0.612329	1	2.88504	20
980	176.278	93	-2.34042e+06	14.387	0.613815	1	2.8838	20
981	170.585	93	-2.34041e+06	14.3614	0.609703	1	2.88365	20
982	172.768	93	-2.34043e+06	14.3684	0.610796	1	2.88372	20
983	168.89	93	-2.34042e+06	14.392	0.609009	1	2.88337	20
984	177.222	93	-2.34043e+06	14.3418	0.608759	1	2.88407	20
985	165.166	93	-2.34043e+06	14.3853	0.609577	1	2.88397	20
986	164.74	93	-2.34044e+06	14.5054	0.612158	1	2.88402	20
987	165.85	93	-2.34043e+06	14.4947	0.60863	1	2.88366	20
988	173.542	93	-2.34043e+06	14.4691	0.609632	1	2.88339	20
989	177.68	93	-2.34042e+06	14.4734	0.613413	1	2.88441	20
990	175.766	93	-2.34041e+06	14.4282	0.613309	1	2.88352	20
991	178.273	93	-2.34043e+06	14.4839	0.612532	1	2.88387	20
992	177.412	93	-2.34044e+06	14.5087	0.611469	1	2.88388	20
993	172.853	93	-2.34044e+06	14.5638	0.614443	1	2.88364	20
994	174.519	93	-2.34043e+06	14.5263	0.617955	1	2.88442	20
995	175.885	93	-2.34043e+06	14.4119	0.615957	1	2.88483	20
996	175.768	93	-2.34043e+06	14.4598	0.613934	1	2.88367	20
997	177.391	93	-2.34042e+06	14.4936	0.61616	1	2.88367	20
998	176.742	93	-2.34042e+06	14.4533	0.617716	1	2.88362	20
999	181.424	94	-2.34043e+06	14.4211	0.616335	1	2.8835	20
1000	178.573	93	-2.34042e+06	14.42	0.617468	1	2.8835	20
1001	181.864	93	-2.34044e+06	14.4298	0.617543	1	2.88443	20
1002	177.277	93	-2.34043e+06	14.4635	0.611952	1	2.88456	20
1003	168.477	93	-2.34043e+06	14.5146	0.612237	1	2.88483	20
1004	174.317	93	-2.34043e+06	14.4965	0.613834	1	2.88514	20
1005	172.472	93	-2.34044e+06	14.4367	0.615389	1	2.8842	20
1006	174.397	93	-2.34043e+06	14.4262	0.61849	1	2.88384	20
1007	172.87	93	-2.34043e+06	14.3865	0.61849	1	2.88464	20
1008	162.552	93	-2.34042e+06	14.4225	0.616057	1	2.88515	20
1009	174.728	93	-2.34041e+06	14.4068	0.616758	1	2.88484	20
1010	172.861	93	-2.34041e+06	14.4498	0.61685	1	2.88451	20
1011	173.01	93	-2.34043e+06	14.4443	0.617032	1	2.88426	20
1012	174.401	93	-2.34043e+06	14.3531	0.616874	1	2.88425	20
1013	173.771	93	-2.34043e+06	14.4027	0.617723	1	2.88476	20
1014	169.33	93	-2.34041e+06	14.4952	0.615866	1	2.8856	20
1015	175	93	-2.34042e+06	14.4628	0.612124	1	2.88476	20
1016	174.239	93	-2.34042e+06	14.4386	0.613919	1	2.8846	20
1017	175.231	93	-2.34043e+06	14.3246	0.614647	1	2.88399	20
1018	173.802	93	-2.34043e+06	14.4452	0.610892	1	2.88366	20
1019	167.19	93	-2.34041e+06	14.4134	0.615217	1	2.88425	20
1020	173.918	93	-2.34041e+06	14.4738	0.614882	1	2.88424	20
1021	172.499	93	-2.34041e+06	14.4797	0.615565	1	2.88522	20
1022	176.688	93	-2.34041e+06	14.4803	0.615266	1	2.88541	20
1023	166.798	93	-2.34041e+06	14.4991	0.616188	1	2.88434	20
1024	177.771	93	-2.34042e+06	14.4968	0.617095	1	2.88322	20
1025	172.829	93	-2.34043e+06	14.4568	0.615732	1	2.88297	20
1026	181.84	93	-2.34041e+06	14.4332	0.614836	1	2.88384	20
1027	169.589	93	-2.34043e+06	14.4822	0.613641	1	2.88345	20
1028	175.232	93	-2.34044e+06	14.4164	0.610413	1	2.88414	20
1029	180.557	93	-2.34041e+06	14.3405	0.613096	1	2.88546	20
1030	171.926	93	-2.34043e+06	14.3684	0.609106	1	2.88503	20
1031	178.801	93	-2.34043e+06	14.3858	0.61488	1	2.88558	20
1032	178.457	93	-2.34042e+06	14.3445	0.612018	1	2.88487	20
1033	173.273	93	-2.34042e+06	14.4765	0.613116	1	2.88371	20
1034	180.193	93	-2.34043e+06	14.4195	0.61426	1	2.88478	20
1035	176.967	93	-2.34042e+06	14.4472	0.61426	1	2.88517	20
1036	170.272	93	-2.34042e+06	14.4348	0.614737	1	2.88524	20
1037	175.102	93	-2.34043e+06	14.4482	0.614136	1	2.8855	20
1038	169.464	93	-2.34042e+06	14.4632	0.614473	1	2.88447	20
1039	174.05	93	-2.34042e+06	14.4414	0.614118	1	2.88555	20
1040	176.458	93	-2.34044e+06	14.4432	0.614355	1	2.88558	20
1041	175.941	93	-2.34043e+06	14.3866	0.614304	1	2.88477	20
1042	178.303	93	-2.34042e+06	14.4243	0.612227	1	2.88522	20
1043	174.359	93	-2.34042e+06	14.4852	0.612844	1	2.885	20
1044	175.03	93	-2.34041e+06	14.4632	0.612844	1	2.88495	20
1045	177.246	93	-2.34042e+06	14.4752	0.611761	1	2.88522	20
1046	171.145	93	-2.34044e+06	14.3845	0.612611	1	2.8855	20
1047	172.193	93	-2.34042e+06	14.5173	0.614207	1	2.88435	20
1048	175.181	93	-2.34042e+06	14.4668	0.615189	1	2.88481	20
1049	180.62	93	-2.34042e+06	14.4398	0.614379	1	2.88468	20
1050	173.201	93	-2.34044e+06	14.4198	0.615767	1	2.8841	20
1051	176.311	93	-2.34043e+06	14.3392	0.61417	1	2.88413	20
1052	178.785	93	-2.34043e+06	14.3147	0.615381	1	2.88411	20
1053	177.083	93	-2.34042e+06	14.3942	0.614535	1	2.88374	20
1054	175.825	93	-2.34042e+06	14.431	0.614188	1	2.88281	20
1055	177.944	93	-2.34042e+06	14.422	0.615552	1	2.88496	20
1056	174.079	93	-2.34043e+06	14.406	0.61155	1	2.88492	20
1057	170.671	93	-2.34042e+06	14.4982	0.616577	1	2.88492	20
1058	177.717	93	-2.34043e+06	14.4747	0.616989	1	2.88505	20
1059	175.46	93	-2.34043e+06	14.4943	0.616421	1	2.88463	20
1060	176.417	93	-2.34044e+06	14.4689	0.617299	1	2.88446	20
1061	173.615	93	-2.34041e+06	14.4492	0.617299	1	2.88485	20
1062	177.157	93	-2.34041e+06	14.4942	0.614447	1	2.88485	20
1063	177.024	93	-2.34043e+06	14.4981	0.616928	1	2.88546	20
1064	176.859	93	-2.34042e+06	14.504	0.614945	1	2.88431	20
1065	176.72	93	-2.34043e+06	14.4531	0.61321	1	2.88404	20
1066	175.992	93	-2.34042e+06	14.4138	0.609303	1	2.88536	20
1067	175.573	93	-2.34045e+06	14.3396	0.608355	1	2.88556	20
1068	176.006	93	-2.34042e+06	14.3729	0.611576	1	2.88523	20
1069	171.214	93	-2.34043e+06	14.4094	0.611583	1	2.8857	20
1070	161.132	93	-2.34043e+06	14.3215	0.613167	1	2.8863	20
1071	176.129	93	-2.34044e+06	14.3802	0.609839	1	2.88654	20
1072	169.39	93	-2.34043e+06	14.39	0.610001	1	2.88567	20
1073	176.567	93	-2.34042e+06	14.4437	0.613764	1	2.88638	20
1074	170.423	93	-2.34043e+06	14.4392	0.613533	1	2.88619	20
1075	170.726	93	-2.34043e+06	14.4966	0.61245	1	2.88513	20
1076	174.645	93	-2.34041e+06	14.4348	0.612017	1	2.88542	20
1077	172.779	93	-2.34043e+06	14.3692	0.612607	1	2.88446	20
1078	170.484	93	-2.34043e+06	14.3732	0.612999	1	2.8846	20
1079	173.264	93	-2.34043e+06	14.4273	0.612513	1	2.88462	20
1080	168.011	93	-2.34042e+06	14.4059	0.614966	1	2.88484	20
1081	180.743	93	-2.34043e+06	14.3668	0.612046	1	2.88471	20
1082	171.821	93	-2.34042e+06	14.4524	0.61463	1	2.88579	20
1083	172.564	93	-2.34044e+06	14.4784	0.616822	1	2.8858	20
1084	176.391	93	-2.34041e+06	14.4545	0.615295	1	2.8853	20
1085	176.114	93	-2.34042e+06	14.4631	0.614425	1	2.88551	20
1086	179.09	93	-2.34042e+06	14.5625	0.615165	1	2.88453	20
1087	177.356	93	-2.34042e+06	14.5282	0.616646	1	2.88384	20
1088	170.375	93	-2.34042e+06	14.503	0.614367	1	2.88439	20
1089	169.14	93	-2.34042e+06	14.4012	0.613082	1	2.88396	20
1090	174.069	93	-2.34042e+06	14.4297	0.615268	1	2.88408	20
1091	171.667	93	-2.34042e+06	14.4295	0.614957	1	2.88419	20
1092	169.361	93	-2.34041e+06	14.4764	0.614637	1	2.88393	20
1093	172.371	93	-2.34043e+06	14.378	0.61273	1	2.88292	20
1094	179.469	90	-2.34044e+06	14.4081	0.612462	1	2.88281	20
1095	174.625	93	-2.34042e+06	14.4662	0.614656	1	2.8831	20
1096	167.228	93	-2.34042e+06	14.5287	0.611859	1	2.88406	20
1097	187.756	86	-2.34043e+06	14.518	0.610219	1	2.8839	20
1098	174.041	93	-2.34043e+06	14.5636	0.60976	1	2.88429	20
1099	172.425	93	-2.34041e+06	14.4355	0.610013	1	2.88453	20
1100	166.326	93	-2.34042e+06	14.474	0.608612	1	2.8844	20
1101	171.394	93	-2.34041e+06	14.449	0.61268	1	2.8845	20
1102	176.52	93	-2.34043e+06	14.406	0.610748	1	2.88412	20
1103	166.401	93	-2.34042e+06	14.4241	0.610775	1	2.8841	20
1104	174.537	93	-2.34041e+06	14.4108	0.614027	1	2.88423	20
1105	167.522	93	-2.3404e+06	14.4946	0.614402	1	2.88458	20
1106	173.236	93	-2.34042e+06	14.515	0.614356	1	2.8844	20
1107	174.428	93	-2.34042e+06	14.4742	0.614448	1	2.88488	20
1108	175.416	93	-2.34044e+06	14.427	0.612679	1	2.88561	20
1109	173.183	93	-2.34042e+06	14.4215	0.61342	1	2.884	20
1110	176.142	93	-2.34041e+06	14.3659	0.613287	1	2.88407	20
1111	170.263	93	-2.34042e+06	14.3754	0.613367	1	2.88398	20
1112	171.901	93	-2.34044e+06	14.4008	0.61376	1	2.88468	20
1113	173.619	93	-2.34043e+06	14.4064	0.615575	1	2.88524	20
1114	171.238	93	-2.34042e+06	14.4625	0.615401	1	2.88574	20
1115	175.202	93	-2.34043e+06	14.4418	0.6153	1	2.88532	20
1116	180.341	94	-2.34044e+06	14.464	0.616898	1	2.88421	20
1117	173.243	93	-2.34043e+06	14.493	0.614963	1	2.8848	20
1118	177.221	93	-2.34043e+06	14.4722	0.61387	1	2.88507	20
1119	173.295	93	-2.34042e+06	14.424	0.61017	1	2.88422	20
1120	174.292	93	-2.34042e+06	14.4111	0.610559	1	2.88453	20
1121	174.277	93	-2.34043e+06	14.423	0.609916	1	2.88494	20
1122	174.991	93	-2.34043e+06	14.4427	0.614391	1	2.88524	20
1123	173.353	93	-2.34043e+06	14.452	0.615832	1	2.8839	20
1124	166.819	93	-2.34041e+06	14.4353	0.618681	1	2.88536	20
1125	175.879	93	-2.3404e+06	14.4044	0.618425	1	2.88538	20
1126	177.299	93	-2.34042e+06	14.4037	0.616049	1	2.8855	20
1127	175.257	93	-2.34043e+06	14.3674	0.612618	1	2.88532	20
1128	174.019	93	-2.34043e+06	14.4394	0.612618	1	2.88591	20
1129	175.464	93	-2.34043e+06	14.45	0.612618	1	2.88484	20
1130	172.636	93	-2.34043e+06	14.4968	0.613059	1	2.88451	20
1131	169.052	93	-2.34043e+06	14.4978	0.613505	1	2.88447	20
1132	171.247	93	-2.34042e+06	14.3953	0.610115	1	2.88456	20
1133	165.579	93	-2.34041e+06	14.397	0.615586	1	2.88448	20
1134	175.073	93	-2.34041e+06	14.5045	0.612949	1	2.88484	20
1135	176.534	93	-2.34042e+06	14.4491	0.614608	1	2.88505	20
1136	179.376	93	-2.34043e+06	14.4944	0.617427	1	2.88493	20
1137	176.805	93	-2.34042e+06	14.4451	0.618505	1	2.88425	20
1138	175.65	93	-2.34043e+06	14.3896	0.617616	1	2.88432	20
1139	179.458	93	-2.34043e+06	14.3904	0.612444	1	2.88418	20
1140	176.283	93	-2.34045e+06	14.3795	0.610876	1	2.88356	20
1141	173.967	93	-2.34043e+06	14.4358	0.612606	1	2.88347	20
1142	165.557	93	-2.34042e+06	14.3597	0.611825	1	2.88364	20
1143	174.107	93	-2.34043e+06	14.3646	0.613078	1	2.88459	20
1144	170.83	93	-2.34042e+06	14.3407	0.613308	1	2.88391	20
1145	177.227	93	-2.34043e+06	14.3339	0.610832	1	2.88399	20
1146	175.463	93	-2.34043e+06	14.3956	0.616832	1	2.88405	20
1147	175.363	93	-2.34042e+06	14.4232	0.616832	1	2.8845	20
1148	178.473	93	-2.34043e+06	14.404	0.614956	1	2.88415	20
1149	174.881	93	-2.34042e+06	14.3976	0.61297	1	2.88394	20
1150	177.081	93	-2.34042e+06	14.466	0.616038	1	2.88436	20
1151	174.75	93	-2.34042e+06	14.4931	0.617943	1	2.88395	20
1152	178.253	93	-2.34044e+06	14.5163	0.617921	1	2.88355	20
1153	175.105	93	-2.34043e+06	14.5077	0.617366	1	2.88383	20
1154	174.152	93	-2.34043e+06	14.4264	0.613629	1	2.88444	20
1155	173.369	93	-2.34042e+06	14.4741	0.612405	1	2.88407	20
1156	176.113	93	-2.34042e+06	14.4225	0.610668	1	2.88513	20
1157	170.628	93	-2.34044e+06	14.4313	0.610194	1	2.88454	20
1158	169.228	93	-2.34042e+06	14.4379	0.612627	1	2.88439	20
1159	172.767	93	-2.34042e+06	14.4443	0.616099	1	2.88444	20
1160	181.551	94	-2.3404e+06	14.457	0.616314	1	2.88456	20
1161	166.652	93	-2.3404e+06	14.4653	0.618044	1	2.88438	20
1162	173.137	93	-2.34044e+06	14.4424	0.616461	1	2.88437	20
1163	173.513	93	-2.34042e+06	14.5141	0.61663	1	2.8854	20
1164	174.376	93	-2.34043e+06	14.4759	0.615831	1	2.88507	20
1165	171.856	93	-2.34041e+06	14.4848	0.615557	1	2.88471	20
1166	178.411	89	-2.34042e+06	14.5526	0.615465	1	2.88527	20
1167	170.915	93	-2.34042e+06	14.4663	0.619666	1	2.88485	20
1168	167.637	93	-2.34043e+06	14.5391	0.620302	1	2.88444	20
1169	170.273	93	-2.34042e+06	14.5348	0.61799	1	2.88473	20
1170	163.408	92	-2.34043e+06	14.4944	0.616236	1	2.88529	20
1171	175.867	93	-2.34042e+06	14.5072	0.617845	1	2.88426	20
1172	171.324	93	-2.34041e+06	14.4853	0.615787	1	2.88447	20
1173	177.74	94	-2.34042e+06	14.4002	0.615787	1	2.88408	20
1174	187.641	94	-2.34043e+06	14.4038	0.616178	1	2.88488	20
1175	180.511	94	-2.34042e+06	14.3752	0.618068	1	2.88475	20
1176	177.69	93	-2.34043e+06	14.4178	0.614045	1	2.88476	20
1177	176.881	93	-2.34042e+06	14.4433	0.615147	1	2.88486	20
1178	174.888	93	-2.34043e+06	14.3796	0.613927	1	2.88474	20
1179	172.772	93	-2.34042e+06	14.3397	0.616363	1	2.88466	20
1180	174.591	93	-2.34042e+06	14.348	0.61346	1	2.88383	20
1181	175.493	93	-2.34042e+06	14.3332	0.609873	1	2.88371	20
1182	174.552	93	-2.34042e+06	14.4233	0.610119	1	2.88388	20
1183	177.463	93	-2.34044e+06	14.4142	0.612014	1	2.88432	20
1184	175.653	93	-2.34042e+06	14.4339	0.610824	1	2.88498	20
1185	176.368	93	-2.34042e+06	14.448	0.611686	1	2.88476	20
1186	178.745	93	-2.3404e+06	14.4375	0.611438	1	2.88567	20
1187	178.874	93	-2.34044e+06	14.38	0.609038	1	2.88532	20
1188	175.45	93	-2.34041e+06	14.3492	0.610908	1	2.88561	20
1189	170.415	93	-2.34042e+06	14.3895	0.612718	1	2.88441	20
1190	173.824	93	-2.34042e+06	14.3763	0.612718	1	2.88456	20
1191	172.2	93	-2.34042e+06	14.4129	0.614412	1	2.8843	20
1192	167.767	93	-2.34042e+06	14.4248	0.610964	1	2.88509	20
1193	170.586	93	-2.34042e+06	14.4085	0.609963	1	2.8844	20
1194	171.887	93	-2.34041e+06	14.4105	0.612127	1	2.88444	20
1195	171.509	93	-2.34042e+06	14.4005	0.612666	1	2.88531	20
1196	179.576	93	-2.34045e+06	14.3745	0.613043	1	2.88519	20
1197	169.088	93	-2.34043e+06	14.3552	0.613825	1	2.88399	20
1198	173.071	93	-2.34041e+06	14.3577	0.614521	1	2.88481	20
1199	162.583	93	-2.34042e+06	14.4162	0.614107	1	2.88365	20
1200	171.844	93	-2.34043e+06	14.3949	0.616131	1	2.88393	20
1201	173.427	93	-2.34042e+06	14.3242	0.615679	1	2.88385	20
1202	174.908	93	-2.34043e+06	14.3456	0.61766	1	2.88412	20
1203	170.371	93	-2.34042e+06	14.3283	0.615435	1	2.88462	20
1204	175.719	93	-2.34044e+06	14.3303	0.61305	1	2.88504	20
1205	175.327	93	-2.34042e+06	14.3248	0.608254	1	2.88495	20
1206	175.811	93	-2.34043e+06	14.3029	0.614722	1	2.88302	20
1207	177.422	93	-2.34043e+06	14.3359	0.612182	1	2.88428	20
1208	171.545	93	-2.34043e+06	14.3791	0.615835	1	2.88392	20
1209	173.125	93	-2.34042e+06	14.3607	0.615578	1	2.88462	20
1210	175.75	93	-2.34042e+06	14.3512	0.612534	1	2.88394	20
1211	179.706	93	-2.34042e+06	14.3832	0.610772	1	2.88408	20
1212	179.835	93	-2.34042e+06	14.4097	0.614284	1	2.88372	20
1213	180.701	93	-2.34041e+06	14.4408	0.613252	1	2.88465	20
1214	177.814	93	-2.3404e+06	14.4925	0.614929	1	2.8849	20
1215	169.272	93	-2.34042e+06	14.4028	0.617996	1	2.88475	20
1216	181.725	93	-2.34043e+06	14.4155	0.615045	1	2.88423	20
1217	171.351	93	-2.34042e+06	14.4349	0.615045	1	2.88496	20
1218	178.937	93	-2.34041e+06	14.4088	0.613783	1	2.88508	20
1219	178.163	93	-2.34041e+06	14.4021	0.61293	1	2.8849	20
1220	178.399	93	-2.34043e+06	14.3802	0.611701	1	2.88497	20
1221	178.549	91	-2.34042e+06	14.3648	0.616375	1	2.88626	20
1222	171.901	93	-2.34042e+06	14.4427	0.616649	1	2.88524	20
1223	177.953	93	-2.34043e+06	14.4777	0.614039	1	2.88483	20
1224	175.805	93	-2.34041e+06	14.5384	0.614787	1	2.88484	20
1225	178.563	93	-2.34042e+06	14.5776	0.617495	1	2.88495	20
1226	176.326	93	-2.34041e+06	14.6152	0.616983	1	2.88459	20
1227	176.086	93	-2.34042e+06	14.5955	0.618674	1	2.88407	20
1228	177.844	93	-2.34044e+06	14.6192	0.616951	1	2.88437	20
1229	176.68	93	-2.34044e+06	14.6345	0.619634	1	2.88497	20
1230	177.086	93	-2.34043e+06	14.5189	0.619908	1	2.8857	20
1231	179.911	93	-2.34041e+06	14.4131	0.614567	1	2.88597	20
1232	180.47	93	-2.34042e+06	14.3823	0.61246	1	2.8865	20
1233	175.828	93	-2.34042e+06	14.346	0.612869	1	2.88602	20
1234	180.514	93	-2.34043e+06	14.3824	0.613218	1	2.88623	20
1235	172.746	93	-2.34043e+06	14.3166	0.612185	1	2.88581	20
1236	174.515	93	-2.34042e+06	14.4067	0.613346	1	2.88597	20
1237	179.73	93	-2.34043e+06	14.4556	0.616117	1	2.88598	20
1238	176.205	93	-2.34043e+06	14.3791	0.618271	1	2.88394	20
1239	176.717	93	-2.34042e+06	14.4245	0.615712	1	2.88456	20
1240	175.165	93	-2.34043e+06	14.4189	0.616848	1	2.88509	20
1241	179.313	93	-2.34043e+06	14.4266	0.616822	1	2.88476	20
1242	174.247	93	-2.34043e+06	14.4443	0.61505	1	2.88359	20
1243	176.953	93	-2.34041e+06	14.4299	0.613714	1	2.88324	20
1244	173.73	93	-2.34042e+06	14.4207	0.615812	1	2.88396	20
1245	177.498	93	-2.34042e+06	14.4434	0.611843	1	2.88453	20
1246	172.066	93	-2.34042e+06	14.4807	0.611843	1	2.88495	20
1247	172.627	93	-2.34041e+06	14.5136	0.612812	1	2.88467	20
1248	169.903	93	-2.34042e+06	14.5044	0.616412	1	2.88361	20
1249	169.454	93	-2.34041e+06	14.4597	0.61495	1	2.88374	20
1250	178.654	93	-2.34042e+06	14.4416	0.614667	1	2.88402	20
1251	174.561	93	-2.34041e+06	14.4416	0.613462	1	2.88403	20
1252	184.226	94	-2.34042e+06	14.3925	0.616379	1	2.88386	20
1253	175.588	93	-2.34042e+06	14.3663	0.616379	1	2.88389	20
1254	179.002	93	-2.34042e+06	14.3429	0.613854	1	2.8833	20
1255	184.305	94	-2.34043e+06	14.3962	0.609276	1	2.88367	20
1256	178.109	93	-2.34042e+06	14.324	0.609829	1	2.88346	20
1257	174.39	93	-2.34042e+06	14.3167	0.607753	1	2.88335	20
1258	170.497	93	-2.34044e+06	14.2908	0.609356	1	2.88438	20
1259	173.721	93	-2.34043e+06	14.229	0.608827	1	2.88456	20
1260	162.619	93	-2.34044e+06	14.283	0.60864	1	2.88336	20
1261	173.307	93	-2.34043e+06	14.3957	0.608746	1	2.88347	20
1262	180.261	93	-2.34043e+06	14.4677	0.612252	1	2.88458	20
1263	175.035	93	-2.34043e+06	14.4207	0.611683	1	2.8852	20
1264	173.8	93	-2.34041e+06	14.4914	0.613636	1	2.88596	20
1265	177.014	93	-2.34043e+06	14.4424	0.616321	1	2.88481	20
1266	173.367	93	-2.34042e+06	14.4697	0.612621	1	2.88526	20
1267	172.429	93	-2.34041e+06	14.4387	0.611339	1	2.88525	20
1268	173.181	93	-2.34042e+06	14.5192	0.609913	1	2.88508	20
1269	170.163	93	-2.34041e+06	14.4683	0.61077	1	2.88482	20
1270	176.27	93	-2.34042e+06	14.437	0.607413	1	2.88488	20
1271	171.783	93	-2.34041e+06	14.4851	0.610401	1	2.88486	20
1272	173.567	93	-2.34042e+06	14.523	0.61103	1	2.88489	20
1273	180.451	93	-2.34042e+06	14.4927	0.61103	1	2.88419	20
1274	169.814	93	-2.34042e+06	14.5108	0.613193	1	2.88409	20
1275	172.108	93	-2.34042e+06	14.4894	0.610362	1	2.88479	20
1276	173.413	93	-2.34041e+06	14.4048	0.611169	1	2.88392	20
1277	169.169	93	-2.34044e+06	14.493	0.613068	1	2.88354	20
1278	170.106	93	-2.34042e+06	14.4657	0.612078	1	2.88376	20
1279	186.388	92	-2.34043e+06	14.4752	0.607561	1	2.88324	20
1280	174.512	93	-2.34043e+06	14.4793	0.610567	1	2.88519	20
1281	167.873	93	-2.34043e+06	14.4905	0.610796	1	2.88528	20
1282	179.209	93	-2.34043e+06	14.5629	0.609651	1	2.88495	20
1283	175.042	93	-2.34043e+06	14.5691	0.612673	1	2.88543	20
1284	167.182	93	-2.34042e+06	14.5444	0.613055	1	2.88546	20
1285	173.033	93	-2.34041e+06	14.4887	0.614481	1	2.88431	20
1286	173.487	93	-2.34044e+06	14.5253	0.612335	1	2.88383	20
