LGF, p1 = 5605-6068, 43199-43485, 6775-7165, 42212-42610, 1-153, 28741-28898, 33253-33519, 39276-39360, 26052-26253
LGF, p2 = 48571-48733, 39657-39860, 13847-14230, 12610-12724, 154-321, 42909-43198, 42611-42908, 27902-28306
LGF, p3 = 34026-34636, 41021-41196, 322-562, 25645-25877, 25878-26051, 38448-38576
LGF, p4 = 563-1053, 32765-32869
LGF, p5 = 2076-2572, 29890-30066, 14589-14820, 15378-15966, 22880-23057, 15967-16653, 1054-1568, 37920-38057, 38058-38195, 24304-24509, 48054-48155, 38299-38447
LGF, p6 = 29383-29557, 1569-2075, 40675-40848, 41197-41390, 28899-29052, 15177-15377, 30315-30468
LGF, p7 = 40301-40514, 2573-3100, 15054-15176, 47160-47281, 10818-11405, 14821-14937, 31468-31845
LGF, p8 = 46396-46478, 23876-24098, 28361-28575, 3101-3613, 27262-27581, 43486-43757, 27582-27901, 13320-13846, 48506-48570
LGF, p9 = 28576-28740, 10017-10225, 19024-19394, 3614-4129, 32568-32648
LGF, p10 = 47663-47759, 26254-26453, 49936-50213, 4130-4598, 46994-47081, 51803-51940
LGF, p11 = 24510-24744, 47868-48053, 4599-5098
LGF, p12 = 30614-30708, 28307-28360, 12031-12609, 45795-45891, 6069-6362, 5099-5604, 50888-51225
RTREVF, p13 = 6363-6774
LGF, p14 = 7166-7930
LGF, p15 = 7931-8404, 46479-46625, 25184-25412, 23426-23657, 22451-22879
LGF, p16 = 14231-14588, 45243-45475, 17186-17725, 18295-18844, 31206-31332, 8405-9271, 17726-18294, 16654-17185, 41391-41732
LGF, p17 = 50429-50631, 24745-24957, 44755-44926, 30838-30950, 12725-12876, 41733-42211, 39603-39656, 9272-9497, 50632-50887, 38577-38792, 44262-44483
LGF, p18 = 9498-9731
LGF, p19 = 9732-10016, 45698-45794, 22083-22450
LGF, p20 = 10226-10817
LGF, p21 = 38196-38298, 11406-12030, 48877-49463
LGF, p22 = 29724-29889, 18845-19023, 39861-40112, 24958-25183, 38793-38889, 30067-30314, 12877-13319, 37500-37634
LGF, p23 = 14938-15053
LGF, p24 = 20574-20981, 19395-19776, 20190-20573
LGF, p25 = 47282-47424, 19777-20189, 40849-41020
LGF, p26 = 20982-21361, 37786-37919, 31846-31940, 47760-47867, 46913-46993, 40113-40300
LGF, p27 = 32649-32713, 48362-48505, 21362-22082
LGF, p28 = 30469-30613, 33520-33639, 45963-46186, 45892-45962, 36926-37187, 44484-44594, 23058-23425, 39162-39275
LGF, p29 = 45476-45697, 27081-27261, 32042-32170, 23658-23875
LGF, p30 = 24099-24303, 33853-34025
LGF, p31 = 25413-25644, 47082-47159, 32491-32567, 26454-26679
LGF, p32 = 32171-32263, 35908-36925, 37408-37499, 51226-51802, 40515-40674, 26680-26880, 33640-33852
LGF, p33 = 45065-45242, 30951-31083, 26881-27080, 34637-35907
LGF, p34 = 29053-29179, 44927-45064
LGF, p35 = 46820-46912, 38890-39018, 39361-39459, 29180-29382
LGF, p36 = 29558-29723, 37188-37407, 44595-44675, 37635-37785, 32870-32956
LGF, p37 = 30709-30837, 39460-39543
LGF, p38 = 31084-31205, 32371-32490, 32957-33252
RTREVF, p39 = 32264-32370, 31941-32041, 31333-31467
RTREVF, p40 = 39019-39161, 32714-32764
LGF, p41 = 39544-39602
LGF, p42 = 46187-46395, 46626-46819, 43758-44261, 48156-48361
LGF, p43 = 44676-44754
LGF, p44 = 47425-47662
LGF, p45 = 48734-48876
LGF, p46 = 49464-49935
LGF, p47 = 50214-50428
